Division,WeightClassKg,Place,Name,Team,BodyweightKg,Best3SquatKg,Best3BenchKg,Best3DeadliftKg,TotalKg,Equipment,Event,Sex
Boys,51.71,1,Haif Martinez,Lewisville The Colony,51.62,181.44,97.52,190.51,469.47,Single-ply,SBD,M
Boys,51.71,2,Victor Peluso,Frisco Wakeland,51.53,124.74,99.79,147.42,371.95,Single-ply,SBD,M
Boys,51.71,3,Michael Robason,Frisco Wakeland,51.62,147.42,65.77,124.74,337.93,Single-ply,SBD,M
Boys,51.71,4,Kamron Hook,Midlothian,51.17,104.33,70.31,113.4,288.03,Single-ply,SBD,M
Boys,51.71,5,Mason Mott,Midlothian,50.89,106.59,54.43,108.86,269.89,Single-ply,SBD,M
Boys,59.87,1,Derrick Dawn,Cedar Hill,55.88,185.97,108.86,199.58,494.42,Single-ply,SBD,M
Boys,59.87,2,Carlos Bravo,Lewisville The Colony,56.02,183.7,97.52,181.44,462.66,Single-ply,SBD,M
Boys,59.87,3,Demitri Sommer,Lewisville The Colony,56.02,195.04,77.11,190.51,462.66,Single-ply,SBD,M
Boys,55.79,4,Joey Silva,Garland Sachse,55.79,181.44,83.91,163.29,428.64,Single-ply,SBD,M
Boys,59.87,5,Aaron Pomerantz,Lewisville Marcus,55.97,147.42,86.18,149.69,383.29,Single-ply,SBD,M
Boys,55.79,6,Donavan Hayes,Frisco Centennial,54.07,151.95,74.84,154.22,381.02,Single-ply,SBD,M
Boys,55.79,7,Steven Lira,Little Elm,53.98,136.08,86.18,142.88,365.14,Single-ply,SBD,M
Boys,55.79,8,Connor Buttgen,Midlothian,55.43,140.61,70.31,147.42,358.34,Single-ply,SBD,M
Boys,55.79,9,Jared Hamilton,Cedar Hill,54.16,140.61,58.97,145.15,344.73,Single-ply,SBD,M
Boys,59.87,10,Chris Hernandez,Duncanville,55.97,111.13,79.38,147.42,337.93,Single-ply,SBD,M
Boys,55.79,11,Ed Khokhar,Frisco Heritage,51.98,120.2,77.11,129.27,326.59,Single-ply,SBD,M
Boys,55.79,12,Jahaziel Patterson,Carrollton Turner,53.34,120.2,68.04,129.27,317.51,Single-ply,SBD,M
Boys,59.87,13,Rowan Wroten,Frisco Heritage,55.97,92.99,65.77,106.59,265.35,Single-ply,SBD,M
Boys,55.79,14,Blake Weaver,Frisco Heritage,55.16,68.04,52.16,83.91,204.12,Single-ply,SBD,M
Boys,55.79,DQ,Trey Patton,Frisco Wakeland,53.89,140.61,,,,Single-ply,SBD,M
Boys,67.13,1,Richard Hernandez,Lewisville The Colony,60.1,224.53,117.93,195.04,537.51,Single-ply,SBD,M
Boys,59.87,2,Ian Astorga,Keller Central,59.78,158.76,74.84,158.76,392.36,Single-ply,SBD,M
Boys,59.87,3,Nick Baril,Frisco Centennial,59.51,147.42,95.25,140.61,383.29,Single-ply,SBD,M
Boys,59.87,4,Dempsey Duprie,Midlothian,59.87,142.88,77.11,147.42,367.41,Single-ply,SBD,M
Boys,59.87,5,Grayson Sneed,Frisco Centennial,59.06,140.61,77.11,147.42,365.14,Single-ply,SBD,M
Boys,59.87,6,Matt Castillo,North Mesquite,57.24,122.47,72.57,158.76,353.8,Single-ply,SBD,M
Boys,67.13,1,Vinson Sellars,Midlothian,62.87,213.19,102.06,213.19,528.44,Single-ply,SBD,M
Boys,67.13,2,Aj Hunter,Garland Sachse,65.23,190.51,108.86,213.19,512.56,Single-ply,SBD,M
Boys,67.13,3,Devaughn Childress,Frisco Wakeland,65.77,215.46,99.79,195.04,510.29,Single-ply,SBD,M
Boys,67.13,4,Tyler Barnett,Keller Central,66.5,217.72,108.86,176.9,503.49,Single-ply,SBD,M
Boys,74.84,5,Tim Sanders,Lewisville The Colony,67.36,208.65,104.33,185.97,498.95,Single-ply,SBD,M
Boys,74.84,6,Dontae Luke,North Mesquite,67.31,183.7,120.2,190.51,494.42,Single-ply,SBD,M
Boys,74.84,7,Royce Richichi,Lewisville The Colony,67.36,208.65,97.52,174.63,480.81,Single-ply,SBD,M
Boys,67.13,8,Patrick White,Lewisville The Colony,60.51,158.76,95.25,174.63,428.64,Single-ply,SBD,M
Boys,67.13,9,Errol Cox,Lewisville The Colony,67.13,174.63,72.57,181.44,428.64,Single-ply,SBD,M
Boys,67.13,10,Gonzalo Berlingeri,Keller Fossil Ridge,64.5,170.1,102.06,154.22,426.38,Single-ply,SBD,M
Boys,67.13,11,Cory Saunders,McKinney North,67.13,158.76,90.72,170.1,419.57,Single-ply,SBD,M
Boys,67.13,12,D'Vante Johnson,Keller Fossil Ridge,63.96,170.1,88.45,158.76,417.3,Single-ply,SBD,M
Boys,67.13,13,Mason Pierce,Frisco Centennial,66.95,170.1,106.59,136.08,412.77,Single-ply,SBD,M
Boys,67.13,14,Joshep Ogunniyi,Cedar Hill,66.5,138.35,90.72,174.63,403.7,Single-ply,SBD,M
Boys,74.84,15,Aaron Parsonage,McKinney North,67.31,131.54,72.57,176.9,381.02,Single-ply,SBD,M
Boys,67.13,16,Rashawn Wainwright,Little Elm,60.42,147.42,81.65,145.15,374.21,Single-ply,SBD,M
Boys,67.13,17,Eric Valenzuela,Dallas Life Oak Cliff,64.95,142.88,79.38,147.42,369.68,Single-ply,SBD,M
Boys,67.13,17,Eric Valenzuela,Dallas Life Oak Cliff,64.95,142.88,79.38,147.42,369.68,Single-ply,SBD,M
Boys,67.13,18,Sean Williams,Frisco Heritage,63.41,138.35,68.04,136.08,342.46,Single-ply,SBD,M
Boys,67.13,19,Keon Connolly,Cedar Hill,63.96,102.06,63.5,129.27,294.84,Single-ply,SBD,M
Boys,67.13,DQ,Andres Rodriguez,Dallas Life Oak Cliff,65.14,147.42,,,,Single-ply,SBD,M
Boys,67.13,DQ,Bradley Beck,McKinney,64.32,181.44,108.86,,,Single-ply,SBD,M
Boys,74.84,DQ,Nate Jones,Lewisville The Colony,67.36,185.97,102.06,,,Single-ply,SBD,M
Boys,67.13,DQ,Andres Rodriguez,Dallas Life Oak Cliff,65.14,147.42,,,,Single-ply,SBD,M
Boys,74.84,1,Ryan Abraham,Frisco Centennial,73.84,195.04,142.88,213.19,551.11,Single-ply,SBD,M
Boys,74.84,2,Horace Borders,North Mesquite,74.84,208.65,122.47,199.58,530.7,Single-ply,SBD,M
Boys,74.84,3,Brandon Myles,North Mesquite,73.03,197.31,113.4,188.24,498.95,Single-ply,SBD,M
Boys,74.84,4,Ben Adams,Cedar Hill,73.57,183.7,106.59,183.7,474,Single-ply,SBD,M
Boys,74.84,5,Jamal Patterson,Cedar Hill,72.3,176.9,88.45,199.58,464.93,Single-ply,SBD,M
Boys,74.84,6,Logan Swann,Frisco Wakeland,73.03,154.22,115.67,190.51,460.4,Single-ply,SBD,M
Boys,74.84,7,Frank Perdomo,Lewisville The Colony,69.99,174.63,90.72,188.24,453.59,Single-ply,SBD,M
Boys,74.84,8,Zac Vaughn,Little Elm,73.3,165.56,106.59,181.44,453.59,Single-ply,SBD,M
Boys,74.84,9,Nick Segovia,Frisco Centennial,73.48,176.9,117.93,158.76,453.59,Single-ply,SBD,M
Boys,74.84,10,Kyantie Sheffield,Garland Sachse,68.95,156.49,102.06,176.9,435.45,Single-ply,SBD,M
Boys,74.84,11,Roddal Smith,Cedar Hill,67.86,149.69,104.33,163.29,417.3,Single-ply,SBD,M
Boys,74.84,12,James Ray #2,McKinney North,70.13,163.29,86.18,161.03,410.5,Single-ply,SBD,M
Boys,74.84,13,Alex Kinsella,Frisco Centennial,68.76,145.15,92.99,142.88,381.02,Single-ply,SBD,M
Boys,74.84,14,Brandon Jackson,Dallas Life Oak Cliff,67.49,102.06,74.84,147.42,324.32,Single-ply,SBD,M
Boys,74.84,14,Brandon Jackson,Dallas Life Oak Cliff,67.49,102.06,74.84,147.42,324.32,Single-ply,SBD,M
Boys,82.1,1,Zach Long,Little Elm,79.92,238.14,136.08,226.8,601.01,Single-ply,SBD,M
Boys,82.1,2,Jerrod King,Midlothian,81.28,217.72,156.49,215.46,589.67,Single-ply,SBD,M
Boys,89.81,3,Garrett Kraus,Garland Sachse,82.19,222.26,136.08,204.12,562.45,Single-ply,SBD,M
Boys,82.1,4,John Samluk,Lewisville Marcus,81.1,215.46,129.27,204.12,548.85,Single-ply,SBD,M
Boys,82.1,5,Michael Williams,Dallas Life Oak Cliff,77.2,192.78,115.67,238.14,546.58,Single-ply,SBD,M
Boys,82.1,5,Michael Williams,Dallas Life Oak Cliff,77.2,192.78,115.67,238.14,546.58,Single-ply,SBD,M
Boys,82.1,6,Keegan McCarthy,Garland Sachse,81.47,206.38,127.01,213.19,546.58,Single-ply,SBD,M
Boys,82.1,7,Lakeylon Rice,Frisco Centennial,80.1,215.46,138.35,190.51,544.31,Single-ply,SBD,M
Boys,89.81,8,Cj Kirk,Keller Central,82.28,208.65,133.81,199.58,542.04,Single-ply,SBD,M
Boys,82.1,9,Kenneth Whittaker,Frisco Liberty,78.74,197.31,108.86,167.83,474,Single-ply,SBD,M
Boys,82.1,10,Shahrukh Khan,Little Elm,78.2,174.63,115.67,176.9,467.2,Single-ply,SBD,M
Boys,82.1,11,Ross Abraham,Frisco Centennial,76.29,185.97,102.06,176.9,464.93,Single-ply,SBD,M
Boys,82.1,12,Andrew Roessler,Frisco Wakeland,76.84,174.63,108.86,165.56,449.06,Single-ply,SBD,M
Boys,82.1,13,Travis Jones,North Mesquite,79.02,138.35,81.65,181.44,401.43,Single-ply,SBD,M
Boys,82.1,14,Deunte Levine,Dallas Life Oak Cliff,75.11,156.49,88.45,149.69,394.63,Single-ply,SBD,M
Boys,82.1,14,Deunte Levine,Dallas Life Oak Cliff,75.11,156.49,88.45,149.69,394.63,Single-ply,SBD,M
Boys,82.1,15,Sean Jones,Frisco Heritage,80.65,138.35,97.52,147.42,383.29,Single-ply,SBD,M
Boys,82.1,16,Robert Merryfield,Frisco Heritage,78.38,138.35,77.11,149.69,365.14,Single-ply,SBD,M
Boys,82.1,17,Kendall Adams,Cedar Hill,79.56,113.4,83.91,147.42,344.73,Single-ply,SBD,M
Boys,82.1,DQ,Jerry Burris,Cedar Hill,81.74,181.44,,,,Single-ply,SBD,M
Boys,82.1,DQ,Colton Sanchez,Lewisville The Colony,80.74,,,,,Single-ply,SBD,M
Boys,89.81,1,Aaron Bailey,Frisco Wakeland,88.81,233.6,140.61,238.14,612.35,Single-ply,SBD,M
Boys,89.81,2,Michael Denton,Lewisville The Colony,86.82,240.4,106.59,240.4,587.4,Single-ply,SBD,M
Boys,89.81,3,Tony Larenas,Lewisville Marcus,84.73,215.46,149.69,199.58,564.72,Single-ply,SBD,M
Boys,99.79,4,Corey Smith,Cedar Hill,89.99,192.78,106.59,235.87,535.24,Single-ply,SBD,M
Boys,89.81,5,Cedric Johnson,Keller Fossil Ridge,87.72,215.46,111.13,204.12,530.7,Single-ply,SBD,M
Boys,89.81,6,Logan Matamoros,Frisco Centennial,89.72,204.12,127.01,199.58,530.7,Single-ply,SBD,M
Boys,89.81,7,Alex Olson,Lewisville Marcus,86.55,199.58,122.47,183.7,505.76,Single-ply,SBD,M
Boys,89.81,8,Doveon Dillard,Cedar Hill,82.64,190.51,108.86,185.97,485.34,Single-ply,SBD,M
Boys,89.81,9,Ryan Boyd,North Mesquite,88.99,190.51,104.33,188.24,483.08,Single-ply,SBD,M
Boys,89.81,10,Cole Cantrell,Frisco Centennial,85.91,158.76,136.08,181.44,476.27,Single-ply,SBD,M
Boys,89.81,11,Logan Teel,McKinney North,85.73,183.7,90.72,188.24,462.66,Single-ply,SBD,M
Boys,99.79,12,Nick Sepper,Frisco Wakeland,89.9,181.44,104.33,172.37,458.13,Single-ply,SBD,M
Boys,89.81,13,Augustine Zavala,McKinney,89.72,170.1,111.13,167.83,449.06,Single-ply,SBD,M
Boys,89.81,14,Kevin Xayovong,Keller Fossil Ridge,82.37,170.1,115.67,154.22,439.98,Single-ply,SBD,M
Boys,89.81,15,Hunter Stewart,Argyle,84.19,158.76,92.99,181.44,433.18,Single-ply,SBD,M
Boys,89.81,16,Dominique Parish,McKinney North,84.01,163.29,92.99,174.63,430.91,Single-ply,SBD,M
Boys,89.81,17,Jacob Kohlschmidt,McKinney,89.45,158.76,83.91,158.76,401.43,Single-ply,SBD,M
Boys,89.81,18,Garrett Garner,McKinney,89.09,142.88,79.38,165.56,387.82,Single-ply,SBD,M
Boys,89.81,DQ,Ed Garcia,McKinney North,84.64,172.37,,,,Single-ply,SBD,M
Boys,89.81,DQ,Obie Hillpot,Lewisville Marcus,88.09,,,,,Single-ply,SBD,M
Boys,89.81,DQ,Chris Hendricks,Frisco Wakeland,86,172.37,104.33,,,Single-ply,SBD,M
Boys,109.77,1,Matt Leise,Lewisville The Colony,100.02,258.55,142.88,235.87,637.3,Single-ply,SBD,M
Boys,99.79,2,Calen Johnson,Cedar Hill,93.44,242.67,142.88,238.14,623.69,Single-ply,SBD,M
Boys,99.79,3,Sir Wells,Lewisville The Colony,98.16,249.48,124.74,247.21,621.42,Single-ply,SBD,M
Boys,109.77,4,Axel DeLeon,Little Elm,99.97,249.48,136.08,235.87,621.42,Single-ply,SBD,M
Boys,99.79,5,Mitchell Bateman,Argyle,92.53,254.01,122.47,238.14,614.62,Single-ply,SBD,M
Boys,99.79,6,Ishmiah Miles,Garland Sachse,94.08,226.8,138.35,247.21,612.35,Single-ply,SBD,M
Boys,99.79,7,Nathan Ferrara,Lewisville Marcus,92.62,233.6,149.69,226.8,610.08,Single-ply,SBD,M
Boys,99.79,8,Freddy Hernandez,Little Elm,96.71,219.99,142.88,244.94,607.81,Single-ply,SBD,M
Boys,99.79,9,Austin Apari,Lewisville The Colony,99.06,240.4,122.47,240.4,603.28,Single-ply,SBD,M
Boys,99.79,10,Isaiah Hinton,Lewisville The Colony,98.43,256.28,113.4,226.8,596.47,Single-ply,SBD,M
Boys,99.79,11,Zac McCoy,Little Elm,99.61,217.72,145.15,204.12,566.99,Single-ply,SBD,M
Boys,99.79,12,David Montenegro,Carrollton Turner,95.71,183.7,147.42,201.85,532.97,Single-ply,SBD,M
Boys,99.79,13,Ryan Joyce,Frisco Centennial,97.16,204.12,117.93,195.04,517.1,Single-ply,SBD,M
Boys,99.79,14,Andrew Abamu,Cedar Hill,99.43,197.31,102.06,215.46,514.83,Single-ply,SBD,M
Boys,99.79,15,Denzell Perry,Dallas Life Oak Cliff,94.35,156.49,115.67,172.37,444.52,Single-ply,SBD,M
Boys,99.79,15,Denzell Perry,Dallas Life Oak Cliff,94.35,156.49,115.67,172.37,444.52,Single-ply,SBD,M
Boys,99.79,16,Addison Schreffler,Frisco Centennial,95.53,158.76,102.06,136.08,396.89,Single-ply,SBD,M
Boys,99.79,17,Lohit Adusumilli,Frisco Heritage,97.98,117.93,83.91,136.08,337.93,Single-ply,SBD,M
Boys,99.79,DQ,Tyler Gardner,Carrollton Turner,98.43,170.1,,,,Single-ply,SBD,M
Boys,99.79,DQ,DeAndre Kirtz,Keller Central,96.07,226.8,,,,Single-ply,SBD,M
Boys,109.77,1,Tyrone Melton,Garland Sachse,108.59,254.01,163.29,249.48,666.78,Single-ply,SBD,M
Boys,109.77,2,Justin Taylor,Little Elm,108.23,251.74,149.69,235.87,637.3,Single-ply,SBD,M
Boys,109.77,3,Adam Borne,Frisco Liberty,101.33,238.14,142.88,210.92,591.94,Single-ply,SBD,M
Boys,109.77,4,Kyle Flowers,Frisco Wakeland,104.78,235.87,142.88,208.65,587.4,Single-ply,SBD,M
Boys,109.77,5,Vienct Green,Cedar Hill,102.97,210.92,117.93,226.8,555.65,Single-ply,SBD,M
Boys,109.77,6,Donovan Parker,North Mesquite,102.51,199.58,136.08,213.19,548.85,Single-ply,SBD,M
Boys,109.77,7,Jeremy Seligsohn,Frisco Wakeland,109.5,219.99,106.59,197.31,523.9,Single-ply,SBD,M
Boys,109.77,8,Denzel Lewis,Cedar Hill,103.51,197.31,117.93,204.12,519.36,Single-ply,SBD,M
Boys,109.77,9,Torey Morrison,Duncanville,101.24,208.65,117.93,176.9,503.49,Single-ply,SBD,M
Boys,109.77,10,Drew Percle,Frisco Liberty,106.68,183.7,131.54,167.83,483.08,Single-ply,SBD,M
Boys,124.74,11,Del Washington,Duncanville,109.86,179.17,113.4,183.7,476.27,Single-ply,SBD,M
Boys,109.77,12,Kevin Smith,Frisco Centennial,106.5,154.22,122.47,185.97,462.66,Single-ply,SBD,M
Boys,109.77,13,Erick Salazaar,Carrollton Turner,107.5,174.63,92.99,172.37,439.98,Single-ply,SBD,M
Boys,109.77,14,Hector Ledezma,McKinney,101.42,158.76,104.33,156.49,419.57,Single-ply,SBD,M
Boys,109.77,15,Jeffrey Forst,Frisco Heritage,107.59,163.29,79.38,149.69,392.36,Single-ply,SBD,M
Boys,124.74,1,Chase Appleby,Frisco Centennial,122.65,281.23,158.76,226.8,666.78,Single-ply,SBD,M
Boys,124.74,2,Abran Oakes,Garland Sachse,122.02,265.35,149.69,222.26,637.3,Single-ply,SBD,M
Boys,124.74,3,Damarcus Henderson,Lewisville The Colony,119.48,244.94,115.67,235.87,596.47,Single-ply,SBD,M
Boys,124.74,4,Taylor Buchanan,Lewisville The Colony,122.83,226.8,120.2,249.48,596.47,Single-ply,SBD,M
Boys,124.74,5,Darius Thompson,Cedar Hill,119.02,233.6,102.06,215.46,551.11,Single-ply,SBD,M
Boys,124.74,6,Daniel Kim,Lewisville The Colony,120.66,222.26,111.13,213.19,546.58,Single-ply,SBD,M
Boys,124.74,7,Cornelius Henderson,Duncanville,120.66,176.9,151.95,172.37,501.22,Single-ply,SBD,M
Boys,124.74,8,Adam Butler,Duncanville,124.19,192.78,111.13,181.44,485.34,Single-ply,SBD,M
Boys,124.74,9,Jeremy Khuu,North Mesquite,120.02,167.83,106.59,188.24,462.66,Single-ply,SBD,M
Boys,124.74,10,Klein Allen,Duncanville,110.77,183.7,113.4,145.15,442.25,Single-ply,SBD,M
Boys,124.74,11,Jordan Toliver,Duncanville,113.94,156.49,102.06,172.37,430.91,Single-ply,SBD,M
Boys,124.74+,12,Cooner Roarke,Carrollton Turner,124.83,181.44,83.91,158.76,424.11,Single-ply,SBD,M
Boys,124.74,13,Michael FH Williams,Frisco Heritage,112.58,142.88,88.45,127.01,358.34,Single-ply,SBD,M
Boys,124.74,14,Ivan Hernandez,Carrollton Turner,120.2,129.27,68.04,147.42,344.73,Single-ply,SBD,M
Boys,124.74,DQ,Juan Ulgada,Cedar Hill,120.47,,,,,Single-ply,SBD,M
Boys,124.74,DQ,Jesus Garcia,Dallas Life Oak Cliff,116.39,,,,,Single-ply,SBD,M
Boys,124.74,DQ,Trey Marks,Little Elm,120.93,213.19,,,,Single-ply,SBD,M
Boys,124.74,DQ,Nicardo Ashmead,Lewisville The Colony,119.7,,,,,Single-ply,SBD,M
Boys,124.74,DQ,Jesus Garcia,Dallas Life Oak Cliff,116.39,,,,,Single-ply,SBD,M
Boys,124.74+,1,DJ Willis,Lewisville The Colony,137.89,294.84,176.9,254.01,725.75,Single-ply,SBD,M
Boys,124.74+,2,Jerome Daniels,Little Elm,135.17,281.23,176.9,226.8,684.92,Single-ply,SBD,M
Boys,124.74+,3,Willie Jones,Cedar Hill,133.08,215.46,145.15,190.51,551.11,Single-ply,SBD,M
Boys,124.74+,4,Matt Holmes,Frisco Centennial,132.9,226.8,140.61,176.9,544.31,Single-ply,SBD,M
Boys,124.74+,5,Kris Weeks,Garland Sachse,149.96,158.76,147.42,213.19,519.36,Single-ply,SBD,M
Boys,124.74+,6,Josh Peterson,North Mesquite,132.18,213.19,113.4,185.97,512.56,Single-ply,SBD,M
Boys,124.74+,DQ,Jeff Reynolds,Midlothian,134.44,197.31,142.88,,,Single-ply,SBD,M
