Name,Sex,Age,Division,Equipment,BodyweightKg,WeightClassKg,Squat1Kg,Squat2Kg,Squat3Kg,Best3SquatKg,Bench1Kg,Bench2Kg,Bench3Kg,Best3BenchKg,Deadlift1Kg,Deadlift2Kg,Deadlift3Kg,Best3DeadliftKg,TotalKg,Event,Place
Odette Smaldon,F,,F_J_R_ABPU,Raw,46.5,48,,,,,,,,,95,105,112.5,112.5,112.5,D,1
Odette Smaldon,F,,F_J_R_ABPU,Raw,46.5,48,-65,65,-70,65,-32.5,-35,-35,,95,105,112.5,112.5,,SBD,DQ
Amanda Hillary,F,,F_J_R_ABPU,Raw,59.7,60,95,100,105,105,-50,-50,50,50,117.5,122.5,132.5,132.5,287.5,SBD,1
Jenna Folkard,F,,F_J_R_BPU,Raw,46.4,48,65,67.5,72.5,72.5,35,37.5,42.5,42.5,100,107.5,117.5,117.5,232.5,SBD,1
Sue Davies,F,,F_M2_CR_BPU,Wraps,81.3,82.5,100,-115,120,120,100,110,-115,110,140,,,140,370,SBD,1
Simone Bennett,F,,F_O_CR_ABPU,Wraps,62.7,67.5,-90,90,105,105,55,65,-70,65,150,160,167.5,167.5,337.5,SBD,2
Helen Jane,F,,F_O_CR_ABPU,Wraps,62.1,67.5,-140,140,-147.5,140,60,-62.5,-62.5,60,150,165,-175,165,365,SBD,1
Holly Ware,F,,F_O_CR_BPU,Wraps,70.6,75,140,150,155,155,90,100,-105,100,170,180,190,190,445,SBD,1
Holly Ware,F,,F_O_R_BPU,Raw,70.6,75,,,,,,,,,170,180,190,190,190,D,1
Lewis Collins,M,,M_J_CR_ABPU,Wraps,87.7,90,140,,,140,130,,,130,210,,,210,480,SBD,1
Gregory Steele,M,,M_J_CR_BPU,Wraps,87.5,90,190,200,207.5,207.5,115,120,127.5,127.5,215,227.5,237.5,237.5,572.5,SBD,1
Joshua Harris,M,,M_J_CR_BPU,Wraps,122.4,125,200,,,200,160,,,160,220,,,220,580,SBD,1
Andrew Murphy #1,M,,M_J_M_BPU,Multi-ply,97.7,100,260,272.5,-280,272.5,140,150,-160,150,220,240,250,250,672.5,SBD,1
Callum Lowe,M,,M_J_R_ABPU,Raw,62.4,67.5,,,,,120,125,-127.5,125,,,,,125,B,1
Elliott Stone,M,,M_J_R_ABPU,Raw,65.3,67.5,,,,,,,,,-200,,,,,D,DQ
Callum Lowe,M,,M_J_R_ABPU,Raw,62.4,67.5,-140,150,160,160,120,125,-127.5,125,180,200,-205,200,485,SBD,1
Elliott Stone,M,,M_J_R_ABPU,Raw,65.3,67.5,170,180,-190,180,-117.5,-117.5,-117.5,,-200,,,,,SBD,DQ
Jamie Colwill,M,,M_J_R_ABPU,Raw,69,75,105,115,120,120,65,-72.5,72.5,72.5,125,135,140,140,332.5,SBD,1
Lloyd Chugg,M,,M_J_R_ABPU,Raw,80.4,82.5,200,220,230,230,150,160,-165,160,260,280,-300,280,670,SBD,1
Sean Barrett,M,,M_J_R_ABPU,Raw,89.4,90,170,185,192.5,192.5,130,140,-150,140,205,220,-230,220,552.5,SBD,1
William Tinkler,M,,M_M2_M_ABPU,Multi-ply,99.1,100,220,-240,-240,220,120,,,120,180,210,,210,550,SBD,1
Paul Murphy,M,,M_M2_M_BPU,Multi-ply,87.5,90,260,280,-290,280,135,-140,140,140,250,270,280,280,700,SBD,1
Adrian Phillips,M,,M_M3_M_ABPU,Multi-ply,89.2,90,200,-215,-215,200,125,-132.5,-132.5,125,220,240,-247.5,240,565,SBD,1
Martin Pearce,M,,M_M3_M_ABPU,Multi-ply,130.9,140,,,,,190,200,-210,200,,,,,200,B,1
Ken Williams,M,,M_M7_M_ABPU,Multi-ply,88.3,90,180,200,,200,115,-120,,115,160,,,160,475,SBD,1
Jay Bello,M,,M_O_CR_ABPU,Wraps,74.7,75,210,220,-240,220,150,-155,-155,150,260,280,-300,280,650,SBD,1
Dale Collins,M,,M_O_CR_BPU,Wraps,80.7,82.5,160,-175,,160,120,127.5,-132.5,127.5,220,235,-250,235,522.5,SBD,1
Travis Hughes,M,,M_O_CR_BPU,Wraps,89.9,90,200,210,220,220,135,147.5,-160,147.5,235,250,260,260,627.5,SBD,2
Reece Meakin,M,,M_O_CR_BPU,Wraps,89.5,90,240,255,265,265,167.5,175,180,180,270,-290,300,300,745,SBD,1
Adam Riman,M,,M_O_CR_BPU,Wraps,99.4,100,240,252.5,,252.5,25,60,80,80,290,302.5,-310,302.5,635,SBD,1
Andy Jackson,M,,M_O_CR_BPU,Wraps,106.9,110,220,235,250,250,-170,175,182.5,182.5,210,-230,235,235,667.5,SBD,2
Brad James,M,,M_O_CR_BPU,Wraps,107.7,110,250,-270,-270,250,150,,,150,295,325,-345,325,725,SBD,1
Dewi Evans,M,,M_O_M_ABPU,Multi-ply,81.8,82.5,200,220,-232.5,220,140,-150,-150,140,200,220,-240,220,580,SBD,1
David Gladwell,M,,M_O_M_BPU,Multi-ply,137.7,140,300,,,300,270,-280,,270,-280,290,-305,290,860,SBD,2
Aaron Hoskings,M,,M_O_M_BPU,Multi-ply,127.8,140,330,350,,350,230,-240,-240,230,275,290,302.5,302.5,882.5,SBD,1
Josh Lockyear,M,,M_O_R_ABPU,Raw,73.6,75,160,170,-175,170,90,100,-105,100,205,220,227.5,227.5,497.5,SBD,1
Adam Gasson,M,,M_O_R_ABPU,Raw,81.3,82.5,180,190,,190,120,-125,-125,120,200,210,-220,210,520,SBD,2
Aled Lewis,M,,M_O_R_ABPU,Raw,81.7,82.5,160,170,180,180,115,122.5,-130,122.5,205,215,222.5,222.5,525,SBD,1
Steven Varney,M,,M_O_R_ABPU,Raw,79.9,82.5,190,-200,-200,190,-140,-145,-145,,,,,,,SBD,DQ
Jesse Page,M,,M_O_R_ABPU,Raw,90,90,-180,180,200,200,125,135,137.5,137.5,205,230,-242.5,230,567.5,SBD,1
Alec McQuay,M,,M_O_R_ABPU,Raw,91.2,100,140,150,160,160,-130,130,-140,130,180,195,-215,195,485,SBD,2
Ant Allso,M,,M_O_R_ABPU,Raw,99.9,100,-180,180,-200,180,110,-120,-120,110,210,230,-245,230,520,SBD,1
Jamie Spedding,M,,M_O_R_ABPU,Raw,108.4,110,205,220,230,230,135,145,,145,240,,,240,615,SBD,1
Tom Morely,M,,M_O_R_BPU,Raw,61.7,67.5,130,140,-150,140,85,-95,-95,85,180,190,200,200,425,SBD,1
Carl Thompson #2,M,,M_O_R_BPU,Raw,75,75,-160,-175,175,175,100,107.5,110,110,190,205,-210,205,490,SBD,1
Luke Mitchell,M,,M_O_R_BPU,Raw,89.7,90,-180,180,195,195,125,132.5,-137.5,132.5,205,210,220,220,547.5,SBD,1
Adam Riman,M,,M_O_R_BPU,Raw,99.4,100,,,,,,,,,290,302.5,-310,302.5,302.5,D,1
Scott Massingham,M,,M_O_R_BPU,Raw,112.2,125,,,,,180,190,-200,190,,,,,190,B,1
Scott Massingham,M,,M_O_R_BPU,Raw,112.2,125,,,,,,,,,260,280,300,300,300,D,1
Dillon Edwards,M,,M_T1_R_ABPU,Raw,65.6,67.5,85,90,105,105,65,72.5,-80,72.5,95,105,120,120,297.5,SBD,1
Daniel Slater,M,,M_T2_CR_BPU,Wraps,87.4,90,155,-170,175,175,105,-115,,105,222.5,-250,250,250,530,SBD,1
Declan Lee,M,,M_T3_CR_BPU,Wraps,96.1,100,195,207.5,-215,207.5,110,120,130,130,215,227.5,240,240,577.5,SBD,1
Rys Bennett,M,,M_T3_R_ABPU,Raw,74.6,75,80,-100,115,115,80,-90,-95,80,-140,-140,140,140,335,SBD,1
Blaze Hughes,M,,M_T3_R_BPU,Raw,66.1,67.5,112.5,120,130,130,-87.5,87.5,100,100,162.5,172.5,182.5,182.5,412.5,SBD,1
