Division,WeightClassKg,Place,Name,Team,BodyweightKg,Best3SquatKg,Best3BenchKg,Best3DeadliftKg,TotalKg,Equipment,Event,Sex
Boys,51.71,1,Nate Lunsford,Frisco Wakeland,50.76,140.61,79.38,140.61,360.61,Single-ply,SBD,M
Boys,51.71,2,Ricky Lopez,Frisco Centennial,48.81,138.35,72.57,142.88,353.8,Single-ply,SBD,M
Boys,51.71,3,Zeke Castillo,Frisco Wakeland,51.26,99.79,61.23,120.2,281.23,Single-ply,SBD,M
Boys,51.71,4,Cameron Police,Frisco Wakeland,51.12,102.06,47.63,104.33,254.01,Single-ply,SBD,M
Boys,55.79,5,Jordan Brooks,Frisco,51.89,97.52,56.7,,154.22,Single-ply,SB,M
Boys,51.71,6,Mathew Read,Frisco Heritage,51.07,90.72,47.63,,138.35,Single-ply,SB,M
Boys,55.79,1,Carlos Reynoso,McKinney Boyd,55.16,183.7,92.99,174.63,451.32,Single-ply,SBD,M
Boys,55.79,2,Logan Police,Frisco Wakeland,55.07,145.15,88.45,158.76,392.36,Single-ply,SBD,M
Boys,55.79,3,Gavin Carroll,Frisco Wakeland,55.79,129.27,70.31,129.27,328.85,Single-ply,SBD,M
Boys,55.79,4,Brady Gordon,Frisco Centennial,55.43,113.4,72.57,113.4,299.37,Single-ply,SBD,M
Boys,55.79,5,Zach Brigandi,Little Elm,54.79,108.86,61.23,117.93,288.03,Single-ply,SBD,M
Boys,59.87,1,Gerald Van Ess,McKinney North,59.33,185.97,113.4,188.24,487.61,Single-ply,SBD,M
Boys,67.13,2,Deiontay Cornelius,Little Elm,60.1,174.63,74.84,174.63,424.11,Single-ply,SBD,M
Boys,59.87,3,Justin Acosta,Frisco Lone Star,58.6,165.56,97.52,154.22,417.3,Single-ply,SBD,M
Boys,67.13,4,Carl Harvey,Frisco Centennial,60.1,113.4,81.65,142.88,337.93,Single-ply,SBD,M
Boys,67.13,DQ,Garrett Marley,Frisco Wakeland,59.96,124.74,,,,Single-ply,SBD,M
Boys,67.13,1,Andrew Wilson,Frisco Wakeland,65.23,185.97,95.25,190.51,471.74,Single-ply,SBD,M
Boys,67.13,2,Malik Taylor,Frisco Liberty,61.73,172.37,95.25,181.44,449.06,Single-ply,SBD,M
Boys,67.13,3,Bailey Forst,Frisco Heritage,66.5,183.7,95.25,167.83,446.79,Single-ply,SBD,M
Boys,67.13,4,Kolby Dodson,Frisco Centennial,66.32,142.88,99.79,163.29,405.97,Single-ply,SBD,M
Boys,67.13,5,Zach Jones,Frisco Lone Star,63.23,142.88,70.31,179.17,392.36,Single-ply,SBD,M
Boys,67.13,6,Aj Womack,Frisco Lone Star,66.22,129.27,88.45,147.42,365.14,Single-ply,SBD,M
Boys,67.13,7,Carmeron Cotogno,McKinney Boyd,63.78,120.2,95.25,147.42,362.87,Single-ply,SBD,M
Boys,67.13,8,Jonathan Rodriguez,Frisco Independence,63.09,131.54,81.65,142.88,356.07,Single-ply,SBD,M
Boys,67.13,9,Mason Castaldo,Frisco Independence,66.63,120.2,95.25,136.08,351.53,Single-ply,SBD,M
Boys,67.13,10,Colin Wilburn,Frisco Heritage,62.28,74.84,61.23,102.06,238.14,Single-ply,SBD,M
Boys,67.13,DQ,Jack Brown,Frisco Heritage,63.37,113.4,,,,Single-ply,SBD,M
Boys,67.13,DQ,Nico Barlis,Frisco Centennial,64.91,149.69,,,,Single-ply,SBD,M
Boys,74.84,1,George Kennard,Frisco Wakeland,70.58,181.44,127.01,195.04,503.49,Single-ply,SBD,M
Boys,74.84,2,Tyler Tarrence,Little Elm,72.35,185.97,95.25,188.24,469.47,Single-ply,SBD,M
Boys,74.84,3,Alejandro Vazquez,Little Elm,73.48,179.17,95.25,183.7,458.13,Single-ply,SBD,M
Boys,74.84,4,Ricky Fantroy,McKinney,69.72,165.56,97.52,183.7,446.79,Single-ply,SBD,M
Boys,74.84,5,Doren Gibson,McKinney Boyd,72.57,158.76,83.91,190.51,433.18,Single-ply,SBD,M
Boys,74.84,6,Mike Edwards,Frisco Liberty,74.75,165.56,102.06,165.56,433.18,Single-ply,SBD,M
Boys,74.84,7,Hunter Smith,Frisco Wakeland,74.53,165.56,102.06,158.76,426.38,Single-ply,SBD,M
Boys,74.84,8,Aiden Kilbane,Frisco Lone Star,70.44,158.76,86.18,170.1,415.04,Single-ply,SBD,M
Boys,74.84,9,Tommy Warkins,Frisco Heritage,73.94,97.52,54.43,113.4,265.35,Single-ply,SBD,M
Boys,74.84,DQ,Sean Moore,McKinney,71.44,136.08,,,,Single-ply,SBD,M
Boys,82.1,1,Anthony Pegues,Frisco Centennial,80.47,249.48,140.61,238.14,628.23,Single-ply,SBD,M
Boys,82.1,2,Chris Miller,Frisco Lone Star,81.37,183.7,120.2,185.97,489.88,Single-ply,SBD,M
Boys,82.1,3,Mathew Rechsteiner,Frisco Heritage,78.93,163.29,102.06,188.24,453.59,Single-ply,SBD,M
Boys,82.1,4,Wyatt Park,McKinney Boyd,76.66,151.95,102.06,181.44,435.45,Single-ply,SBD,M
Boys,82.1,5,Jacob Mauldin,Frisco Heritage,78.47,170.1,92.99,172.37,435.45,Single-ply,SBD,M
Boys,82.1,6,Matt Hinkle,McKinney North,76.61,158.76,92.99,172.37,424.11,Single-ply,SBD,M
Boys,82.1,7,World Shabazz,Frisco Liberty,77.07,167.83,102.06,142.88,412.77,Single-ply,SBD,M
Boys,82.1,8,Angel Herrera,Frisco Independence,81.87,158.76,83.91,170.1,412.77,Single-ply,SBD,M
Boys,89.81,9,Spencer Gregory,McKinney North,82.24,149.69,99.79,158.76,408.23,Single-ply,SBD,M
Boys,82.1,10,Kyle Johnson,Frisco,75.3,142.88,102.06,158.76,403.7,Single-ply,SBD,M
Boys,89.81,1,Charles Ijioma,Little Elm,89.36,222.26,133.81,235.87,591.94,Single-ply,SBD,M
Boys,99.79,2,Alec Melkovitz,Frisco Centennial,90.04,240.4,145.15,183.7,569.26,Single-ply,SBD,M
Boys,89.81,3,Kyle Kossack,Little Elm,86,213.19,104.33,213.19,530.7,Single-ply,SBD,M
Boys,89.81,4,Richard McNamara,Frisco Liberty,86.95,201.85,117.93,170.1,489.88,Single-ply,SBD,M
Boys,89.81,5,Noah Forte,McKinney North,89.81,174.63,122.47,190.51,487.61,Single-ply,SBD,M
Boys,89.81,6,Chance Marshall,Frisco Centennial,86.14,185.97,117.93,181.44,485.34,Single-ply,SBD,M
Boys,89.81,7,Andrew Reagan,Frisco Liberty,83.42,190.51,117.93,170.1,478.54,Single-ply,SBD,M
Boys,89.81,8,Derek Brantzeg,Frisco Wakeland,86.64,192.78,106.59,179.17,478.54,Single-ply,SBD,M
Boys,89.81,9,Braden Labrie-Torres,Frisco Heritage,89.27,181.44,102.06,170.1,453.59,Single-ply,SBD,M
Boys,99.79,10,Khalil Lewis,McKinney North,89.86,172.37,97.52,183.7,453.59,Single-ply,SBD,M
Boys,89.81,11,Matt Hawk,Frisco Independence,89.27,161.03,102.06,183.7,446.79,Single-ply,SBD,M
Boys,89.81,12,Taylor Hayen,Frisco Centennial,86.77,174.63,90.72,174.63,439.98,Single-ply,SBD,M
Boys,89.81,13,Connor Brach,Frisco,85.5,151.95,95.25,161.03,408.23,Single-ply,SBD,M
Boys,89.81,14,Brandon Cambre,Frisco Independence,87.72,142.88,83.91,149.69,376.48,Single-ply,SBD,M
Boys,89.81,DQ,Oluwaseye Akinwale,Frisco Heritage,84.46,102.06,,,,Single-ply,SBD,M
Boys,99.79,1,Dylan Branson,Little Elm,97.16,260.82,129.27,215.46,605.55,Single-ply,SBD,M
Boys,99.79,2,Jared Morris,McKinney North,95.48,204.12,113.4,233.6,551.11,Single-ply,SBD,M
Boys,109.77,3,Dorrian Ogas,Frisco Liberty,99.93,201.85,127.01,201.85,530.7,Single-ply,SBD,M
Boys,99.79,4,Ryan Knesek,Frisco Wakeland,94.76,192.78,104.33,217.72,514.83,Single-ply,SBD,M
Boys,99.79,5,Zach Barenberg,McKinney Boyd,91.81,183.7,113.4,199.58,496.68,Single-ply,SBD,M
Boys,99.79,6,Rafay Usman,Frisco Liberty,95.35,176.9,113.4,199.58,489.88,Single-ply,SBD,M
Boys,99.79,7,Logan Jones,Frisco Lone Star,91.9,179.17,131.54,176.9,487.61,Single-ply,SBD,M
Boys,99.79,8,Michael Carpin,Frisco Heritage,96.3,179.17,113.4,179.17,471.74,Single-ply,SBD,M
Boys,99.79,9,Nick Barona,Frisco Centennial,97.07,195.04,124.74,149.69,469.47,Single-ply,SBD,M
Boys,99.79,10,Sergio Aldana,Frisco,93.12,142.88,102.06,158.76,403.7,Single-ply,SBD,M
Boys,99.79,11,Chase Gschwend,Frisco Independence,95.44,170.1,88.45,,258.55,Single-ply,SB,M
Boys,99.79,12,Zack Rupe,McKinney,94.85,176.9,,,176.9,Single-ply,S,M
Boys,99.79,13,Jett Carson,McKinney,99.11,145.15,,,145.15,Single-ply,S,M
Boys,99.79,DQ,Vincent Ton,Frisco,97.43,147.42,,,,Single-ply,S,M
Boys,109.77,1,Keith Ngondo,Little Elm,100.47,292.57,138.35,278.96,709.87,Single-ply,SBD,M
Boys,109.77,2,Gage Rieter,Frisco Liberty,102.74,217.72,149.69,226.8,594.21,Single-ply,SBD,M
Boys,109.77,3,Kelvin McKee,Little Elm,107.82,222.26,102.06,229.06,553.38,Single-ply,SBD,M
Boys,109.77,4,Kelvin Apari,Frisco Lone Star,102.1,210.92,124.74,213.19,548.85,Single-ply,SBD,M
Boys,109.77,5,Drew Grisham,McKinney North,103.15,204.12,124.74,219.99,548.85,Single-ply,SBD,M
Boys,109.77,6,Tyler Ballard,Frisco Liberty,106.55,197.31,115.67,183.7,496.68,Single-ply,SBD,M
Boys,109.77,7,Skylar Finnagin,Little Elm,108.64,197.31,108.86,188.24,494.42,Single-ply,SBD,M
Boys,109.77,8,Jake Waszkowski,McKinney Boyd,104.05,145.15,142.88,192.78,480.81,Single-ply,SBD,M
Boys,109.77,9,Will Wagner,Frisco,106.05,138.35,102.06,172.37,412.77,Single-ply,SBD,M
Boys,109.77,10,Aaron Freshour,Frisco Independence,105.6,158.76,83.91,165.56,408.23,Single-ply,SBD,M
Boys,124.74,1,Landon Hallmark,Little Elm,113.81,283.5,147.42,283.5,714.41,Single-ply,SBD,M
Boys,124.74,2,Alec Jamar,Frisco Liberty,124.42,238.14,142.88,217.72,598.74,Single-ply,SBD,M
Boys,124.74,3,Phillip Abramo,Frisco,122.97,249.48,145.15,192.78,587.4,Single-ply,SBD,M
Boys,124.74,4,Donovan Taylor,Frisco Centennial,117.53,217.72,142.88,208.65,569.26,Single-ply,SBD,M
Boys,124.74,5,Constantino Zuniga,McKinney North,117.03,210.92,111.13,215.46,537.51,Single-ply,SBD,M
Boys,124.74,6,Caleb Stricklin,McKinney,117.07,210.92,117.93,195.04,523.9,Single-ply,SBD,M
Boys,124.74,7,Christian Hernandez,Frisco Lone Star,113.76,190.51,133.81,183.7,508.02,Single-ply,SBD,M
Boys,124.74,8,Eric Viramontes,Frisco Independence,111.4,210.92,106.59,188.24,505.76,Single-ply,SBD,M
Boys,124.74,9,Connor Wilkinson,Frisco,116.39,163.29,120.2,217.72,501.22,Single-ply,SBD,M
Boys,124.74,10,Kevin Mair,Frisco Heritage,112.94,170.1,102.06,188.24,460.4,Single-ply,SBD,M
Boys,124.74,11,Braden Bonnett,Frisco Centennial,114.53,174.63,79.38,142.88,396.89,Single-ply,SBD,M
Boys,124.74,DQ,Andres Salerno,Frisco,111.4,,,,,Single-ply,SBD,M
Boys,124.74+,1,Alex Boyer,Frisco Liberty,128.96,238.14,156.49,229.06,623.69,Single-ply,SBD,M
Boys,124.74+,2,Zach Thomas,McKinney North,139.98,272.16,136.08,204.12,612.35,Single-ply,SBD,M
Boys,124.74+,3,Jaxson Deaton,Frisco,147.33,226.8,133.81,210.92,571.53,Single-ply,SBD,M
Boys,124.74+,4,Patrick Quintana,McKinney Boyd,137.62,233.6,131.54,204.12,569.26,Single-ply,SBD,M
Boys,124.74+,5,Tanner Leser,Frisco Lone Star,126.96,179.17,120.2,219.99,519.36,Single-ply,SBD,M
Boys,124.74+,6,Davy Hernandez,Frisco Independence,154.58,181.44,99.79,174.63,455.86,Single-ply,SBD,M
