Division,WeightClassKg,Place,Name,Team,BodyweightKg,Best3SquatKg,Best3BenchKg,Best3DeadliftKg,TotalKg,Equipment,Event,Sex
Boys,51.71,1,James Ayers,Lucas Lovejoy,45,154.22,95.25,104.33,353.8,Single-ply,SBD,M
Boys,51.71,2,Mason Cottam,Burleson,51.62,138.35,56.7,151.95,347,Single-ply,SBD,M
Boys,51.71,3,Cesar Ledesma,Burleson,47.17,124.74,72.57,136.08,333.39,Single-ply,SBD,M
Boys,51.71,4,Josh Lambert,Burleson Centennial,51.71,106.59,56.7,117.93,281.23,Single-ply,SBD,M
Boys,51.71,5,Hunter Mayo,Stephenville,47.81,92.99,49.9,102.06,244.94,Single-ply,SBD,M
Boys,51.71,DQ,David Cook,Burleson Centennial,51.71,,,,,Single-ply,SBD,M
Boys,55.79,1,Alex Schaefer,Venus,55.79,151.95,81.65,176.9,410.5,Single-ply,SBD,M
Boys,55.79,2,Jabril Claiborne,North Crowley,55.79,108.86,74.84,163.29,347,Single-ply,SBD,M
Boys,55.79,3,Dylan Quintero,Burleson Centennial,55.79,113.4,68.04,154.22,335.66,Single-ply,SBD,M
Boys,59.87,1,Tyler Robinson,Burleson,59.06,158.76,92.99,188.24,439.98,Single-ply,SBD,M
Boys,59.87,2,Hunter Ford,Burleson Centennial,59.87,147.42,88.45,172.37,408.23,Single-ply,SBD,M
Boys,59.87,3,Franklin Lopez,Millsap,58.79,170.1,79.38,156.49,405.97,Single-ply,SBD,M
Boys,59.87,4,Zac Brooks,Lucas Lovejoy,59.42,145.15,86.18,165.56,396.89,Single-ply,SBD,M
Boys,59.87,5,Jacob Moss,Burleson,58.69,149.69,86.18,156.49,392.36,Single-ply,SBD,M
Boys,59.87,6,Dakota Tidwell,Burleson,59.78,133.81,86.18,145.15,365.14,Single-ply,SBD,M
Boys,59.87,7,Mike Jones #2,Midlothian,59.87,147.42,77.11,131.54,356.07,Single-ply,SBD,M
Boys,67.13,1,Ethan Haynes,Burleson,65.5,197.31,108.86,201.85,508.02,Single-ply,SBD,M
Boys,67.13,2,Houston Johnson,North Crowley,66.5,181.44,83.91,192.78,458.13,Single-ply,SBD,M
Boys,67.13,3,Chandler Brown,Burleson,66.86,167.83,108.86,165.56,442.25,Single-ply,SBD,M
Boys,67.13,4,Ross Martinez,Midlothian,67.13,158.76,86.18,183.7,428.64,Single-ply,SBD,M
Boys,67.13,5,David Barrera,Venus,67.13,167.83,88.45,167.83,424.11,Single-ply,SBD,M
Boys,67.13,6,Allen Gaught,Boyd,66.04,147.42,77.11,174.63,399.16,Single-ply,SBD,M
Boys,67.13,7,Ryan Collins,Lucas Lovejoy,65.5,129.27,86.18,140.61,356.07,Single-ply,SBD,M
Boys,74.84,1,Mathew Gray,Brock,69.94,204.12,95.25,226.8,526.17,Single-ply,SBD,M
Boys,74.84,2,Logan Thomas,Early,74.57,183.7,138.35,201.85,523.9,Single-ply,SBD,M
Boys,74.84,3,Jim Fowler,Early,74.3,197.31,115.67,188.24,501.22,Single-ply,SBD,M
Boys,74.84,4,Jayton DeLeon,Midlothian,74.66,183.7,106.59,197.31,487.61,Single-ply,SBD,M
Boys,74.84,5,Skylar Collier,Brock,70.67,204.12,83.91,197.31,485.34,Single-ply,SBD,M
Boys,74.84,6,Zac Johle,Thrall,73.94,163.29,129.27,181.44,474,Single-ply,SBD,M
Boys,74.84,7,Casey Jackson,Burleson,74.3,170.1,99.79,185.97,455.86,Single-ply,SBD,M
Boys,74.84,8,Aaron Bodine,Joshua,74.84,138.35,90.72,181.44,410.5,Single-ply,SBD,M
Boys,74.84,9,Gerado Vasquez,Burleson Centennial,74.84,131.54,83.91,172.37,387.82,Single-ply,SBD,M
Boys,74.84,DQ,Matt Oldham,Boyd,73.03,,,,,Single-ply,SBD,M
Boys,74.84,DQ,Steven Davis,Burleson Centennial,70.03,154.22,,,,Single-ply,SBD,M
Boys,82.1,1,Campbell Masteller,Burleson,81.56,222.26,136.08,224.53,582.87,Single-ply,SBD,M
Boys,82.1,2,Brek Galbreath,Joshua,82.01,204.12,142.88,222.26,569.26,Single-ply,SBD,M
Boys,82.1,3,Hunter Cunningham,Burleson,78.47,208.65,120.2,210.92,539.77,Single-ply,SBD,M
Boys,82.1,4,Michael Mebane,Joshua,80.29,210.92,108.86,190.51,510.29,Single-ply,SBD,M
Boys,82.1,5,Issac De La Cruz,Stephenville,77.2,183.7,122.47,197.31,503.49,Single-ply,SBD,M
Boys,82.1,6,Kalon Heim,Venus,81.92,190.51,97.52,210.92,498.95,Single-ply,SBD,M
Boys,82.1,7,Billy Webb,Wolfe City,81.01,176.9,115.67,176.9,469.47,Single-ply,SBD,M
Boys,82.1,8,Zane Hairston,Joshua,80.74,181.44,104.33,179.17,464.93,Single-ply,SBD,M
Boys,82.1,9,Dalton Lindelof,Lucas Lovejoy,81.01,183.7,111.13,165.56,460.4,Single-ply,SBD,M
Boys,82.1,10,Breyden Smith,Joshua,77.29,163.29,106.59,163.29,433.18,Single-ply,SBD,M
Boys,82.1,DQ,Jason Wiggin,Rio Vista,81.56,,,,,Single-ply,SBD,M
Boys,89.81,1,Garrett Parkhill,Burleson Centennial,89.81,249.48,140.61,226.8,616.89,Single-ply,SBD,M
Boys,89.81,2,Taylor Hudspeth,Fort Worth Arlington Heights,87.09,226.8,142.88,217.72,587.4,Single-ply,SBD,M
Boys,89.81,3,Corey Hartfield,North Crowley,89.27,235.87,95.25,249.48,580.6,Single-ply,SBD,M
Boys,89.81,4,Travis Williams,Wolfe City,88.72,217.72,129.27,219.99,566.99,Single-ply,SBD,M
Boys,89.81,5,Matthew Freeman,Venus,89.63,217.72,127.01,208.65,553.38,Single-ply,SBD,M
Boys,89.81,6,Nico Keaton,Rogers,87.72,204.12,131.54,206.38,542.04,Single-ply,SBD,M
Boys,89.81,7,Tate Swearengin,Brock,83.73,174.63,140.61,208.65,523.9,Single-ply,SBD,M
Boys,89.81,8,Eric Ortega,Burleson Centennial,89.27,197.31,120.2,192.78,510.29,Single-ply,SBD,M
Boys,89.81,9,Blake Brown,Lucas Lovejoy,88.36,176.9,120.2,163.29,460.4,Single-ply,SBD,M
Boys,89.81,10,Jacob Jackson,Burleson Centennial,89.72,179.17,102.06,172.37,453.59,Single-ply,SBD,M
Boys,89.81,11,Zach Rodriguez,Lucas Lovejoy,85.73,167.83,108.86,156.49,433.18,Single-ply,SBD,M
Boys,99.79,1,Dylan Hipsman,Midlothian,98.7,254.01,154.22,265.35,673.58,Single-ply,SBD,M
Boys,99.79,2,Blake Edgington,Joshua,97.98,256.28,136.08,254.01,646.37,Single-ply,SBD,M
Boys,99.79,3,Kade Ashley,Lucas Lovejoy,98.52,238.14,176.9,201.85,616.89,Single-ply,SBD,M
Boys,99.79,4,Hayden Lewis,Burleson,97.79,219.99,151.95,226.8,598.74,Single-ply,SBD,M
Boys,99.79,5,Michael Farnsworth,Midlothian,99.06,235.87,151.95,210.92,598.74,Single-ply,SBD,M
Boys,99.79,6,Cailou Washington,North Crowley,98.43,217.72,133.81,244.94,596.47,Single-ply,SBD,M
Boys,99.79,7,Sergio Arriaga,Lucas Lovejoy,94.17,224.53,120.2,208.65,553.38,Single-ply,SBD,M
Boys,99.79,8,Nathan Martin #1,Stephenville,92.9,206.38,136.08,206.38,548.85,Single-ply,SBD,M
Boys,99.79,9,Garrett Smith,Venus,96.34,195.04,120.2,226.8,542.04,Single-ply,SBD,M
Boys,99.79,10,Tre Rose,Brock,98.52,222.26,122.47,195.04,539.77,Single-ply,SBD,M
Boys,99.79,11,Brock Prengler,Lucas Lovejoy,91.63,204.12,108.86,192.78,505.76,Single-ply,SBD,M
Boys,99.79,12,Justis Chaney,Joshua,90.63,190.51,120.2,188.24,498.95,Single-ply,SBD,M
Boys,99.79,13,Eric Fisk,Wolfe City,94.62,185.97,111.13,181.44,478.54,Single-ply,SBD,M
Boys,99.79,14,Cooper Walthall,Cleburne,90.81,183.7,102.06,165.56,451.32,Single-ply,SBD,M
Boys,99.79,15,Jaiden Cochran,Early,93.98,154.22,111.13,165.56,430.91,Single-ply,SBD,M
Boys,99.79,16,Daniel Minchey,Cleburne,90.54,142.88,74.84,172.37,390.09,Single-ply,SBD,M
Boys,99.79,DQ,Mathu Blanton,Cleburne,90.81,149.69,,,,Single-ply,SBD,M
Boys,99.79,DQ,Cole Porter,Burleson Centennial,97.16,156.49,90.72,,,Single-ply,SBD,M
Boys,99.79,DQ,Adilio Alaniz,Cleburne,95.8,170.1,92.99,,,Single-ply,SBD,M
Boys,109.77,1,Thomas Godi,Burleson Centennial,105.96,265.35,174.63,238.14,678.12,Single-ply,SBD,M
Boys,109.77,2,Jordan Mauntel,Burleson,105.51,222.26,147.42,247.21,616.89,Single-ply,SBD,M
Boys,109.77,3,Kerry Coleman,Fort Worth Arlington Heights,103.69,229.06,147.42,219.99,596.47,Single-ply,SBD,M
Boys,109.77,4,Kenneth Lay,Cleburne,105.51,215.46,142.88,210.92,569.26,Single-ply,SBD,M
Boys,109.77,5,Duane Johnson,Midlothian,105.78,199.58,138.35,226.8,564.72,Single-ply,SBD,M
Boys,109.77,6,Michael Kornack,Burleson Centennial,103.06,204.12,108.86,208.65,521.63,Single-ply,SBD,M
Boys,109.77,7,Daniel Aguilar,Millsap,100.88,192.78,108.86,188.24,489.88,Single-ply,SBD,M
Boys,109.77,8,Ja Rainey,Lucas Lovejoy,100.61,179.17,111.13,192.78,483.08,Single-ply,SBD,M
Boys,124.74,1,Javon Chambers,Belton,124.65,328.85,179.17,204.12,712.14,Single-ply,SBD,M
Boys,124.74,2,Jaterrius Pleasant,Burleson,115.58,256.28,149.69,258.55,664.51,Single-ply,SBD,M
Boys,124.74,3,Richard Cuellar,Cleburne,124.74,301.64,131.54,183.7,616.89,Single-ply,SBD,M
Boys,124.74,4,Holt Honeycutt,Joshua,118.02,238.14,151.95,215.46,605.55,Single-ply,SBD,M
Boys,124.74,5,Tyler Meksavanh,Burleson Centennial,121.47,215.46,120.2,206.38,542.04,Single-ply,SBD,M
Boys,124.74,DQ,Ricardo Martinez,Rio Vista,114.76,217.72,120.2,,,Single-ply,SBD,M
Boys,124.74,DQ,Kellan Anderson,Wolfe City,120.88,,,,,Single-ply,SBD,M
Boys,124.74+,1,Connor Murphey,Early,141.79,235.87,147.42,226.8,610.08,Single-ply,SBD,M
Boys,124.74+,2,Logan Sigmon,Lucas Lovejoy,148.05,265.35,129.27,201.85,596.47,Single-ply,SBD,M
Boys,124.74+,3,Luke Galan,Cleburne,128.46,240.4,124.74,215.46,580.6,Single-ply,SBD,M
