Division,WeightClassKg,Place,Name,Team,BodyweightKg,Best3SquatKg,Best3BenchKg,Best3DeadliftKg,TotalKg,Equipment,Event,Sex
Boys,51.71,1,Adel Jebokji,Port Neches-Groves,51.48,111.13,65.77,154.22,331.12,Single-ply,SBD,M
Boys,55.79,2,Kevin Angus,Port Neches-Groves,51.94,113.4,77.11,140.61,331.12,Single-ply,SBD,M
Boys,51.71,3,Tyler Cooper,Vidor,36.51,68.04,34.02,68.04,170.1,Single-ply,SBD,M
Boys,55.79,1,Austin Leger,Lumberton,55.34,113.4,74.84,127.01,315.25,Single-ply,SBD,M
Boys,55.79,2,Tanner Royal,Bridge City,52.84,77.11,45.36,113.4,235.87,Single-ply,SBD,M
Boys,55.79,3,John Breaux,Nederland,53.52,74.84,47.63,90.72,213.19,Single-ply,SBD,M
Boys,55.79,DQ,Travis Mccoy,Port Neches-Groves,54.66,,,,,Single-ply,SBD,M
Boys,59.87,1,David Bolinger,Vidor,56.7,145.15,104.33,158.76,408.23,Single-ply,SBD,M
Boys,59.87,2,Sean Longmire,Bridge City,59.87,147.42,83.91,149.69,381.02,Single-ply,SBD,M
Boys,59.87,3,Keaton Baker,Lumberton,58.74,95.25,74.84,122.47,292.57,Single-ply,SBD,M
Boys,67.13,1,Austin Powell,Vidor,65.54,158.76,95.25,167.83,421.84,Single-ply,SBD,M
Boys,67.13,2,Troy Soileau,Lumberton,63.28,147.42,95.25,158.76,401.43,Single-ply,SBD,M
Boys,67.13,3,Matt Thomas,Vidor,66.68,147.42,106.59,145.15,399.16,Single-ply,SBD,M
Boys,67.13,4,James Pierce,Nederland,63.05,99.79,74.84,131.54,306.17,Single-ply,SBD,M
Boys,67.13,DQ,Rafe Simmons,Lumberton,66,,,,,Single-ply,SBD,M
Boys,67.13,DQ,Quincy Honneycutt,Lumberton,62.37,,,,,Single-ply,SBD,M
Boys,74.84,1,Jacobie Brown,Beaumont West Brook,72.12,181.44,117.93,190.51,489.88,Single-ply,SBD,M
Boys,74.84,2,Hugo Ceja,Port Neches-Groves,72.35,183.7,115.67,174.63,474,Single-ply,SBD,M
Boys,74.84,3,Darvin Gatlin,Beaumont West Brook,68.72,183.7,92.99,185.97,462.66,Single-ply,SBD,M
Boys,74.84,4,Michael Godeaux,Vidor,71.44,174.63,106.59,179.17,460.4,Single-ply,SBD,M
Boys,74.84,5,Juan Lugo,Beaumont West Brook,70.99,147.42,86.18,149.69,383.29,Single-ply,SBD,M
Boys,74.84,6,Noah Ogrydziak,Nederland,72.35,102.06,95.25,127.01,324.32,Single-ply,SBD,M
Boys,82.1,1,Robert Johnson,Nederland,78.47,278.96,147.42,272.16,698.53,Single-ply,SBD,M
Boys,82.1,2,Faron Beard,Vidor,80.06,195.04,127.01,174.63,496.68,Single-ply,SBD,M
Boys,82.1,3,Coby Holley,Vidor,82.1,188.24,124.74,158.76,471.74,Single-ply,SBD,M
Boys,82.1,DQ,Justin Sperl,Port Neches-Groves,76.66,,,,,Single-ply,SBD,M
Boys,82.1,DQ,Jonathan Brown #1,Beaumont West Brook,80.06,111.13,,,,Single-ply,SBD,M
Boys,82.1,DQ,Joshua Bowie,Beaumont West Brook,80.97,,,,,Single-ply,SBD,M
Boys,89.81,1,Dylan Sams,Bridge City,83.46,210.92,124.74,210.92,546.58,Single-ply,SBD,M
Boys,89.81,2,Hunter Woolls,Bridge City,84.59,219.99,127.01,199.58,546.58,Single-ply,SBD,M
Boys,89.81,3,Bruce Reyes,Beaumont West Brook,83.01,219.99,117.93,204.12,542.04,Single-ply,SBD,M
Boys,89.81,4,Austin Broussard,Bridge City,83.46,174.63,124.74,172.37,471.74,Single-ply,SBD,M
Boys,89.81,5,Zach Cole,Bridge City,87.77,197.31,102.06,156.49,455.86,Single-ply,SBD,M
Boys,99.79,1,Shane Stankus,Bridge City,99.79,267.62,165.56,251.74,684.92,Single-ply,SBD,M
Boys,99.79,2,Terchan Newman,Beaumont West Brook,96.62,249.48,142.88,226.8,619.15,Single-ply,SBD,M
Boys,99.79,3,Edmund Horn,Lumberton,91.63,190.51,127.01,149.69,467.2,Single-ply,SBD,M
Boys,99.79,4,Rj Pastorella,Nederland,95.71,179.17,113.4,174.63,467.2,Single-ply,SBD,M
Boys,99.79,5,Shane Wilson,Bridge City,93.67,188.24,102.06,151.95,442.25,Single-ply,SBD,M
Boys,99.79,6,Jacob Frost,Nederland,91.17,145.15,86.18,149.69,381.02,Single-ply,SBD,M
Boys,99.79,7,Frank Taylor,Beaumont West Brook,98.66,142.88,74.84,147.42,365.14,Single-ply,SBD,M
Boys,109.77,1,Justin Brock,Beaumont West Brook,109.54,183.7,102.06,199.58,485.34,Single-ply,SBD,M
Boys,109.77,2,Colby Castillo,Lumberton,107.73,190.51,127.01,163.29,480.81,Single-ply,SBD,M
Boys,109.77,3,Cody Robinson,Lumberton,107.95,163.29,120.2,163.29,446.79,Single-ply,SBD,M
Boys,109.77,4,Zach Burkhalter,Lumberton,106.59,158.76,117.93,154.22,430.91,Single-ply,SBD,M
Boys,109.77,DQ,Taylor Britt,Vidor,109.77,,,,,Single-ply,SBD,M
Boys,124.74,1,Taylor Thompson,Port Neches-Groves,111.58,276.69,167.83,231.33,675.85,Single-ply,SBD,M
Boys,124.74,2,Brock Pryor,Nederland,114.99,188.24,142.88,179.17,510.29,Single-ply,SBD,M
Boys,124.74,DQ,Lucas Mackan,Beaumont West Brook,121.56,,,,,Single-ply,SBD,M
Boys,124.74,DQ,Thomas Luce,Bridge City,120.2,312.98,161.03,,,Single-ply,SBD,M
Boys,124.74,DQ,Marcus Kelly,Beaumont West Brook,119.52,201.85,,,,Single-ply,SBD,M
Boys,124.74,DQ,Dustin Rowell,Vidor,115.67,,,,,Single-ply,SBD,M
Boys,124.74+,1,Caleb Malveaux,Nederland,127.01,201.85,120.2,165.56,487.61,Single-ply,SBD,M
Junior Varsity,51.71,1,Hunter Roberts,Nederland,49.67,68.04,43.09,81.65,192.78,Single-ply,SBD,M
Junior Varsity,51.71,DQ,Windsor Nguyen,Bridge City,48.99,88.45,,,,Single-ply,SBD,M
Junior Varsity,55.79,1,Fred Smith,Vidor,55.34,72.57,45.36,106.59,224.53,Single-ply,SBD,M
Junior Varsity,59.87,1,Michael Tyson,Nederland,57.83,77.11,61.23,95.25,233.6,Single-ply,SBD,M
Junior Varsity,59.87,2,Kevin Porterfield,Nederland,58.74,72.57,45.36,95.25,213.19,Single-ply,SBD,M
Junior Varsity,67.13,1,Colt Ryan,Lumberton,63.28,113.4,86.18,158.76,358.34,Single-ply,SBD,M
Junior Varsity,67.13,2,Ian Stonte,Lumberton,67.13,136.08,77.11,131.54,344.73,Single-ply,SBD,M
Junior Varsity,67.13,3,Jordan Pastorella,Nederland,65.32,104.33,70.31,131.54,306.17,Single-ply,SBD,M
Junior Varsity,67.13,4,Trevon Fobbs,Nederland,64.86,79.38,58.97,136.08,274.42,Single-ply,SBD,M
Junior Varsity,67.13,5,Britton Clark,Lumberton,66.9,90.72,72.57,95.25,258.55,Single-ply,SBD,M
Junior Varsity,67.13,6,Chris Hagner,Nederland,61.69,97.52,45.36,104.33,247.21,Single-ply,SBD,M
Junior Varsity,67.13,7,Conrad Breitenstein,Nederland,62.6,65.77,45.36,95.25,206.38,Single-ply,SBD,M
Junior Varsity,67.13,DQ,Joel Lonzono,Port Neches-Groves,63.5,,,,,Single-ply,SBD,M
Junior Varsity,74.84,1,Colby Trahan,Bridge City,68.27,151.95,74.84,151.95,378.75,Single-ply,SBD,M
Junior Varsity,74.84,2,Pj Aull,Vidor,69.63,115.67,86.18,156.49,358.34,Single-ply,SBD,M
Junior Varsity,74.84,3,Brandon Thomas,Lumberton,73.71,131.54,70.31,124.74,326.59,Single-ply,SBD,M
Junior Varsity,74.84,4,Caleb Cook,Lumberton,72.57,122.47,72.57,120.2,315.25,Single-ply,SBD,M
Junior Varsity,74.84,5,Brandan Rodriguez,Nederland,74.62,113.4,74.84,113.4,301.64,Single-ply,SBD,M
Junior Varsity,74.84,6,Trevor Williams,Nederland,68.95,97.52,61.23,113.4,272.16,Single-ply,SBD,M
Junior Varsity,74.84,7,Chris Cleveland,Vidor,71.67,88.45,65.77,117.93,272.16,Single-ply,SBD,M
Junior Varsity,74.84,8,Brandon Mojica,Vidor,71.89,97.52,65.77,106.59,269.89,Single-ply,SBD,M
Junior Varsity,82.1,1,Colton Grantham,Port Neches-Groves,80.97,161.03,106.59,176.9,444.52,Single-ply,SBD,M
Junior Varsity,82.1,2,Bradley Hartman,Vidor,82.1,129.27,102.06,174.63,405.97,Single-ply,SBD,M
Junior Varsity,82.1,3,Dimtri Stamatis,Nederland,75.75,145.15,95.25,136.08,376.48,Single-ply,SBD,M
Junior Varsity,82.1,4,Logan Warlick,Port Neches-Groves,79.61,133.81,106.59,133.81,374.21,Single-ply,SBD,M
Junior Varsity,82.1,5,Kenny Sanderson,Lumberton,75.75,108.86,81.65,140.61,331.12,Single-ply,SBD,M
Junior Varsity,82.1,6,Paul Miller,Vidor,81.87,113.4,65.77,102.06,281.23,Single-ply,SBD,M
Junior Varsity,82.1,7,Mario Lopez,Nederland,80.29,77.11,77.11,124.74,278.96,Single-ply,SBD,M
Junior Varsity,82.1,DQ,Colby Delk,Lumberton,82.1,92.99,92.99,,,Single-ply,SBD,M
Junior Varsity,89.81,1,Steven Segler,Port Neches-Groves,84.82,183.7,99.79,161.03,444.52,Single-ply,SBD,M
Junior Varsity,89.81,2,Blake Trejo,Nederland,86.86,140.61,99.79,158.76,399.16,Single-ply,SBD,M
Junior Varsity,99.79,3,Jose Morales,Nederland,90.04,133.81,102.06,154.22,390.09,Single-ply,SBD,M
Junior Varsity,89.81,4,Blake Nolan,Nederland,89.13,136.08,88.45,138.35,362.87,Single-ply,SBD,M
Junior Varsity,89.81,5,Jacob Brinkley,Nederland,87.09,129.27,88.45,136.08,353.8,Single-ply,SBD,M
Junior Varsity,89.81,6,Justin Whittington,Lumberton,87.32,113.4,90.72,145.15,349.27,Single-ply,SBD,M
Junior Varsity,89.81,DQ,Hunter Beaumont,Bridge City,86.64,,,,,Single-ply,SBD,M
Junior Varsity,99.79,1,William Holman,Nederland,97.52,120.2,108.86,142.88,371.95,Single-ply,SBD,M
Junior Varsity,99.79,2,Cameron Denson,Nederland,94.35,122.47,81.65,136.08,340.19,Single-ply,SBD,M
Junior Varsity,99.79,3,Travis Gracedel,Lumberton,93.67,117.93,70.31,136.08,324.32,Single-ply,SBD,M
Junior Varsity,99.79,4,Ben Horton,Nederland,93.89,120.2,65.77,117.93,303.91,Single-ply,SBD,M
Junior Varsity,99.79,DQ,Alan Hanks,Port Neches-Groves,92.31,149.69,,,,Single-ply,SBD,M
Junior Varsity,109.77,1,Aaron Williams,Vidor,109.54,151.95,97.52,154.22,403.7,Single-ply,SBD,M
Junior Varsity,109.77,2,Josh Riley,Port Neches-Groves,106.14,165.56,90.72,142.88,399.16,Single-ply,SBD,M
Junior Varsity,109.77,3,James Kigth,Lumberton,103.87,136.08,81.65,145.15,362.87,Single-ply,SBD,M
Junior Varsity,109.77,4,Evan Barries,Lumberton,107.73,117.93,81.65,117.93,317.51,Single-ply,SBD,M
Junior Varsity,109.77,5,Stefan Gregg,Nederland,107.27,86.18,77.11,113.4,276.69,Single-ply,SBD,M
Junior Varsity,124.74,1,Brandon Boullion,Nederland,124.74,140.61,97.52,154.22,392.36,Single-ply,SBD,M
Junior Varsity,124.74,DQ,Miscel Ortiz,Bridge City,121.79,142.88,,,,Single-ply,SBD,M
