Division,WeightClassKg,Place,Name,Team,BodyweightKg,Best3SquatKg,Best3BenchKg,Best3DeadliftKg,TotalKg,Equipment,Event,Sex
Boys,51.71,1,Gio Lozano,North Forney,49.44,74.84,54.43,90.72,219.99,Single-ply,SBD,M
Boys,,NS,Koby Vandiver,Royse City,,,,,,Single-ply,SBD,M
Boys,55.79,1,Zachary Doyle,Royse City,53.98,142.88,79.38,145.15,367.41,Single-ply,SBD,M
Boys,55.79,2,La'Mark Gindratt,Cedar Hill,53.07,127.01,70.31,140.61,337.93,Single-ply,SBD,M
Boys,55.79,3,Jose Zuniga,Forney,55.7,113.4,61.23,102.06,276.69,Single-ply,SBD,M
Boys,55.79,4,Braylin Witherspoon,South Garland,54.88,90.72,56.7,122.47,269.89,Single-ply,SBD,M
Boys,55.79,5,Austin Michael,Palmer,52.16,56.7,47.63,99.79,204.12,Single-ply,SBD,M
Boys,59.87,1,Nathan Jones,Corsicana Mildred,59.42,136.08,83.91,145.15,365.14,Single-ply,SBD,M
Boys,59.87,2,Promise Ogbonna,Cedar Hill,56.7,138.35,61.23,140.61,340.19,Single-ply,SBD,M
Boys,59.87,3,Jonathan Martin,Forney,58.97,115.67,83.91,133.81,333.39,Single-ply,SBD,M
Boys,59.87,4,Brice Dennis,Royse City,57.97,115.67,61.23,136.08,312.98,Single-ply,SBD,M
Boys,59.87,5,Nick Lopez,Palmer,58.97,106.59,61.23,113.4,281.23,Single-ply,SBD,M
Boys,59.87,6,Marcus Moore,North Forney,58.97,95.25,63.5,102.06,260.82,Single-ply,SBD,M
Boys,59.87,DQ,Noah Bajorek,Scurry-Rosser,58.97,,,,,Single-ply,SBD,M
Boys,67.13,1,Tajohn Livingston,South Garland,61.23,167.83,70.31,201.85,439.98,Single-ply,SBD,M
Boys,67.13,2,Gavin West,Forney,67.09,165.56,90.72,176.9,433.18,Single-ply,SBD,M
Boys,67.13,3,Kobie Norman,North Forney,66.22,176.9,86.18,161.03,424.11,Single-ply,SBD,M
Boys,67.13,4,Keshawn Johnson,Forney,62.41,156.49,83.91,156.49,396.89,Single-ply,SBD,M
Boys,67.13,5,Kollin Moss,Royse City,64.41,158.76,86.18,149.69,394.63,Single-ply,SBD,M
Boys,67.13,6,Kevaun Davis,Cedar Hill,62.14,145.15,86.18,158.76,390.09,Single-ply,SBD,M
Boys,67.13,7,Jacoby Brown,Royse City,67.13,149.69,81.65,151.95,383.29,Single-ply,SBD,M
Boys,67.13,8,Connor Luke,Scurry-Rosser,66.68,136.08,74.84,165.56,376.48,Single-ply,SBD,M
Boys,67.13,9,Jacob Donaldson,North Forney,66.86,131.54,79.38,158.76,369.68,Single-ply,SBD,M
Boys,67.13,10,Michael Washington,North Forney,66.54,120.2,83.91,140.61,344.73,Single-ply,SBD,M
Boys,67.13,11,Gaige Corey,Palmer,64.41,90.72,86.18,158.76,335.66,Single-ply,SBD,M
Boys,67.13,12,Carrington Henry,North Forney,66.68,102.06,68.04,117.93,288.03,Single-ply,SBD,M
Boys,67.13,DQ,Akil Lewis,Forney,67.13,165.56,95.25,,,Single-ply,SBD,M
Boys,67.13,DQ,Trey Atkiesson,Corsicana Mildred,66.68,142.88,92.99,,,Single-ply,SBD,M
Boys,74.84,1,Anthony Perez,North Forney,74.03,192.78,97.52,215.46,505.76,Single-ply,SBD,M
Boys,74.84,2,Landon Mantooth,Rockwall-Heath,71.21,170.1,104.33,170.1,444.52,Single-ply,SBD,M
Boys,74.84,3,Devon Rundles,Forney,73.53,161.03,102.06,163.29,426.38,Single-ply,SBD,M
Boys,74.84,4,Caleb Hayes,Corsicana Mildred,74.39,136.08,72.57,188.24,396.89,Single-ply,SBD,M
Boys,74.84,5,Angel Gutierrez,South Garland,71.67,129.27,70.31,170.1,369.68,Single-ply,SBD,M
Boys,74.84,6,Arturo Gonzalez,Palmer,72.12,124.74,86.18,149.69,360.61,Single-ply,SBD,M
Boys,74.84,7,Collin Graves,Palmer,74.39,115.67,79.38,145.15,340.19,Single-ply,SBD,M
Boys,74.84,8,Ethan Howell,North Forney,74.62,102.06,74.84,136.08,312.98,Single-ply,SBD,M
Boys,74.84,DQ,Dustin Sides,Scurry-Rosser,68.49,,,,,Single-ply,SBD,M
Boys,74.84,DQ,Preston Sides,Scurry-Rosser,71.21,,,,,Single-ply,SBD,M
Boys,74.84,DQ,Glen De La Hoz,North Forney,74.39,,86.18,163.29,,Single-ply,SBD,M
Boys,74.84,DQ,Antorius Hambric,North Forney,74.39,147.42,,145.15,,Single-ply,SBD,M
Boys,74.84,DQ,Campbell Anderson,Forney,73.62,172.37,,170.1,,Single-ply,SBD,M
Boys,82.1,1,Gabriel Dexter,Forney,80.06,204.12,131.54,204.12,539.77,Single-ply,SBD,M
Boys,82.1,2,Dedryc Hutchins,Cedar Hill,76.2,215.46,102.06,195.04,512.56,Single-ply,SBD,M
Boys,82.1,3,Griffin Merillat,Royse City,81.65,206.38,104.33,197.31,508.02,Single-ply,SBD,M
Boys,82.1,4,Adrian Vital,Royse City,81.74,183.7,120.2,181.44,485.34,Single-ply,SBD,M
Boys,82.1,5,Kenneth Kemp,Cedar Hill,78.02,181.44,92.99,208.65,483.08,Single-ply,SBD,M
Boys,82.1,6,Daniel Delgado,South Garland,77.11,188.24,92.99,190.51,471.74,Single-ply,SBD,M
Boys,82.1,7,Akanimo Asuquo,North Forney,81.65,181.44,83.91,188.24,453.59,Single-ply,SBD,M
Boys,82.1,8,Greyson Burros,Forney,80.15,188.24,90.72,167.83,446.79,Single-ply,SBD,M
Boys,82.1,9,Jaden Kistler,Corsicana Mildred,81.65,131.54,92.99,161.03,385.55,Single-ply,SBD,M
Boys,82.1,10,Andrew Jaramillo,Royse City,81.78,102.06,70.31,102.06,274.42,Single-ply,SBD,M
Boys,89.81,1,Thatcher Davis,Royse City,83.91,206.38,111.13,226.8,544.31,Single-ply,SBD,M
Boys,89.81,2,Aidan Murrey,Royse City,86.18,195.04,120.2,195.04,510.29,Single-ply,SBD,M
Boys,89.81,3,Amir Rabah,Rockwall-Heath,87.09,188.24,129.27,185.97,503.49,Single-ply,SBD,M
Boys,89.81,4,Hunter Shaw,Forney,89.63,183.7,111.13,206.38,501.22,Single-ply,SBD,M
Boys,89.81,5,Marc Zagala,Palmer,88,181.44,120.2,197.31,498.95,Single-ply,SBD,M
Boys,89.81,6,Andrew Acosta,Scurry-Rosser,86.18,188.24,124.74,183.7,496.68,Single-ply,SBD,M
Boys,89.81,7,Angel Villa,Scurry-Rosser,88.9,158.76,102.06,158.76,419.57,Single-ply,SBD,M
Boys,89.81,8,Logan Hancock,Corsicana Mildred,89.36,145.15,88.45,181.44,415.04,Single-ply,SBD,M
Boys,89.81,9,Rylan Smart,North Forney,89.81,145.15,88.45,165.56,399.16,Single-ply,SBD,M
Boys,89.81,DQ,Gavin Shultz,Royse City,86.64,,,,,Single-ply,SBD,M
Boys,89.81,DQ,Christian Boren,Royse City,83.1,142.88,,129.27,,Single-ply,SBD,M
Boys,99.79,1,Kasey Wilson,Rockwall-Heath,95.25,226.8,142.88,219.99,589.67,Single-ply,SBD,M
Boys,99.79,2,Mecca Bonds,Cedar Hill,95.25,240.4,131.54,210.92,582.87,Single-ply,SBD,M
Boys,99.79,3,Garrett Smith,Royse City,96.62,226.8,124.74,204.12,555.65,Single-ply,SBD,M
Boys,99.79,4,Graham Burns,Forney,96.03,204.12,117.93,213.19,535.24,Single-ply,SBD,M
Boys,99.79,5,Grady Brewer,Rockwall-Heath,96.16,181.44,120.2,183.7,485.34,Single-ply,SBD,M
Boys,99.79,6,Jon McLean,Scurry-Rosser,99.79,161.03,106.59,183.7,451.32,Single-ply,SBD,M
Boys,99.79,7,Ethan Monaco,North Forney,99.34,167.83,102.06,167.83,437.72,Single-ply,SBD,M
Boys,99.79,8,Dominic Chiapuzio,North Forney,98.43,129.27,92.99,158.76,381.02,Single-ply,SBD,M
Boys,99.79,9,Treymon Jackson,South Garland,94.8,124.74,92.99,136.08,353.8,Single-ply,SBD,M
Boys,99.79,10,Ronald Roberts,Royse City,92.26,111.13,61.23,142.88,315.25,Single-ply,SBD,M
Boys,,NS,Jackson Luff,Rockwall-Heath,,,,,,Single-ply,SBD,M
Boys,99.79,DQ,Amari Davis,South Garland,92.53,147.42,,124.74,,Single-ply,SBD,M
Boys,99.79,DQ,Diego D'lorn,Scurry-Rosser,98.88,165.56,,163.29,,Single-ply,SBD,M
Boys,109.77,1,Leon Young,Cedar Hill,109.32,249.48,142.88,226.8,619.15,Single-ply,SBD,M
Boys,109.77,2,Jack Bussey,Scurry-Rosser,107.95,231.33,122.47,229.06,582.87,Single-ply,SBD,M
Boys,109.77,3,Ben Lancone,Palmer,109.32,192.78,136.08,231.33,560.19,Single-ply,SBD,M
Boys,109.77,4,Owen Higbee,Rockwall-Heath,106.14,210.92,102.06,238.14,551.11,Single-ply,SBD,M
Boys,109.77,5,Patrick Lacy,North Forney,109.32,204.12,117.93,204.12,526.17,Single-ply,SBD,M
Boys,109.77,6,Clifford Funderburk,North Forney,109.32,195.04,106.59,208.65,510.29,Single-ply,SBD,M
Boys,109.77,7,Noah Monroe,North Forney,109.32,183.7,97.52,190.51,471.74,Single-ply,SBD,M
Boys,109.77,8,Braden Tittle,Royse City,104.24,185.97,90.72,174.63,451.32,Single-ply,SBD,M
Boys,109.77,9,Carson Reneau,Scurry-Rosser,107.05,179.17,102.06,156.49,437.72,Single-ply,SBD,M
Boys,109.77,10,Aiden Rose,Royse City,101.7,176.9,77.11,179.17,433.18,Single-ply,SBD,M
Boys,109.77,11,Spencer Uwakawe,North Forney,104.33,142.88,106.59,167.83,417.3,Single-ply,SBD,M
Boys,109.77,12,Braden Howerton,Royse City,103.33,149.69,79.38,136.08,365.14,Single-ply,SBD,M
Boys,109.77,13,Koby Johnson,Scurry-Rosser,109.77,138.35,61.23,136.08,335.66,Single-ply,SBD,M
Boys,109.77,14,Ian Carrion,Royse City,108.41,124.74,74.84,129.27,328.85,Single-ply,SBD,M
Boys,,NS,Devin Taylor,Cedar Hill,,,,,,Single-ply,SBD,M
Boys,109.77,DQ,Mystery Fields,Cedar Hill,104.33,,142.88,217.72,,Single-ply,SBD,M
Boys,109.77,DQ,Seth Bell,Forney,109.63,201.85,108.86,,,Single-ply,SBD,M
Boys,124.74,1,Jamie Cortez,Royse City,119.75,326.59,167.83,267.62,762.04,Single-ply,SBD,M
Boys,124.74,2,Taderrick Dunn,Cedar Hill,119.75,244.94,136.08,195.04,576.06,Single-ply,SBD,M
Boys,124.74,3,Damon Herrera,Palmer,114.76,192.78,92.99,233.6,519.36,Single-ply,SBD,M
Boys,124.74,4,Ryan Dehorney,Cedar Hill,114.31,206.38,115.67,195.04,517.1,Single-ply,SBD,M
Boys,124.74,5,Turner Hilburn,Royse City,118.84,192.78,111.13,206.38,510.29,Single-ply,SBD,M
Boys,,NS,Hunter Smith,Rockwall-Heath,,,,,,Single-ply,SBD,M
Boys,124.74+,1,Jaden Webb,Royse City,131.54,278.96,163.29,238.14,680.39,Single-ply,SBD,M
Boys,124.74+,2,Andrew Zamora,Rockwall-Heath,139.71,272.16,158.76,240.4,671.32,Single-ply,SBD,M
Boys,124.74+,3,Gabe Collins,Rockwall-Heath,152.86,249.48,140.61,226.8,616.89,Single-ply,SBD,M
Boys,124.74+,4,Cade Crawford,Forney,139.25,276.69,140.61,190.51,607.81,Single-ply,SBD,M
Boys,124.74+,5,Marcus Sanchez,South Garland,131.09,222.26,129.27,197.31,548.85,Single-ply,SBD,M
Boys,124.74+,6,Josh Anderson,North Forney,135.17,190.51,117.93,197.31,505.76,Single-ply,SBD,M
Boys,124.74+,7,Diego Escalante,South Garland,132.9,210.92,102.06,188.24,501.22,Single-ply,SBD,M
Boys,124.74+,DQ,Clayton Johnson,Scurry-Rosser,130.18,226.8,,192.78,,Single-ply,SBD,M
