Name,WeightClassKg,Sex,BodyweightKg,Squat1Kg,Squat2Kg,Squat3Kg,Best3SquatKg,Bench1Kg,Bench2Kg,Bench3Kg,Best3BenchKg,Deadlift1Kg,Deadlift2Kg,Deadlift3Kg,Best3DeadliftKg,TotalKg,Place,Event,Equipment
Jordan Callais,44,F,44,80,-92.5,92.5,92.5,45,52.5,-57.5,52.5,112.5,-120,-120,112.5,257.5,1,SBD,Single-ply
Valerie Naymick,44,F,42.5,67.5,-75,-75,67.5,42.5,-47.5,50,50,82.5,90,95,95,212.5,2,SBD,Single-ply
Abby Shields,44,F,43.2,-60,60,-75,60,27.5,42.5,-45,42.5,60,70,80,80,182.5,3,SBD,Single-ply
Bernadette Lavarreda-Perez,44,F,43.4,60,67.5,-75,67.5,-37.5,40,-42.5,40,75,-82.5,-82.5,75,182.5,4,SBD,Single-ply
Ashley Matherne,48,F,47.8,92.5,-97.5,97.5,97.5,60,65,-67.5,65,105,115,122.5,122.5,285,1,SBD,Single-ply
Carley Carter,48,F,47.5,87.5,-97.5,97.5,97.5,47.5,50,-57.5,50,97.5,105,-110,105,252.5,3,SBD,Single-ply
Jacqueline Cain,48,F,47.1,-92.5,-92.5,92.5,92.5,40,-42.5,-42.5,40,100,110,120,120,252.5,2,SBD,Single-ply
Beth Jaubert,48,F,47.5,87.5,-92.5,-92.5,87.5,42.5,45,-47.5,45,92.5,-107.5,112.5,112.5,245,4,SBD,Single-ply
Ashley Awalt,52,F,51.3,132.5,137.5,142.5,142.5,-75,75,82.5,82.5,140,147.5,160,160,385,1,SBD,Single-ply
Codi Grubbs,52,F,52,127.5,140,150,150,72.5,-80,80,80,122.5,132.5,-145,132.5,362.5,2,SBD,Single-ply
Nicole Schieferstein,52,F,51.3,-85,85,-102.5,85,52.5,60,-67.5,60,102.5,112.5,122.5,122.5,267.5,3,SBD,Single-ply
Crystal Hays,52,F,51.9,87.5,95,102.5,102.5,47.5,52.5,-60,52.5,95,105,110,110,265,4,SBD,Single-ply
Jenna Zboril,52,F,50.3,97.5,-107.5,-107.5,97.5,-45,-50,-50,,,,,,,DQ,SBD,Single-ply
Alyssa Hitchcock,56,F,55.1,137.5,-147.5,147.5,147.5,-70,70,-77.5,70,150,160,-165,160,377.5,1,SBD,Single-ply
Ashley Matt,56,F,55.3,115,127.7,-137.5,127.7,57.5,62.5,65,65,147.5,160,-170,160,352.5,2,SBD,Single-ply
Paula Ramirez,56,F,55.1,-125,125,-140,125,55,60,65,65,132.5,142.5,155,155,345,3,SBD,Single-ply
Alayna Cunningham,56,F,56,122.5,135,140,140,70,-77.5,-77.5,70,122.5,135,-145,135,345,4,SBD,Single-ply
Sophia Nimphius,56,F,56,117.5,-127.5,-127.5,117.5,55,-60,60,60,132.5,142.5,-155,142.5,320,5,SBD,Single-ply
Sarah Newman,56,F,55.8,112.5,120,-122.5,120,-70,70,-80,70,120,-137.5,-137.5,120,310,6,SBD,Single-ply
Kaliste Thomas,56,F,55.6,105,-115,-115,105,-50,-50,50,50,130,145,-150,145,300,7,SBD,Single-ply
Tai Nickleson,56,F,55.5,95,120,-127.5,120,47.5,-55,57.5,57.5,97.5,110,120,120,297,8,SBD,Single-ply
Rebecca Rich,56,F,55,85,92.5,97.5,97.5,70,75,-77.5,75,95,105,112.5,112.5,285,9,SBD,Single-ply
Krystle Kageyama,56,F,53.8,85,92.5,-105,92.5,52.5,57.5,62.5,62.5,100,115,125,125,280,10,SBD,Single-ply
Danielle Stevenson,56,F,55.6,100,-105,-110,100,50,55,-57.5,55,97.5,107.5,112.5,112.5,267.5,11,SBD,Single-ply
Jennifer Bloom,56,F,55.1,85,97.5,-112.5,97.5,45,-57.5,-62.5,45,102.5,112.5,-127.5,112.5,255,12,SBD,Single-ply
Jennifer Worley,56,F,56,85,90,-95,90,40,-45,45,45,92.5,100,112.5,112.5,247.5,13,SBD,Single-ply
Oneida Silguero,56,F,55,67.5,72.5,-80,72.5,50,-55,-55,50,97.5,105,112.5,112.5,235,14,SBD,Single-ply
Nissa Carlson,56,F,56,57.5,-77.5,-77.5,57.5,40,-45,-45,40,87.5,92.5,-102.5,92.5,190,15,SBD,Single-ply
Robyn Niederkorn,60,F,58,145,147.5,-157.5,147.5,85,-90,90,90,145,147.5,152.5,152.5,390,1,SBD,Single-ply
Erin Walterman,60,F,59.6,115,127.5,-135,127.5,65,70,-75,70,127.5,137.5,145,145,342.5,2,SBD,Single-ply
Karen Dunn,60,F,58.4,100,107.5,117.5,117.5,60,65,70,70,115,125,135,135,322.5,3,SBD,Single-ply
Shay Lynne Stone,60,F,59.2,112.5,-125,-125,112.5,60,70,-72.5,70,117.5,130,135,135,317,4,SBD,Single-ply
Natalie Hellerstedt,60,F,59.8,102.5,-110,110,110,60,70,75,75,110,122.5,-140,122.5,307.5,5,SBD,Single-ply
Lindsey Windham,60,F,,87.5,97.5,-110,97.5,-65,70,75,75,102.5,110,112.5,112.5,285,6,SBD,Single-ply
Ashley Millet,60,F,59.9,87.5,100,102.5,102.5,57.5,-62.5,-62.5,57.5,105,115,122.5,122.5,282.5,7,SBD,Single-ply
Jessica Rivera,60,F,56.7,-60,82.5,87.5,87.5,50,60,-62.5,60,80,100,107.5,107.5,255,8,SBD,Single-ply
Elizabeth Karnath,60,F,60,80,-90,92.5,92.5,-37.5,40,45,45,82.5,97.5,-102.5,97.5,235,9,SBD,Single-ply
Jan Morello,67.5,F,62.5,145,-157.5,157.5,157.5,67.5,77.5,-85,77.5,152.5,162.5,-175,162.5,397.5,1,SBD,Single-ply
Destiny Joyner,67.5,F,67.14,130,142.5,152.5,152.5,62.5,70,-75,70,132.5,150,155,155,377.5,2,SBD,Single-ply
Trisha Urban,67.5,F,64.52,127.5,137.5,142.5,142.5,57.5,65,-67.5,65,127.5,137.5,142.5,142.5,350,3,SBD,Single-ply
Samantha Harmon,67.5,F,67.5,-112.5,117.5,135,135,70,-80,-82.5,70,120,140,145,145,350,4,SBD,Single-ply
Tunde Katalin Szivak,67.5,F,65.36,105,117.5,122.5,122.5,65,70,72.5,72.5,130,147.5,-150,147.5,342.5,5,SBD,Single-ply
Jolynn Rae Ennis,67.5,F,66.18,117.5,-127.5,-135,117.5,72.5,80,-85,80,117.5,132.5,-145,132.5,330,6,SBD,Single-ply
Karen Pierce,67.5,F,66.42,-125,-125,125,125,55,-60,60,60,137.5,145,-147.5,145,330,7,SBD,Single-ply
Rachel Odom,67.5,F,66.48,105,115,-125,115,62.5,67.5,-70,67.5,142.5,147.5,-157.5,147.5,330,8,SBD,Single-ply
Renee Christensen,67.5,F,67.12,112.5,125,-132.5,125,62.5,67.5,-72.5,67.5,117.5,130,135,135,327.5,9,SBD,Single-ply
Kelly Roulaine,67.5,F,66.2,120,130,-137.5,130,62.5,-67.5,-67.5,62.5,120,130,-137.5,130,322.5,10,SBD,Single-ply
Aubrey Maddox,67.5,F,64.4,120,-127.5,127.5,127.5,57.5,62.5,-67.5,62.5,117.5,127.5,-135,127.5,317.5,11,SBD,Single-ply
Danialle Tiemann,67.5,F,67.48,105,115,-120,115,57.5,60,-62.5,60,115,127.5,-130,127.5,302.5,12,SBD,Single-ply
Carolyn Hawkins,67.5,F,66.38,97.5,107.5,-112.5,107.5,67.5,-72.5,-72.5,67.5,107.5,115,125,125,300,13,SBD,Single-ply
Jo Tiffany Scott,67.5,F,60.2,90,-100,100,100,52.5,60,-62.5,60,110,122.5,130,130,290,14,SBD,Single-ply
Rebekah Cobb,67.5,F,66.42,82.5,92.5,102.5,102.5,45,52.5,-55,52.5,100,110,117.5,117.5,272.5,15,SBD,Single-ply
Erin Choromanski,67.5,F,64.62,-82.5,-82.5,92.5,92.5,57.5,-65,-65,57.5,82.5,90,100,100,250,16,SBD,Single-ply
Dara Ching,67.5,F,66.32,102.5,115,-125,115,-70,-80,-80,,,,,,,DQ,SBD,Single-ply
Kimmie Everett,75,F,74.48,170,182.5,-190,182.5,85,-92.5,-92.5,85,177.5,192.5,197.5,197.5,465,1,SBD,Single-ply
Katie Ford,75,F,73.72,165,177.5,-182.5,177.5,95,102.5,-107.5,102.5,165,177.5,-185,177.5,457.5,2,SBD,Single-ply
Ashley Sanders,75,F,73.9,152.5,165,175,175,62.5,72.5,77.5,77.5,142.5,157.5,162.5,162.5,415,3,SBD,Single-ply
Charity Day,75,F,74.48,127.5,142.5,152.5,152.5,-65,67.5,-75,67.5,137.5,155,160,160,380,4,SBD,Single-ply
El-Len Serra,75,F,74.9,132.5,140,-145,140,65.5,70,-75,70,140,147.5,-152.5,147.5,357.5,5,SBD,Single-ply
Samantha Kruper,75,F,69.04,87.5,95,-100,95,70,75,77.5,77.5,107.5,120,130,130,302.5,6,SBD,Single-ply
Shanette Woods,75,F,69.58,92.5,107.5,117.5,117.5,52.5,60,-77.5,60,122.5,-137.5,-137.5,122.5,300,7,SBD,Single-ply
Patricia Pederson,75,F,67.82,95,107.5,-110,107.5,-57.5,60,-107.5,60,107.5,120,125,125,292.5,8,SBD,Single-ply
Anne Ouellette,75,F,70.72,90,102.5,110,110,52.5,-57.5,57.5,57.5,95,105,112.5,112.5,280,9,SBD,Single-ply
Kayla Coan,75,F,71.64,102.5,-112.5,-112.5,102.5,-50,50,-57.5,50,100,107.5,117.5,117.5,270,10,SBD,Single-ply
Kaci Williams,75,F,73.78,-110,-112.5,-112.5,,,,,,,,,,,DQ,SBD,Single-ply
Tiffany Sommers,82.5,F,82.5,132.5,162.5,182.5,182.5,60,70,-82.5,70,142.5,165,177.5,177.5,430,1,SBD,Single-ply
Megan Millin,82.5,F,79.7,135,-147.5,-150,135,90,100,-102.5,100,152.5,167.5,-182.5,167.5,402.5,2,SBD,Single-ply
Lacy Picou,82.5,F,77.12,142.5,155,-160,155,62.5,67.5,-75,67.5,155,165,-167.5,165,387.5,3,SBD,Single-ply
Lauren Goldenberg,82.5,F,81.2,102.5,120,125,125,55,62.5,-65,62.5,115,122.5,135,135,322.5,4,SBD,Single-ply
Detria Johnson,82.5,F,82.5,137.5,150,-167.5,150,75,82.5,87.5,87.5,62.5,,,62.5,300,5,SBD,Single-ply
Cynthia Hunter,82.5,F,75.34,92.5,102.5,105,105,-57.5,57.5,-62.5,57.5,-107.5,107.5,117.5,117.5,280,6,SBD,Single-ply
Priscilla Giddings,82.5,F,81.3,125,137.5,-150,137.5,77.5,-82.5,-82.5,77.5,-157.5,-170,-170,,,DQ,SBD,Single-ply
Amber Crumbo,90,F,85.62,-165,177.5,190,190,95,100,-105,100,165,180,190,190,480,1,SBD,Single-ply
Danielle Miller,90,F,88.74,-150,150,-165,150,95,-100,-100,95,155,170,-180,170,415,2,SBD,Single-ply
Kelly Louque,90,F,83.6,142.5,155,157.5,157.5,-87.5,87.5,92.5,92.5,150,160,-180,160,410,3,SBD,Single-ply
Brittany Sisson,90,F,88.06,125,-140,140,140,-62.5,70,72.5,72.5,137.5,150,155,155,367.5,4,SBD,Single-ply
Sarah Greenup,90+,F,104.98,-227.5,-227.5,227.5,227.5,110,-115,-115,110,190,197.5,202.5,202.5,540,1,SBD,Single-ply
Amy Robertson,90+,F,106.9,125,135,142.5,142.5,65,77.5,-85,77.5,125,137.5,147.5,147.5,367.5,2,SBD,Single-ply
Courtney Hancock,90+,F,100.6,125,142.5,152.5,152.5,57.5,65,-67.5,65,117.5,127.5,135,135,352.5,3,SBD,Single-ply
Verice Lewis,90+,F,93.54,-110,-110,110,110,65,72.5,75,75,110,122.5,127.5,127.5,312.5,4,SBD,Single-ply
Marc Barbier,52,M,46.9,112.5,-122.5,122.5,122.5,87.5,95,100,100,160,167.5,177.5,177.5,400,1,SBD,Single-ply
Jerel Ona,52,M,51.8,137.5,-147.5,147.5,147.5,65,72.5,-75,72.5,165,-180,-180,165,385,2,SBD,Single-ply
Jeremiah Welch,52,M,43.9,102.5,110,120,120,45,50,57.5,57.5,125,137.5,147.5,147.5,325,3,SBD,Single-ply
Damarrio Holloway,56,M,55.5,187.5,205,210,210,105,-112.5,112.5,112.5,-240,240,-250,240,562.5,1,SBD,Single-ply
Gilbert Montes,56,M,55.7,147.5,160,170,170,100,107.5,-112.5,107.5,192.5,205,217.5,217.5,495,2,SBD,Single-ply
Jose Hernandez,56,M,55.6,142.5,152.5,155,155,80,85,-87.5,85,170,182.5,-185,182.5,422.5,3,SBD,Single-ply
Derek Dupuis,56,M,55.2,112.5,127.5,-137.5,127.5,67.5,77.5,82,82,152.5,167.5,175,175,385,4,SBD,Single-ply
Chris Hoek,56,M,55.9,120,130,135,135,80,90,-95,90,137.5,152.5,157.5,157.5,382.5,5,SBD,Single-ply
Zachary Simons,56,M,55,-115,115,120,120,-72.5,72.5,-75,72.5,160,162.5,167.5,167.5,360,6,SBD,Single-ply
Miles Nash,56,M,55,95,105,112.5,112.5,75,82.5,87.5,87.5,125,145,-147.5,145,345,7,SBD,Single-ply
Micah Kiletico,60,M,59.6,150,182.5,-205,182.5,115,127.5,137.5,137.5,150,160,180,180,500,1,SBD,Single-ply
Danny Blanchard,60,M,59.6,157.5,167.5,170,170,102.5,112.5,120,120,162.5,170,177.5,177.5,467.5,2,SBD,Single-ply
Spencer Myers,60,M,59.6,140,150,-155,150,102.5,107.5,112.5,112.5,175,185,-190,185,447.5,3,SBD,Single-ply
Thomas Dirienzo,60,M,59.6,-145,145,-160,145,11,110,-115,110,175.5,185,187.5,187.5,442.5,4,SBD,Single-ply
Mike Wiley,60,M,59.3,152.5,-160,160,160,87.5,97.5,-100,97.5,175,-197.5,-197.5,175,432.5,5,SBD,Single-ply
James Melancon,60,M,59.8,150,165,-172.5,165,107.5,-120,125,125,137.5,-160,-160,137.5,427.5,6,SBD,Single-ply
Peter Balke,60,M,59.4,125,-137.5,142.5,142.5,97.5,105,112.5,112.5,155,162.5,167.5,167.5,422.5,7,SBD,Single-ply
Justin Hagendorf,60,M,57.6,-110,110,130,130,105,-115,-120,105,135,-147.5,-157.5,135,370,8,SBD,Single-ply
Jeremiah Chapeau,67.5,M,66.3,207.5,222.5,-227.5,222.5,115,127.5,132.5,132.5,-215,222.5,-230,222.5,577.5,1,SBD,Single-ply
Clint Edwards,67.5,M,67,-200,200,202.5,202.5,127.5,140,145,145,212.5,220,-227.5,220,567.5,2,SBD,Single-ply
James Morris,67.5,M,66.8,195,210,-215,210,147.5,-160,-160,147.5,-205,205,-210,205,562.5,3,SBD,Single-ply
Kyle Kibler,67.5,M,66.1,197.5,217.5,-222.5,217.5,97.5,110,112.5,112.5,192.5,217.5,222.5,222.5,552.5,4,SBD,Single-ply
David Villafranca,67.5,M,66.6,167.5,190,202.5,202.5,122.5,135,142.5,142.5,192.5,-207.5,-207.5,192.5,537.5,5,SBD,Single-ply
Manuel Ruiz,67.5,M,66.4,70,185,-192.5,185,105,-115,-117.5,105,-210,210,237.5,237.5,527.5,6,SBD,Single-ply
Brett Clark,67.5,M,66.8,175,-187.5,195,195,120,-127.5,130,130,187.5,197.5,202.5,202.5,527.5,7,SBD,Single-ply
Bradley Nelson,67.5,M,67.3,195,-207.5,-207.5,195,125,132.5,140,140,175,185,192.5,192.5,527.5,8,SBD,Single-ply
Masey Wolfe,67.5,M,65.8,180,187.5,192.5,192.5,110,120,127.5,127.5,200,-215,-215,200,520,9,SBD,Single-ply
Anthony Sisti,67.5,M,66.3,175,192.5,-200,192.5,115,-127.5,-127.5,115,205,-215,-215,205,512.5,10,SBD,Single-ply
Sid Foret,67.5,M,67.5,172.5,192.5,-202.5,192.5,80,90,92.5,92.5,190,205,215,215,500,11,SBD,Single-ply
Michael Dyer,67.5,M,67.2,175,185,-190,185,-110,120,-127.5,120,187.5,-200,-200,187.5,492.5,12,SBD,Single-ply
Ben Chason,67.5,M,67.1,170,177.5,182.5,182.5,112.5,-122.5,-122.5,112.5,185,195,-197.5,195,490,13,SBD,Single-ply
Britt Vallot,67.5,M,63.3,155,165,-175,165,95,100,105,105,192.5,202.5,205,205,475,14,SBD,Single-ply
Bun Heng,67.5,M,65.6,145,160,-182.5,160,102.5,112.5,-125,112.5,170,192.5,-200,192.5,465,15,SBD,Single-ply
Steven McLawchlin,75,M,72.66,237.5,255,260,260,142.5,150,157.5,157.5,227.5,240,251,251,668.75,1,SBD,Single-ply
David Hammers,75,M,74.4,220,235,242.5,242.5,155,-162.5,-162.5,155,237.5,240,252.5,252.5,650,2,SBD,Single-ply
Jason Bowers,75,M,74.82,210,-227.5,230,230,-135,147.5,-155,147.5,210,225,242.5,242.5,620,3,SBD,Single-ply
David Kibler,75,M,73.58,220,240,-255,240,132.5,-140,-140,132.5,220,235,240,240,612.5,4,SBD,Single-ply
Clint Gallo,75,M,73.64,220,237.5,-240,237.5,132.5,147.5,-150,147.5,227.5,-237.5,-237.5,227.5,612.5,5,SBD,Single-ply
Josh Rohr,75,M,74.42,205,-220,222.5,222.5,125,-135,-137.5,125,217.5,237.5,250,250,597.5,6,SBD,Single-ply
Stoney Portis,75,M,73.64,195,212.5,-220,212.5,-140,140,157.5,157.5,200,217.5,225,225,595,7,SBD,Single-ply
Phillip Leblanc,75,M,72.48,212,222.5,-227.5,222.5,120,130,-137.5,130,210,222.5,235,235,587.5,8,SBD,Single-ply
Dan Blackford,75,M,74.5,-207.5,215,222.5,222.5,125,142.5,-152.5,142.5,202.5,217.5,-227.5,217.5,582.5,9,SBD,Single-ply
Greg Opahle,75,M,73.1,202.5,210,-217.5,210,135,142.5,-145,142.5,220,227.5,-237.5,227.5,580,10,SBD,Single-ply
Kendall Goodly,75,M,71.64,192.5,207.5,212.5,212.5,110,-125,-125,110,202.5,225,-240,225,547.5,11,SBD,Single-ply
Ben Brooks,75,M,74.28,190,200,205,205,110,120,125,125,205,217.5,-227.5,217.5,547.5,12,SBD,Single-ply
Jeremy Weber,75,M,74.14,190,210,217.5,217.5,102.5,110,-112.5,110,200,-220,-220,200,527.5,13,SBD,Single-ply
Joshua Leone,75,M,72.82,162.5,182.5,190,190,-137.5,137.5,145,145,170,190,-205,190,525,14,SBD,Single-ply
Christopher Zwicker,75,M,74.4,185,-207.5,-207.5,185,-125,125,-135,125,185,200,215,215,525,15,SBD,Single-ply
Benjamin Moran,75,M,74.68,-180,-180,180,180,122.5,-127.5,-127.5,122.5,205,215,220,220,522.5,16,SBD,Single-ply
Aaron Hellems,75,M,72.7,187.5,-205,205,205,102.5,-112.5,-115,102.5,175,192.5,200,200,507.5,17,SBD,Single-ply
Cliff Adams,75,M,73.56,175,-192.5,-197.5,175,107.5,-112.5,-112.5,107.5,190,195,-205,195,477.5,18,SBD,Single-ply
Aaron Armstrong,75,M,74.1,212.5,220,227.5,227.5,-147.5,-147.5,-147.5,,,,,,,DQ,SBD,Single-ply
Kyle Ricchio,82.5,M,79.88,235,247.5,255,255,142.5,147.5,-155,147.5,252.5,275,280,280,682.5,1,SBD,Single-ply
Robert Hillery,82.5,M,81.92,230,242.5,255,255,140,150,-160,150,235,250,262.5,262.5,667.5,2,SBD,Single-ply
Scott McManus,82.5,M,80.82,210,227.5,237.5,237.5,135,-147.5,147.5,147.5,245,262.5,275,275,660,3,SBD,Single-ply
Jason Shurley,82.5,M,81.78,215,227.5,232.5,232.5,137.5,145,152.5,152.5,250,262.5,-272.5,262.5,647.5,4,SBD,Single-ply
Steve MacGillis,82.5,M,81.35,230,245,-252.5,245,132.5,-142.5,-142.5,132.5,242.5,262.5,-275,262.5,640,5,SBD,Single-ply
Kevin Gwen,82.5,M,81.98,217.5,235,-245,235,147.5,-162.5,-162.5,147.5,220,237.5,245,245,627.5,6,SBD,Single-ply
Joseph Sweger,82.5,M,81.82,210,-227.5,-235,210,-167.5,-177.5,182.5,182.5,200,227.5,-240,227.5,620,7,SBD,Single-ply
Anthony Abilez,82.5,M,79.66,220,232.5,-242.5,232.5,-165,165,-175,165,220,-227.5,-227.5,220,617.5,8,SBD,Single-ply
Jerry Ross,82.5,M,79.32,190,200,212.5,212.5,132.5,142.5,-152.5,142.5,230,250,-272.5,250,605,9,SBD,Single-ply
Derek Curry,82.5,M,81.24,177.5,197.5,-202.5,197.5,137.5,-152.5,152.5,152.5,215,240,-245,240,590,10,SBD,Single-ply
Zach Cooper,82.5,M,80.46,-172.5,-185,185,185,-170,175,-182.5,175,200,220,227.5,227.5,587.5,11,SBD,Single-ply
Joseph Mroszczyk,82.5,M,82.06,195,-215,-215,195,137.5,-147.5,-150,137.5,215,225,-242.5,225,557.5,12,SBD,Single-ply
Jake Carson,82.5,M,82.12,182.5,200,210,210,130,-132.5,132.5,132.5,182.5,-202.5,202.5,202.5,545,13,SBD,Single-ply
Nathan Thornton,82.5,M,81.4,175,-195,-197.5,175,-132.5,-142.5,142.5,142.5,192.5,215,-227.5,215,532.5,14,SBD,Single-ply
Justin Ware,82.5,M,81.24,192.5,205,-217.5,205,115,-120,-137.5,115,202.5,-212.5,-212.5,202.5,522.5,15,SBD,Single-ply
Matt Goldin,90,M,90,272.5,290,-300,290,165,175,182.5,182.5,270,292.5,300,300,772.5,1,SBD,Single-ply
Mike Nguyen,90,M,89,242.5,260,272.5,272.5,157.5,-180,-180,157.5,240,252.5,262.5,262.5,692.5,2,SBD,Single-ply
David Brewer,90,M,89.2,227.5,250,-257.5,250,142.5,155,-160,155,267.5,-282.5,-305,267.5,672.5,3,SBD,Single-ply
Stephen Mefford,90,M,87.2,240,245,255,255,147.5,157.5,165,165,237.5,250,-262.5,250,670,4,SBD,Single-ply
Jarred Faulk,90,M,90,240,255,260,260,-152.5,157.5,170,170,240,-252.5,-255,240,670,5,SBD,Single-ply
Brendan Kavanagh,90,M,89.9,-240,250,-255,250,147.5,155,162.5,162.5,242.5,-252.5,-252.5,242.5,655,6,SBD,Single-ply
Chris Weber,90,M,84.5,165,182.5,192.5,192.5,165,-177.5,177.5,177.5,245,262.5,-267.5,262.5,632.5,7,SBD,Single-ply
Jerry Jareau,90,M,89.6,232.5,245,252.5,252.5,110,120,-130,120,242.5,247.5,-252.5,247.5,620,8,SBD,Single-ply
Kristopher Hunt,90,M,89.7,-245,245,-262.5,245,-135,-135,135,135,222.5,240,-257.5,240,620,9,SBD,Single-ply
Tom Duff,90,M,88.5,230,242.5,-250,242.5,132.5,-142.5,-142.5,132.5,230,-250,-250,230,605,10,SBD,Single-ply
John Hancock,90,M,87.8,205,217.5,-227.5,217.5,137.5,142.5,-145,142.5,227.5,245,-250,245,605,11,SBD,Single-ply
Brennan Patrick,90,M,87.4,212.5,-227.5,-227.5,212.5,157.5,-180,-180,157.5,240,252.5,262.5,262.5,632.5,12,SBD,Single-ply
Josh Ladner,90,M,88.2,-190,192.5,207.5,207.5,130,-142.5,-142.5,130,220,232.5,-240,232.5,570,13,SBD,Single-ply
Kevin Westbrook,90,M,87.9,187.5,205,-227.5,205,140,-150,-150,140,200,225,-237.5,225,570,14,SBD,Single-ply
Mitch Newton,90,M,88.7,-192.5,192.5,-220,192.5,135,142.5,-150,142.5,230,-237.5,-237.5,230,565,15,SBD,Single-ply
David Claxton,90,M,86.8,212.5,-232.5,-232.5,212.5,132.5,140,-147.5,140,192.5,-205,-215,192.5,545,16,SBD,Single-ply
Kris Buda,90,M,86.5,-210,-227.5,-227.5,,,,,,,,,,,DQ,SBD,Single-ply
Daniel Crotzer,90,M,89.8,212.5,-237.5,237.5,237.5,150,-162.5,-162.5,150,-225,-225,-225,,,DQ,SBD,Single-ply
Steven Kouimanis,100,M,99.5,277.5,290,300,300,185,192.5,200,200,257.5,267.5,-282.5,267.5,767.5,1,SBD,Single-ply
Kenneth Reynolds,100,M,98.8,272.5,-295,-295,272.5,-142.5,142.5,147.5,147.5,285,302.5,315,315,735,2,SBD,Single-ply
Scott Miller,100,M,99.3,260,270,277.5,277.5,175,-185,185,185,247.5,267.5,272.5,272.5,735,3,SBD,Single-ply
James Townsend,100,M,100,250,267.5,-272.5,267.5,185,-195,-195,185,250,265,-272.5,265,717.5,4,SBD,Single-ply
Joshua Johnson,100,M,95.8,217.5,230,242.5,242.5,-162.5,162.5,177.5,177.5,222.5,237.5,250,250,670,5,SBD,Single-ply
Jeff Scaparra,100,M,90.7,227.5,-242.5,245,245,132.5,140,145,145,250,265,270,270,660,6,SBD,Single-ply
Charles Carlton,100,M,96.2,242.5,-260,-260,242.5,142.5,155,-165,155,235,247.5,260,260,657.5,7,SBD,Single-ply
Jim Nicolosi,100,M,99.8,250,260,272.5,272.5,145,152.5,160,160,220,-227.5,-227.5,220,652.5,8,SBD,Single-ply
Frederick Fields,100,M,94.3,250,-262.5,-262.5,250,137.5,-142.5,-150,137.5,250,-272.5,-272.5,250,637.5,9,SBD,Single-ply
Chase Patterson #3,100,M,95.8,227.5,-240,-242.5,227.5,132.5,140,-145,140,240,255,-265,255,622.5,10,SBD,Single-ply
Nicholas Horton,100,M,93.8,205,215,227.5,227.5,147.5,-157.5,-157.5,147.5,227.5,245,-260,245,620,11,SBD,Single-ply
Andy Coggan,100,M,94.6,195,-210,210,210,150,160,167.5,167.5,210,-225,235,235,612.5,12,SBD,Single-ply
Sebastian Tropea,100,M,98.5,210,-227.5,-227.5,210,-142.5,142.5,-155,142.5,225,240,-247.5,240,592.5,13,SBD,Single-ply
Brady Stewart,100,M,98.1,-200,200,-207.5,200,160,-167.5,-172.5,160,192.5,202.5,-212.5,202.5,562.5,14,SBD,Single-ply
John Brown,110,M,108.6,282.5,305,325,325,170,177.5,185,185,282.5,312.5,320,320,830,1,SBD,Single-ply
Evan Whalen,110,M,109.66,307.5,-327.5,-327.5,307.5,-195,195,200,200,272.5,297.5,-317.5,297.5,805,2,SBD,Single-ply
James Baldwin,110,M,102.62,-257.5,257.5,275,275,-150,150,-170,150,260,267.5,300,300,725,3,SBD,Single-ply
Adam Smoot,110,M,105.38,-245,245,-260,245,177.5,185,-187.5,185,255,-267.5,267.5,267.5,697.5,4,SBD,Single-ply
Michael Berard,110,M,106.02,242.5,260,267.5,267.5,-152.5,152.5,165,165,242.5,265,-272.5,265,697.5,5,SBD,Single-ply
Tyler Straach,110,M,103.42,227.5,240,250,250,142.5,-150,150,150,245,260,-267.5,260,660,6,SBD,Single-ply
David Vasquez,110,M,105.7,215,227.5,-235,227.5,160,167.5,175,175,217.5,227.5,-237.5,227.5,630,7,SBD,Single-ply
Javier Montoya,110,M,102.41,240,252.5,-265,252.5,157.5,-165,170,170,185,200,-215,200,622.5,8,SBD,Single-ply
Jesse McCabe,110,M,108.2,-227.5,227.5,-252.5,227.5,157.5,-165,-165,157.5,205,217.5,235,235,620,9,SBD,Single-ply
Justin White,110,M,105,220,-237.5,-237.5,220,127.5,142.5,-152.5,142.5,212.5,227.5,240,240,602.5,10,SBD,Single-ply
Tony Dobson,110,M,108.4,-210,212.5,-227.5,212.5,145,-152.5,-152.5,145,217.5,227.5,-237.5,227.5,585,11,SBD,Single-ply
John Burford,110,M,103.04,262.5,-292.5,-292.5,262.5,-160,-160,-160,,,,,,,DQ,SBD,Single-ply
Matt Wenning,125,M,123.9,-332.5,332.5,340,340,230,-240,-247.5,230,290,-305,-305,290,860,1,SBD,Single-ply
Emilio Saldierna,125,M,124.8,-327.5,327.5,-355,327.5,-195,195,215,215,267.5,287.5,292.5,292.5,835,2,SBD,Single-ply
Andrew Harbour,125,M,119.02,-257.5,257.5,270,270,-135,145,-152.5,145,297.5,310,-320,310,725,3,SBD,Single-ply
Christopher Alitz,125,M,111.62,-267.5,267.5,-280,267.5,165,175,-185,175,227.5,250,267.5,267.5,710,4,SBD,Single-ply
William Lee,125,M,119.5,210,227.5,-242.5,227.5,-202.5,202.5,-217.5,202.5,250,270,-292.5,270,700,5,SBD,Single-ply
Darren Smith #3,125,M,112.12,-250,250,272.5,272.5,145,-155,-165,145,240,255,-295,255,672.5,6,SBD,Single-ply
Joe Bancum,125,M,110.01,227.5,240,-255,240,155,170,-175,170,227.5,240,-250,240,650,7,SBD,Single-ply
Shawn Denham,125,M,113.16,217.5,235,-250,235,147.5,162.5,-175,162.5,215,-237.5,237.5,237.5,635,8,SBD,Single-ply
Ross Alexander,125,M,119.22,245,255,-262.5,255,150,160,-167.5,160,-217.5,220,-237.5,220,635,9,SBD,Single-ply
Josh Chovanec,125+,M,129.98,267.5,295,310,310,-182.5,182.5,202.5,202.5,255,275,295,295,807.5,1,SBD,Single-ply
Andre' Johnson,125+,M,138.66,305,322.5,-332.5,322.5,205,217.5,-227.5,217.5,257.5,267.5,-272.5,267.5,807.5,2,SBD,Single-ply
Armando DeLeon,125+,M,146.92,242.5,272.5,290,290,150,167.5,182.5,182.5,250,267.5,280,280,752.5,3,SBD,Single-ply
Marcus Watts,125+,M,158.82,310,-337.5,-337.5,310,-150,-150,150,150,267.5,280,292.5,292.5,752.5,4,SBD,Single-ply
Brandon Gercone,125+,M,125.68,-215,280,-297.5,280,180,195,-202.5,195,245,255,-265,255,730,5,SBD,Single-ply
David Sharon,125+,M,136.72,265,285,295,295,167.5,-187.5,187.5,187.5,227.5,242.5,-250,242.5,725,6,SBD,Single-ply
Luke Hammonds,125+,M,128.58,232.5,255,272.5,272.5,130,142.5,-150,142.5,217.5,240,245,245,660,7,SBD,Single-ply
Hector Carreon,125+,M,136.04,-247.5,-247.5,247.5,247.5,160,170,-175,170,230,240,-250,240,657.5,8,SBD,Single-ply
Michael Norwood #1,125+,M,155.94,215,-250,260,260,-165,165,-172.5,165,220,-265,-277.5,220,645,9,SBD,Single-ply
Greg Theriot,125+,M,125.82,-330,-330,330,330,-182.5,-182.5,-182.5,,,,,,,DQ,SBD,Single-ply
