Division,WeightClassKg,Place,Name,Team,BodyweightKg,Best3SquatKg,Best3BenchKg,Best3DeadliftKg,TotalKg,Equipment,Event,Sex
Boys,51.71,1,Trey Arras,Texarkana Liberty-Eylau,49.17,120.2,70.31,117.93,308.44,Single-ply,SBD,M
Boys,51.71,2,Wade Simpson,Maud,48.17,99.79,38.56,104.33,242.67,Single-ply,SBD,M
Boys,55.79,1,Jacori Denmark,Hughes Springs,55.07,142.88,79.38,151.95,374.21,Single-ply,SBD,M
Boys,55.79,2,Jackson Kennedy,Redwater,53.98,104.33,77.11,102.06,283.5,Single-ply,SBD,M
Boys,59.87,1,Matthew Soloman,Texarkana Liberty-Eylau,59.15,181.44,104.33,181.44,467.2,Single-ply,SBD,M
Boys,67.13,2,Dylan Gibson,Maud,59.96,190.51,83.91,174.63,449.06,Single-ply,SBD,M
Boys,59.87,3,Rajuan Crabtree,Texarkana Liberty-Eylau,59.15,149.69,102.06,165.56,417.3,Single-ply,SBD,M
Boys,59.87,4,McKenzie Davis,Texarkana Liberty-Eylau,58.79,151.95,90.72,158.76,401.43,Single-ply,SBD,M
Boys,59.87,5,Ethan Armstrong,New Boston,57.24,108.86,61.23,127.01,297.1,Single-ply,SBD,M
Boys,59.87,6,Josh Garza,New Boston,56.88,108.86,61.23,111.13,281.23,Single-ply,SBD,M
Boys,67.13,1,Rod Howard,Texarkana Liberty-Eylau,62.6,181.44,102.06,181.44,464.93,Single-ply,SBD,M
Boys,67.13,2,Eric Arriaga,Big Sandy Harmony,66.13,145.15,68.04,133.81,347,Single-ply,SBD,M
Boys,67.13,3,Jauan Johnson,Texarkana Liberty-Eylau,67.04,138.35,83.91,120.2,342.46,Single-ply,SBD,M
Boys,67.13,4,Brandon Buck,Hooks,60.96,81.65,52.16,81.65,215.46,Single-ply,SBD,M
Boys,67.13,DQ,Hunter Standley,Redwater,67.09,156.49,,,,Single-ply,SBD,M
Boys,74.84,1,Donelle Hoof,Texarkana Liberty-Eylau,73.3,185.97,124.74,195.04,505.76,Single-ply,SBD,M
Boys,74.84,2,Gabriel DuBose,Hughes Springs,72.3,195.04,129.27,179.17,503.49,Single-ply,SBD,M
Boys,74.84,3,Greg Morgan,Hughes Springs,69.76,185.97,127.01,185.97,498.95,Single-ply,SBD,M
Boys,74.84,4,Zanoah Arnold,Texarkana Liberty-Eylau,74.84,192.78,111.13,188.24,492.15,Single-ply,SBD,M
Boys,74.84,5,Daqurius Steels,Texarkana Liberty-Eylau,68.67,174.63,111.13,188.24,474,Single-ply,SBD,M
Boys,74.84,6,Kameron Levingston,Texarkana Liberty-Eylau,71.3,151.95,97.52,170.1,419.57,Single-ply,SBD,M
Boys,74.84,7,Levi McDaniel,Hooks,69.49,136.08,83.91,170.1,390.09,Single-ply,SBD,M
Boys,74.84,8,Chris Irizarry,Redwater,69.94,136.08,83.91,165.56,385.55,Single-ply,SBD,M
Boys,74.84,9,Blake Riddle,Redwater,69.31,124.74,102.06,147.42,374.21,Single-ply,SBD,M
Boys,74.84,10,Shane Benkowski,Hughes Springs,70.49,117.93,92.99,163.29,374.21,Single-ply,SBD,M
Boys,82.1,11,Cody McCallie,Hooks,75.07,136.08,70.31,136.08,342.46,Single-ply,SBD,M
Boys,74.84,12,Dakota Paterson,Maud,74.21,117.93,65.77,142.88,326.59,Single-ply,SBD,M
Boys,74.84,13,Angel Aguillon,Big Sandy Harmony,72.85,115.67,72.57,120.2,308.44,Single-ply,SBD,M
Boys,74.84,14,Zac Thompson,Big Sandy Harmony,73.57,81.65,77.11,102.06,260.82,Single-ply,SBD,M
Boys,82.1,1,Caleb Collin,Maud,81.19,181.44,102.06,183.7,467.2,Single-ply,SBD,M
Boys,82.1,2,Herlin James,Texarkana Liberty-Eylau,75.84,181.44,104.33,149.69,435.45,Single-ply,SBD,M
Boys,82.1,3,Colton Finney,Redwater,78.2,149.69,99.79,174.63,424.11,Single-ply,SBD,M
Boys,82.1,4,Darrell Houff,Texarkana Liberty-Eylau,80.92,140.61,102.06,156.49,399.16,Single-ply,SBD,M
Boys,82.1,5,Hunter Harrison,Redwater,77.79,147.42,83.91,149.69,381.02,Single-ply,SBD,M
Boys,82.1,DQ,Zach Springer,Hooks,77.93,124.74,,,,Single-ply,SBD,M
Boys,89.81,DQ,Tederrick Reese,Texarkana Liberty-Eylau,82.28,,,,,Single-ply,SBD,M
Boys,89.81,1,Juan Dorantes,Hughes Springs,86.55,192.78,106.59,192.78,492.15,Single-ply,SBD,M
Boys,89.81,2,John Phillips,Big Sandy Harmony,88,185.97,120.2,176.9,483.08,Single-ply,SBD,M
Boys,89.81,3,Zach Smith,Big Sandy Harmony,88.81,170.1,108.86,190.51,469.47,Single-ply,SBD,M
Boys,89.81,4,Lane Peek,New Boston,87.82,174.63,102.06,161.03,437.72,Single-ply,SBD,M
Boys,89.81,5,Kendrick Sauls,Texarkana Liberty-Eylau,89.81,147.42,79.38,147.42,374.21,Single-ply,SBD,M
Boys,99.79,1,Tim Carr,Maud,97.43,210.92,106.59,213.19,530.7,Single-ply,SBD,M
Boys,99.79,2,Branson Davis,Big Sandy Harmony,92.99,190.51,122.47,204.12,517.1,Single-ply,SBD,M
Boys,99.79,3,Landon Shelton,Hooks,97.7,183.7,106.59,208.65,498.95,Single-ply,SBD,M
Boys,99.79,4,Montana Moore,Redwater,93.44,158.76,95.25,158.76,412.77,Single-ply,SBD,M
Boys,99.79,5,Billy Delaney,Texarkana Liberty-Eylau,92.99,117.93,70.31,136.08,324.32,Single-ply,SBD,M
Boys,109.77,1,Gary Alexander,Maud,109.5,263.08,115.67,258.55,637.3,Single-ply,SBD,M
Boys,109.77,2,Anthony Sciara,Hooks,108.32,244.94,145.15,235.87,625.96,Single-ply,SBD,M
Boys,109.77,3,Ricky Johnson,Texarkana Liberty-Eylau,101.24,233.6,127.01,226.8,587.4,Single-ply,SBD,M
Boys,109.77,4,Chris Bloyd,Big Sandy Harmony,103.06,231.33,136.08,204.12,571.53,Single-ply,SBD,M
Boys,109.77,5,Mack Boyd,New Boston,109.59,163.29,90.72,181.44,435.45,Single-ply,SBD,M
Boys,109.77,6,Cheyenne Lockhart,Texarkana Liberty-Eylau,102.15,158.76,83.91,183.7,426.38,Single-ply,SBD,M
Boys,124.74,1,Noah Palmertree,Hughes Springs,121.29,233.6,127.01,217.72,578.33,Single-ply,SBD,M
Boys,124.74,2,Daniel Logan,Big Sandy Harmony,122.92,231.33,120.2,226.8,578.33,Single-ply,SBD,M
Boys,124.74,3,Colton Tigert,Hughes Springs,114.76,176.9,113.4,188.24,478.54,Single-ply,SBD,M
Boys,124.74,4,Franklin Smith,Texarkana Liberty-Eylau,112.85,181.44,83.91,188.24,453.59,Single-ply,SBD,M
Boys,124.74+,1,Matt Brown,Maud,148.87,249.48,138.35,238.14,625.96,Single-ply,SBD,M
Boys,124.74+,2,Wesley Holmes,New Boston,128.64,238.14,117.93,197.31,553.38,Single-ply,SBD,M
Boys,124.74+,3,Trenton Davis,New Boston,137.08,156.49,97.52,158.76,412.77,Single-ply,SBD,M
Boys,124.74+,DQ,AJ Garcia,Hughes Springs,142.93,247.21,,,,Single-ply,SBD,M
