Division,WeightClassKg,Place,Name,Team,BodyweightKg,Best3SquatKg,Best3BenchKg,Best3DeadliftKg,TotalKg,Equipment,Event,Sex
Boys,51.71,1,Robert Parra,Carrollton Creekview,51.26,140.61,70.31,140.61,351.53,Single-ply,SBD,M
Boys,51.71,2,Chris Polo,Bishop Lynch,51.71,127.01,45.36,136.08,308.44,Single-ply,SBD,M
Boys,51.71,3,Jason Nguyen,Oakridge School,49.9,111.13,65.77,129.27,306.17,Single-ply,SBD,M
Boys,51.71,4,Colton Doyal,Waxahachie,51.26,108.86,63.5,122.47,294.84,Single-ply,SBD,M
Boys,51.71,5,Sahir Alibhai,Oakridge School,46.27,97.52,54.43,97.52,249.48,Single-ply,SBD,M
Boys,51.71,6,Elijay Barney,Richardson Berkner,49.9,90.72,34.02,88.45,213.19,Single-ply,SBD,M
Boys,55.79,1,Tyler Johnson,Richardson Berkner,53.52,149.69,70.31,120.2,340.19,Single-ply,SBD,M
Boys,55.79,2,Sager Patel,Oakridge School,54.88,106.59,65.77,142.88,315.25,Single-ply,SBD,M
Boys,55.79,3,Joe Brickman,Bishop Lynch,55.79,106.59,54.43,113.4,274.42,Single-ply,SBD,M
Boys,59.87,1,Matthew Cortez,Dallas Jesuit,59.87,165.56,92.99,174.63,433.18,Single-ply,SBD,M
Boys,59.87,2,Rafael Sandoval,Plano John Paul II,58.06,154.22,88.45,165.56,408.23,Single-ply,SBD,M
Boys,59.87,3,Trey Sowell,Oakridge School,59.87,136.08,68.04,158.76,362.87,Single-ply,SBD,M
Boys,59.87,4,José Castillo,Bishop Lynch,57.15,129.27,58.97,115.67,303.91,Single-ply,SBD,M
Boys,59.87,5,Jude Mitchell,Plano John Paul II,58.97,106.59,61.23,102.06,269.89,Single-ply,SBD,M
Boys,67.13,1,Aurelio Romo,Carrollton Creekview,65.77,170.1,102.06,176.9,449.06,Single-ply,SBD,M
Boys,67.13,2,Grant Jarvis,Lucas Lovejoy,66.22,158.76,92.99,151.95,403.7,Single-ply,SBD,M
Boys,67.13,3,Garrett David,Waxahachie,64.41,151.95,74.84,174.63,401.43,Single-ply,SBD,M
Boys,67.13,4,Blake Echols,Oakridge School,66.68,149.69,88.45,151.95,390.09,Single-ply,SBD,M
Boys,67.13,5,Preston Peek,Bishop Lynch,65.77,140.61,81.65,147.42,369.68,Single-ply,SBD,M
Boys,67.13,6,J D Cochran,Dallas Highland Park,65.77,117.93,72.57,124.74,315.25,Single-ply,SBD,M
Boys,67.13,7,Bradyen Faulk,Dallas Highland Park,66.22,124.74,54.43,124.74,303.91,Single-ply,SBD,M
Boys,67.13,DQ,Dyan Hooper,Oakridge School,66.22,,,,,Single-ply,SBD,M
Boys,74.84,1,John Wrenn,Bishop Lynch,70.76,260.82,145.15,231.33,637.3,Single-ply,SBD,M
Boys,74.84,2,Brad Sargent,Bishop Lynch,74.84,238.14,117.93,215.46,571.53,Single-ply,SBD,M
Boys,74.84,3,Payton Stewart,Waxahachie,72.57,170.1,122.47,195.04,487.61,Single-ply,SBD,M
Boys,74.84,4,Darryl Finch,Carrollton Creekview,69.4,163.29,90.72,188.24,442.25,Single-ply,SBD,M
Boys,74.84,5,Cason Kelly,Lucas Lovejoy,73.48,181.44,86.18,163.29,430.91,Single-ply,SBD,M
Boys,74.84,6,David Josephs,Dallas Highland Park,74.84,161.03,95.25,170.1,426.38,Single-ply,SBD,M
Boys,82.1,7,Roman Kimbrell,Dallas Jesuit,74.98,156.49,83.91,170.1,410.5,Single-ply,SBD,M
Boys,74.84,8,Conner Uber,Dallas Jesuit,73.94,142.88,83.91,136.08,362.87,Single-ply,SBD,M
Boys,74.84,9,Jared Link,Dallas Highland Park,74.84,136.08,70.31,151.95,358.34,Single-ply,SBD,M
Boys,74.84,10,Tyler Vincent,Dallas Highland Park,72.12,102.06,65.77,102.06,269.89,Single-ply,SBD,M
Boys,74.84,11,William Kraft,Dallas Highland Park,72.12,92.99,49.9,95.25,238.14,Single-ply,SBD,M
Boys,82.1,1,Mason Pierce,Plano John Paul II,79.83,226.8,147.42,254.01,628.23,Single-ply,SBD,M
Boys,82.1,2,Ace Clear,Bishop Lynch,76.2,260.82,129.27,231.33,621.42,Single-ply,SBD,M
Boys,82.1,3,Brian Hesson,Lucas Lovejoy,77.61,217.72,122.47,217.72,557.92,Single-ply,SBD,M
Boys,82.1,4,Bryce Barrett,Waxahachie,80.97,213.19,127.01,204.12,544.31,Single-ply,SBD,M
Boys,82.1,5,Tanner Houghton,Dallas Highland Park,82.1,195.04,133.81,181.44,510.29,Single-ply,SBD,M
Boys,82.1,6,Dalton Hoelscher,Bishop Lynch,79.83,208.65,106.59,181.44,496.68,Single-ply,SBD,M
Boys,82.1,7,Tristan Robertson,Richardson Berkner,81.69,183.7,113.4,192.78,489.88,Single-ply,SBD,M
Boys,82.1,8,Hunter Pfaff,Lucas Lovejoy,79.33,170.1,95.25,188.24,453.59,Single-ply,SBD,M
Boys,82.1,9,Chris Cruz,Dallas Jesuit,81.65,179.17,102.06,172.37,453.59,Single-ply,SBD,M
Boys,82.1,10,Micah Bires,Dallas Highland Park,77.11,170.1,92.99,170.1,433.18,Single-ply,SBD,M
Boys,82.1,11,Jacob Poteefe,Lucas Lovejoy,76.84,163.29,106.59,158.76,428.64,Single-ply,SBD,M
Boys,82.1,12,Collin Conway,Oakridge School,81.69,158.76,86.18,181.44,426.38,Single-ply,SBD,M
Boys,82.1,13,Hayden Schnieders,Dallas Highland Park,79.38,149.69,97.52,172.37,419.57,Single-ply,SBD,M
Boys,82.1,14,Alex Green,Plano John Paul II,82.1,147.42,79.38,172.37,399.16,Single-ply,SBD,M
Boys,82.1,15,Josh Block,Dallas Highland Park,79.38,145.15,83.91,161.03,390.09,Single-ply,SBD,M
Boys,82.1,16,Daniel Storie,Coppell,79.38,151.95,92.99,142.88,387.82,Single-ply,SBD,M
Boys,82.1,17,Matt Slovack,Dallas Jesuit,81.78,142.88,81.65,154.22,378.75,Single-ply,SBD,M
Boys,82.1,18,Charile Eikenberg,Dallas Jesuit,76.11,124.74,77.11,136.08,337.93,Single-ply,SBD,M
Boys,82.1,19,Andrew White,Oakridge School,75.3,106.59,61.23,129.27,297.1,Single-ply,SBD,M
Boys,82.1,20,Sam Lesesne,Dallas Highland Park,77.56,99.79,65.77,97.52,263.08,Single-ply,SBD,M
Boys,82.1,21,Parker LaCour,Dallas Highland Park,82.1,79.38,63.5,90.72,233.6,Single-ply,SBD,M
Boys,82.1,DQ,Cole Feigl,Dallas Highland Park,79.38,,113.4,213.19,,Single-ply,SBD,M
Boys,89.81,1,Craig Renfro,Waxahachie,87.18,265.35,149.69,260.82,675.85,Single-ply,SBD,M
Boys,89.81,2,Lenardo Zavala,Waxahachie,89.31,208.65,99.79,217.72,526.17,Single-ply,SBD,M
Boys,89.81,3,Justice Luce,Lucas Lovejoy,86.55,204.12,111.13,195.04,510.29,Single-ply,SBD,M
Boys,89.81,4,Phillip Hinojosa,Carrollton Creekview,89.27,213.19,88.45,181.44,483.08,Single-ply,SBD,M
Boys,89.81,5,Barron Wortham,Oakridge School,89.54,163.29,79.38,204.12,446.79,Single-ply,SBD,M
Boys,89.81,6,Carl Bonano,Dallas Highland Park,83.91,167.83,104.33,165.56,437.72,Single-ply,SBD,M
Boys,89.81,7,Ryan Steinkirchner,Plano John Paul II,85.32,147.42,92.99,176.9,417.3,Single-ply,SBD,M
Boys,89.81,8,Ahmo Viane,Richardson Berkner,89.36,145.15,111.13,124.74,381.02,Single-ply,SBD,M
Boys,89.81,9,James Robertson,Dallas Highland Park,86.18,136.08,90.72,147.42,374.21,Single-ply,SBD,M
Boys,89.81,DQ,John Robert Gilley,Dallas Highland Park,85.28,154.22,,147.42,,Single-ply,SBD,M
Boys,89.81,DQ,Mario Cardenas,Carrollton Creekview,89.36,176.9,104.33,,,Single-ply,SBD,M
Boys,89.81,DQ,Brookes Oden,Dallas Highland Park,88.45,163.29,,170.1,,Single-ply,SBD,M
Boys,99.79,1,Gage Shorter,Dallas Highland Park,98.43,240.4,167.83,240.4,648.64,Single-ply,SBD,M
Boys,99.79,2,Adam Arredondo,Waxahachie,96.16,238.14,138.35,215.46,591.94,Single-ply,SBD,M
Boys,99.79,3,Collins Okotcha,Coppell,97.7,197.31,115.67,192.78,505.76,Single-ply,SBD,M
Boys,99.79,4,Nico Rodriguez,Dallas Jesuit,97.93,176.9,117.93,206.38,501.22,Single-ply,SBD,M
Boys,99.79,5,Matthew Riggs,Dallas Highland Park,94.35,190.51,113.4,195.04,498.95,Single-ply,SBD,M
Boys,99.79,6,Cazz Orr,Dallas Highland Park,97.52,190.51,117.93,185.97,494.42,Single-ply,SBD,M
Boys,99.79,7,Beau Anderson,Coppell,94.44,161.03,124.74,181.44,467.2,Single-ply,SBD,M
Boys,99.79,8,Riley Hysley,Plano John Paul II,92.4,158.76,99.79,201.85,460.4,Single-ply,SBD,M
Boys,99.79,9,Thomas OToole-Halkerson,Plano John Paul II,94.03,181.44,72.57,170.1,424.11,Single-ply,SBD,M
Boys,99.79,10,Jack Sides,Dallas Highland Park,99.79,163.29,92.99,154.22,410.5,Single-ply,SBD,M
Boys,99.79,11,Jonathan Bakes,Plano John Paul II,96.57,151.95,79.38,176.9,408.23,Single-ply,SBD,M
Boys,99.79,12,Lee Longino,Dallas Highland Park,93.44,163.29,81.65,151.95,396.89,Single-ply,SBD,M
Boys,99.79,13,Andrew Cass,Plano John Paul II,98.43,131.54,83.91,179.17,394.63,Single-ply,SBD,M
Boys,99.79,14,Mark Jolas,Dallas Highland Park,97.52,142.88,81.65,156.49,381.02,Single-ply,SBD,M
Boys,99.79,15,Justin Fanning,Dallas Highland Park,90.72,138.35,72.57,147.42,358.34,Single-ply,SBD,M
Boys,99.79,DQ,Payton Phillips,Dallas Highland Park,90.26,,79.38,140.61,,Single-ply,SBD,M
Boys,109.77,1,Victor Mejia,Waxahachie,105.37,222.26,147.42,233.6,603.28,Single-ply,SBD,M
Boys,109.77,2,Jack Ceverha,Dallas Highland Park,105.69,240.4,147.42,215.46,603.28,Single-ply,SBD,M
Boys,109.77,3,John Molina,Bishop Lynch,104.69,244.94,113.4,226.8,585.13,Single-ply,SBD,M
Boys,109.77,4,Adrian Zavala,Waxahachie,106.64,199.58,131.54,231.33,562.45,Single-ply,SBD,M
Boys,109.77,5,Austin Holley,Waxahachie,108.41,204.12,136.08,199.58,539.77,Single-ply,SBD,M
Boys,109.77,6,Andrew Clyde,Dallas Highland Park,102.51,206.38,154.22,154.22,514.83,Single-ply,SBD,M
Boys,109.77,7,John Donagley,Carrollton Creekview,107.05,199.58,122.47,190.51,512.56,Single-ply,SBD,M
Boys,109.77,8,Rodney Darre,Richardson Berkner,101.79,188.24,102.06,188.24,478.54,Single-ply,SBD,M
Boys,109.77,9,Tony Richards,Dallas Highland Park,108.86,199.58,124.74,124.74,449.06,Single-ply,SBD,M
Boys,109.77,10,Clay Stahl,Plano John Paul II,107.73,154.22,81.65,183.7,419.57,Single-ply,SBD,M
Boys,109.77,11,Jake Hockett,Dallas Highland Park,101.6,154.22,95.25,156.49,405.97,Single-ply,SBD,M
Boys,109.77,12,Blake Davis,Dallas Highland Park,102.06,145.15,102.06,142.88,390.09,Single-ply,SBD,M
Boys,109.77,13,Adam Shiffer,Dallas Highland Park,102.06,136.08,81.65,142.88,360.61,Single-ply,SBD,M
Boys,109.77,DQ,David Valadez,Dallas Highland Park,102.06,138.35,,133.81,,Single-ply,SBD,M
Boys,109.77,DQ,Malcom Johnson,Richardson Berkner,105.46,188.24,99.79,,,Single-ply,SBD,M
Boys,124.74,1,Soloman Thomas,Coppell,117.89,260.82,156.49,249.48,666.78,Single-ply,SBD,M
Boys,124.74,2,Jake Baumert,Lucas Lovejoy,121.97,233.6,165.56,215.46,614.62,Single-ply,SBD,M
Boys,124.74,3,Nick Savala,Bishop Lynch,120.66,260.82,133.81,199.58,594.21,Single-ply,SBD,M
Boys,124.74,4,Christian Milliorn,Waxahachie,111.63,204.12,140.61,233.6,578.33,Single-ply,SBD,M
Boys,124.74,5,James Nguyen,Lucas Lovejoy,114.71,226.8,108.86,192.78,528.44,Single-ply,SBD,M
Boys,124.74,6,Jay Goodson,Richardson Berkner,114.89,183.7,88.45,206.38,478.54,Single-ply,SBD,M
Boys,124.74,7,Clayton Woods,Dallas Highland Park,112.49,174.63,104.33,158.76,437.72,Single-ply,SBD,M
Boys,124.74,8,Josh Leachman,Dallas Highland Park,113.85,172.37,83.91,156.49,412.77,Single-ply,SBD,M
Boys,124.74,9,Rees Leway,Dallas Highland Park,111.13,113.4,86.18,163.29,362.87,Single-ply,SBD,M
Boys,124.74+,1,Frank Rosales,Coppell,149.1,215.46,131.54,147.42,494.42,Single-ply,SBD,M
Boys,124.74+,2,Chris Hughes,Richardson Berkner,131.45,185.97,108.86,181.44,476.27,Single-ply,SBD,M
Boys,124.74+,3,Seth Miller,Carrollton Creekview,146.51,204.12,90.72,181.44,476.27,Single-ply,SBD,M
Boys,124.74+,4,Austin Webb,Dallas Highland Park,133.81,154.22,92.99,149.69,396.89,Single-ply,SBD,M
Boys,124.74+,DQ,Michael Butler,Richardson Berkner,150.59,142.88,95.25,,,Single-ply,SBD,M
