Division,WeightClassKg,Place,Name,Team,BodyweightKg,Best3SquatKg,Best3BenchKg,Best3DeadliftKg,TotalKg,Equipment,Event,Sex
Boys,51.71,1,Tyler Groce,Mansfield Legacy,51.71,124.74,72.57,124.74,322.05,Single-ply,SBD,M
Boys,51.71,2,Mohammad Ali,Mansfield Timberview,44.91,97.52,58.97,99.79,256.28,Single-ply,SBD,M
Boys,51.71,3,Jacob Benevides,Mansfield Summit,51.26,79.38,54.43,95.25,229.06,Single-ply,SBD,M
Boys,55.79,1,Tevin Cofield,Mansfield,55.79,115.67,86.18,142.88,344.73,Single-ply,SBD,M
Boys,55.79,2,Jerrell Peterson,Mansfield Summit,55.79,102.06,63.5,122.47,288.03,Single-ply,SBD,M
Boys,55.79,3,Brennan Morrell,Mansfield Legacy,54.88,102.06,65.77,102.06,269.89,Single-ply,SBD,M
Boys,55.79,4,Cubie Ward,Mansfield Legacy,54.88,111.13,,97.52,208.65,Single-ply,SD,M
Boys,59.87,1,Brandon Green,Mansfield Timberview,58.97,117.93,68.04,142.88,328.85,Single-ply,SBD,M
Boys,67.13,1,Matthew Barrett-Cobb,Mansfield Summit,61.69,170.1,81.65,154.22,405.97,Single-ply,SBD,M
Boys,67.13,2,DaVante Owens,Mansfield Summit,62.14,154.22,81.65,142.88,378.75,Single-ply,SBD,M
Boys,67.13,3,Dorian Sims,Mansfield Legacy,66.22,140.61,97.52,140.61,378.75,Single-ply,SBD,M
Boys,67.13,4,Caleb Waugh,Mansfield Legacy,64.86,138.35,90.72,129.27,358.34,Single-ply,SBD,M
Boys,74.84,1,Tracey Walker,Mansfield Timberview,74.84,158.76,99.79,167.83,426.38,Single-ply,SBD,M
Boys,74.84,2,Jt Ibe,Mansfield,73.48,165.56,92.99,161.03,419.57,Single-ply,SBD,M
Boys,74.84,3,Jarod Hill,Mansfield Summit,69.85,147.42,102.06,151.95,401.43,Single-ply,SBD,M
Boys,74.84,4,Matthew O'Brian,Mansfield Timberview,72.12,136.08,88.45,167.83,392.36,Single-ply,SBD,M
Boys,74.84,5,Zack Hunt,Mansfield Legacy,71.67,145.15,83.91,158.76,387.82,Single-ply,SBD,M
Boys,74.84,6,Tyler Romeguera,Mansfield,74.84,138.35,83.91,142.88,365.14,Single-ply,SBD,M
Boys,74.84,7,Marcus Jameson,Mansfield Summit,68.95,156.49,,127.01,283.5,Single-ply,SD,M
Boys,74.84,8,Brandon Bruce,Mansfield,69.4,74.84,61.23,111.13,247.21,Single-ply,SBD,M
Boys,74.84,9,Daniel Cole,Mansfield Summit,74.84,,97.52,133.81,231.33,Single-ply,BD,M
Boys,82.1,1,Trae Swift,Mansfield Summit,79.83,176.9,106.59,161.03,444.52,Single-ply,SBD,M
Boys,82.1,2,Kenneth Burks,Mansfield,78.47,163.29,102.06,174.63,439.98,Single-ply,SBD,M
Boys,82.1,3,Dylan Eaker,Mansfield Legacy,79.38,161.03,120.2,147.42,428.64,Single-ply,SBD,M
Boys,82.1,4,Dayton Boling,Mansfield Summit,81.65,163.29,97.52,156.49,417.3,Single-ply,SBD,M
Boys,82.1,5,Vincent Ortega,Mansfield Summit,78.93,149.69,95.25,156.49,401.43,Single-ply,SBD,M
Boys,82.1,6,Eddie Killingsworth,Mansfield Legacy,77.56,142.88,102.06,142.88,387.82,Single-ply,SBD,M
Boys,82.1,7,Tyler Wawrzynski,Mansfield Legacy,76.66,142.88,88.45,145.15,376.48,Single-ply,SBD,M
Boys,82.1,8,Jordan Green,Mansfield Timberview,80.29,124.74,88.45,136.08,349.27,Single-ply,SBD,M
Boys,82.1,9,Isaiah Eliston,Mansfield,77.56,108.86,81.65,113.4,303.91,Single-ply,SBD,M
Boys,82.1,DQ,Hayden Florence,Mansfield,80.74,142.88,,,,Single-ply,SBD,M
Boys,82.1,DQ,Jamal Robinson,Mansfield Timberview,76.66,129.27,,138.35,,Single-ply,SBD,M
Boys,89.81,1,Derrick Ndede,Mansfield Legacy,89.81,188.24,124.74,183.7,496.68,Single-ply,SBD,M
Boys,89.81,2,Zack Worthington,Mansfield Legacy,83.91,183.7,113.4,170.1,467.2,Single-ply,SBD,M
Boys,89.81,3,Lane Walker,Mansfield Timberview,89.81,161.03,99.79,192.78,453.59,Single-ply,SBD,M
Boys,89.81,4,Joseph Brown,Mansfield,84.37,120.2,92.99,147.42,360.61,Single-ply,SBD,M
Boys,89.81,5,Sayvanne Mercer,Mansfield Timberview,86.64,102.06,79.38,136.08,317.51,Single-ply,SBD,M
Boys,99.79,1,Marc Blades,Mansfield Summit,96.62,204.12,145.15,208.65,557.92,Single-ply,SBD,M
Boys,99.79,2,Andrew Loos,Mansfield Summit,98.88,197.31,138.35,213.19,548.85,Single-ply,SBD,M
Boys,99.79,3,Sam Amaka,Mansfield Timberview,92.08,217.72,113.4,215.46,546.58,Single-ply,SBD,M
Boys,99.79,4,Christopher McCoy,Mansfield Timberview,98.88,208.65,127.01,204.12,539.77,Single-ply,SBD,M
Boys,99.79,5,Jearld McGlothian,Mansfield Summit,99.79,204.12,113.4,199.58,517.1,Single-ply,SBD,M
Boys,99.79,6,Dylan Holovach,Mansfield,98.43,183.7,111.13,192.78,487.61,Single-ply,SBD,M
Boys,99.79,7,Jared Walsh,Mansfield Timberview,97.07,192.78,97.52,192.78,483.08,Single-ply,SBD,M
Boys,99.79,8,Montreal Jett,Mansfield Legacy,91.17,161.03,129.27,183.7,474,Single-ply,SBD,M
Boys,99.79,9,Maurice Isuo,Mansfield,93.44,183.7,102.06,145.15,430.91,Single-ply,SBD,M
Boys,99.79,10,Dylan Mojica,Mansfield Summit,90.72,156.49,120.2,147.42,424.11,Single-ply,SBD,M
Boys,99.79,11,Tyler Moore,Mansfield Summit,92.08,149.69,90.72,167.83,408.23,Single-ply,SBD,M
Boys,99.79,12,Hunter Ponder,Mansfield,98.43,108.86,86.18,158.76,353.8,Single-ply,SBD,M
Boys,99.79,DQ,Darian Flores,Mansfield Timberview,94.8,106.59,,106.59,,Single-ply,SBD,M
Boys,99.79,DQ,Josh Byrd,Mansfield Timberview,98.43,,83.91,158.76,,Single-ply,SBD,M
Boys,109.77,1,Gabe Powell,Mansfield Legacy,105.23,190.51,124.74,165.56,480.81,Single-ply,SBD,M
Boys,109.77,2,Doug Thomas,Mansfield,104.78,145.15,127.01,142.88,415.04,Single-ply,SBD,M
Boys,109.77,3,Chase Snyder,Mansfield Summit,109.32,142.88,92.99,161.03,396.89,Single-ply,SBD,M
Boys,109.77,4,Kameron Alston,Mansfield Legacy,102.97,142.88,81.65,113.4,337.93,Single-ply,SBD,M
Boys,109.77,DQ,Kemar Randall,Mansfield Legacy,106.59,,102.06,151.95,,Single-ply,SBD,M
Boys,109.77,DQ,Jonathan Ayala,Mansfield Summit,108.86,170.1,,172.37,,Single-ply,SBD,M
Boys,109.77,DQ,Miles Harris,Mansfield Summit,107.95,167.83,,176.9,,Single-ply,SBD,M
Boys,109.77,DQ,Ty Roland,Mansfield Timberview,105.69,,,102.06,,Single-ply,SBD,M
Boys,124.74,1,David Hunter,Mansfield Summit,119.29,192.78,122.47,197.31,512.56,Single-ply,SBD,M
Boys,124.74,2,Donoven Wheaton,Mansfield Summit,124.74,170.1,120.2,179.17,469.47,Single-ply,SBD,M
Boys,124.74,3,Brandon Hernandez,Mansfield Summit,115.21,163.29,120.2,165.56,449.06,Single-ply,SBD,M
Boys,124.74,4,Tyler Norman,Mansfield,113.4,142.88,129.27,158.76,430.91,Single-ply,SBD,M
Boys,124.74,5,Eric Fendon,Mansfield Timberview,111.58,124.74,79.38,147.42,351.53,Single-ply,SBD,M
Boys,124.74,6,Rodney Allen,Mansfield Timberview,122.02,122.47,68.04,113.4,303.91,Single-ply,SBD,M
Boys,124.74,DQ,Zac Pincomb,Mansfield,118.39,204.12,117.93,,,Single-ply,SBD,M
Boys,124.74+,1,Tevin Boone,Mansfield Summit,133.81,174.63,108.86,158.76,442.25,Single-ply,SBD,M
