Division,WeightClassKg,Place,Name,Team,BodyweightKg,Best3SquatKg,Best3BenchKg,Best3DeadliftKg,TotalKg,Equipment,Event,Sex
Boys,51.71,1,Anthony Grimes,Katy Mayde Creek,51.17,124.74,68.04,142.88,335.66,Single-ply,SBD,M
Boys,51.71,2,Fidencio Cruz,Dickinson,50.53,122.47,63.5,131.54,317.51,Single-ply,SBD,M
Boys,51.71,3,Anthony Galvan,Channelview,49.9,113.4,61.23,129.27,303.91,Single-ply,SBD,M
Boys,55.79,4,Jake McShan,Conroe The Woodlands,51.89,90.72,52.16,106.59,249.48,Single-ply,SBD,M
Boys,51.71,5,Gabe Aguilar,La Porte,50.26,63.5,58.97,83.91,206.38,Single-ply,SBD,M
Boys,55.79,1,Sergio Vences,La Porte,54.25,151.95,81.65,156.49,390.09,Single-ply,SBD,M
Boys,55.79,2,Izzy Figueroa,New Caney,55.43,151.95,63.5,147.42,362.87,Single-ply,SBD,M
Boys,55.79,3,Masih Zaman,Katy Mayde Creek,53.25,124.74,86.18,147.42,358.34,Single-ply,SBD,M
Boys,55.79,4,Caffery Penn,Conroe The Woodlands,54.79,131.54,77.11,142.88,351.53,Single-ply,SBD,M
Boys,55.79,5,Jamahl Johnson,Houston Cypress Woods,53.16,124.74,65.77,149.69,340.19,Single-ply,SBD,M
Boys,55.79,6,Kenny Nguyen,Dickinson,52.8,117.93,77.11,120.2,315.25,Single-ply,SBD,M
Boys,55.79,7,Victor Lara-Cortez,Corrigan-Camden,54.7,131.54,68.04,113.4,312.98,Single-ply,SBD,M
Boys,55.79,8,Justin Hill,Conroe The Woodlands,55.43,99.79,72.57,136.08,308.44,Single-ply,SBD,M
Boys,55.79,9,Dalton Goetzinger,Conroe The Woodlands,55.34,104.33,58.97,124.74,288.03,Single-ply,SBD,M
Boys,55.79,10,DeMarcus Mitchell,Woodville,53.16,95.25,52.16,106.59,254.01,Single-ply,SBD,M
Boys,59.87,1,Rodney Bigham,Channelview,59.33,181.44,120.2,199.58,501.22,Single-ply,SBD,M
Boys,59.87,2,Alex Sharp,Dickinson,58.79,165.56,102.06,174.63,442.25,Single-ply,SBD,M
Boys,59.87,3,Beau Burleson,Woodville,58.69,170.1,102.06,165.56,437.72,Single-ply,SBD,M
Boys,59.87,4,Casey Hicks,Houston Cypress Woods,59.78,142.88,83.91,156.49,383.29,Single-ply,SBD,M
Boys,59.87,5,Luis McDaniel,La Porte,58.33,133.81,83.91,142.88,360.61,Single-ply,SBD,M
Boys,59.87,DQ,Juan Nunez,Katy Mayde Creek,59.51,,,,,Single-ply,SBD,M
Boys,59.87,DQ,Patrick Parker,Corrigan-Camden,57.61,,,,,Single-ply,SBD,M
Boys,67.13,DQ,Oscar Medina,New Caney,60.06,,,,,Single-ply,SBD,M
Boys,67.13,1,Juan Guerrero,Corrigan-Camden,67.04,197.31,111.13,197.31,505.76,Single-ply,SBD,M
Boys,67.13,2,Kevin Green,Katy Mayde Creek,66.41,195.04,102.06,181.44,478.54,Single-ply,SBD,M
Boys,67.13,3,Ronald Winston,Katy Mayde Creek,66.77,176.9,95.25,197.31,469.47,Single-ply,SBD,M
Boys,67.13,4,Beto Dejesus,Corrigan-Camden,64.59,172.37,104.33,190.51,467.2,Single-ply,SBD,M
Boys,67.13,5,Robert Sparks,Corrigan-Camden,62.78,154.22,102.06,181.44,437.72,Single-ply,SBD,M
Boys,67.13,6,Robert Ross,Dickinson,67.13,158.76,99.79,158.76,417.3,Single-ply,SBD,M
Boys,67.13,7,Sammy Bell,Woodville,64.95,149.69,88.45,158.76,396.89,Single-ply,SBD,M
Boys,67.13,8,Tyler Fuselier,Dayton,62.6,142.88,79.38,154.22,376.48,Single-ply,SBD,M
Boys,67.13,9,Dan London,Conroe The Woodlands,65.05,129.27,81.65,149.69,360.61,Single-ply,SBD,M
Boys,67.13,DQ,Jeremiah LaPaglia,New Caney,60.24,,,,,Single-ply,SBD,M
Boys,74.84,DQ,Cory Durbin,New Caney,67.22,,,,,Single-ply,SBD,M
Boys,74.84,1,Danzel Granderson,Channelview,67.77,181.44,102.06,226.8,510.29,Single-ply,SBD,M
Boys,74.84,2,Shamus Johnson,Katy Mayde Creek,74.66,195.04,106.59,206.38,508.02,Single-ply,SBD,M
Boys,74.84,3,Colton Beardmore,Houston Cypress Woods,72.21,188.24,111.13,206.38,505.76,Single-ply,SBD,M
Boys,74.84,4,Michael Owens,Houston Cypress Woods,73.21,172.37,113.4,183.7,469.47,Single-ply,SBD,M
Boys,74.84,5,Taylor Rhorer,Woodville,74.12,176.9,97.52,174.63,449.06,Single-ply,SBD,M
Boys,74.84,6,Robert Coneley,Dickinson,74.3,170.1,97.52,174.63,442.25,Single-ply,SBD,M
Boys,74.84,7,Justin Releford,Woodville,72.57,172.37,88.45,176.9,437.72,Single-ply,SBD,M
Boys,74.84,8,Victor Tran,Dickinson,74.75,174.63,102.06,149.69,426.38,Single-ply,SBD,M
Boys,74.84,9,Jon Luke Lambright,Dayton,72.94,154.22,95.25,170.1,419.57,Single-ply,SBD,M
Boys,74.84,10,Braydon Brechler,Katy Morton Ranch,69.13,158.76,90.72,158.76,408.23,Single-ply,SBD,M
Boys,74.84,11,Victor Villareal,Corrigan-Camden,74.84,176.9,92.99,133.81,403.7,Single-ply,SBD,M
Boys,74.84,12,Eric White,Corrigan-Camden,71.76,151.95,83.91,165.56,401.43,Single-ply,SBD,M
Boys,74.84,13,Collin Covington,Conroe The Woodlands,71.85,136.08,83.91,174.63,394.63,Single-ply,SBD,M
Boys,74.84,14,Joe Mireles,Baytown Lee,70.22,138.35,83.91,151.95,374.21,Single-ply,SBD,M
Boys,74.84,15,Juan Cuevas,Corrigan-Camden,69.31,145.15,79.38,147.42,371.95,Single-ply,SBD,M
Boys,82.1,1,Zach Hohman,Conroe The Woodlands,77.93,303.91,170.1,233.6,707.6,Single-ply,SBD,M
Boys,82.1,2,Kevin Orellana,Katy Mayde Creek,80.65,240.4,124.74,240.4,605.55,Single-ply,SBD,M
Boys,82.1,3,Bryce Siecko,Tomball,79.47,229.06,138.35,210.92,578.33,Single-ply,SBD,M
Boys,82.1,4,Justin Hicks,Channelview,78.2,197.31,129.27,233.6,560.19,Single-ply,SBD,M
Boys,82.1,5,Jeremy Conley,Houston Cypress Woods,77.56,215.46,124.74,210.92,551.11,Single-ply,SBD,M
Boys,82.1,6,Luke Chimes,Dickinson,78.38,208.65,131.54,204.12,544.31,Single-ply,SBD,M
Boys,82.1,7,Garrett Mears,Tomball,77.75,170.1,99.79,185.97,455.86,Single-ply,SBD,M
Boys,82.1,8,Armani Mouton,Dickinson,78.11,170.1,111.13,170.1,451.32,Single-ply,SBD,M
Boys,82.1,9,Adam Lively,Woodville,80.74,154.22,83.91,161.03,399.16,Single-ply,SBD,M
Boys,82.1,10,Corey Mitchell,Woodville,80.47,142.88,81.65,165.56,390.09,Single-ply,SBD,M
Boys,82.1,11,Chris Rodriguez,Katy Morton Ranch,76.2,122.47,90.72,149.69,362.87,Single-ply,SBD,M
Boys,82.1,12,Raul Gama,Houston Sam Houston,77.02,124.74,77.11,142.88,344.73,Single-ply,SBD,M
Boys,89.81,1,Tim Ward,Katy Mayde Creek,85.82,254.01,113.4,238.14,605.55,Single-ply,SBD,M
Boys,89.81,2,Dustin Hicks,Channelview,86,204.12,142.88,219.99,566.99,Single-ply,SBD,M
Boys,89.81,3,Jason Ramirez,Channelview,88.36,204.12,131.54,226.8,562.45,Single-ply,SBD,M
Boys,89.81,4,Brian Cobb,Houston Cypress Woods,89.36,226.8,124.74,204.12,555.65,Single-ply,SBD,M
Boys,89.81,5,Trey Valdez,Houston Cypress Woods,86.36,215.46,106.59,219.99,542.04,Single-ply,SBD,M
Boys,89.81,6,Alex Clark,Tomball,88.99,204.12,115.67,217.72,537.51,Single-ply,SBD,M
Boys,89.81,7,Marshall Bolden,New Caney,86.73,217.72,127.01,188.24,532.97,Single-ply,SBD,M
Boys,89.81,8,Julian Jimenez,Katy Mayde Creek,88.81,204.12,113.4,208.65,526.17,Single-ply,SBD,M
Boys,89.81,9,Zachary Peters,Dickinson,89.63,183.7,106.59,231.33,521.63,Single-ply,SBD,M
Boys,89.81,10,Matt Barton,Dayton,82.74,170.1,113.4,190.51,474,Single-ply,SBD,M
Boys,99.79,11,Tyrone Graves,La Porte,89.9,161.03,104.33,172.37,437.72,Single-ply,SBD,M
Boys,99.79,12,Jocab Enger,Dickinson,89.9,158.76,104.33,174.63,437.72,Single-ply,SBD,M
Boys,89.81,13,Garrett Perouen,Woodville,89.63,142.88,99.79,156.49,399.16,Single-ply,SBD,M
Boys,89.81,14,DeMarcus Sanderfer,Katy Morton Ranch,86.45,117.93,68.04,158.76,344.73,Single-ply,SBD,M
Boys,89.81,DQ,Joe Duff,Dayton,86.64,,,,,Single-ply,SBD,M
Boys,99.79,1,Dylan Thompson,Houston Cypress Woods,94.8,219.99,142.88,226.8,589.67,Single-ply,SBD,M
Boys,99.79,2,Kennith Clayburg,New Caney,94.62,199.58,163.29,190.51,553.38,Single-ply,SBD,M
Boys,99.79,3,Derrick Powell,Dayton,99.79,215.46,154.22,183.7,553.38,Single-ply,SBD,M
Boys,99.79,4,Caleb Etheridge,New Caney,93.89,204.12,138.35,197.31,539.77,Single-ply,SBD,M
Boys,99.79,5,Alfredo Mendez,Katy Morton Ranch,96.16,204.12,113.4,181.44,498.95,Single-ply,SBD,M
Boys,99.79,6,Kenny Furches,Conroe The Woodlands,97.52,192.78,111.13,179.17,483.08,Single-ply,SBD,M
Boys,99.79,7,Patrick McCloud,Conroe The Woodlands,93.8,161.03,92.99,197.31,451.32,Single-ply,SBD,M
Boys,99.79,8,Tyler Mt Joy,Conroe The Woodlands,96.62,172.37,102.06,167.83,442.25,Single-ply,SBD,M
Boys,109.77,1,Aaron Ripkowski,Dayton,104.96,272.16,213.19,254.01,739.36,Single-ply,SBD,M
Boys,109.77,2,Shawn Mitchell,Woodville,109.41,285.76,151.95,231.33,669.05,Single-ply,SBD,M
Boys,109.77,3,Mark Armstrong,Corrigan-Camden,100.61,263.08,158.76,233.6,655.44,Single-ply,SBD,M
Boys,109.77,4,Bryan Kimmy,Dayton,109.68,265.35,142.88,226.8,635.03,Single-ply,SBD,M
Boys,109.77,5,Josue Toledo,Channelview,108.41,231.33,136.08,249.48,616.89,Single-ply,SBD,M
Boys,109.77,6,Brett Urbanowski,Katy Mayde Creek,109.59,208.65,136.08,238.14,582.87,Single-ply,SBD,M
Boys,109.77,7,Gerzain Picaz,Channelview,109.59,238.14,136.08,204.12,578.33,Single-ply,SBD,M
Boys,109.77,8,Josh Thevis,Katy Morton Ranch,106.78,226.8,122.47,226.8,576.06,Single-ply,SBD,M
Boys,109.77,9,Blake Wylie,Tomball,101.24,185.97,142.88,217.72,546.58,Single-ply,SBD,M
Boys,109.77,10,Matt Marfisi,Tomball,102.15,199.58,117.93,226.8,544.31,Single-ply,SBD,M
Boys,109.77,11,David Keirum,New Caney,107.14,215.46,113.4,197.31,526.17,Single-ply,SBD,M
Boys,109.77,12,Eddie Sierra,Katy Morton Ranch,103.33,147.42,95.25,181.44,424.11,Single-ply,SBD,M
Boys,109.77,DQ,Justin Booth,Dayton,102.06,183.7,115.67,,,Single-ply,SBD,M
Boys,109.77,DQ,Rumaldo Benevidez,New Caney,109.5,201.85,,,,Single-ply,SBD,M
Boys,124.74,1,Terran Alvez,Houston Cypress Woods,115.39,226.8,149.69,226.8,603.28,Single-ply,SBD,M
Boys,124.74,2,Tim Smith,Baytown Lee,123.29,206.38,142.88,240.4,589.67,Single-ply,SBD,M
Boys,124.74,3,Darius Cratic,Corrigan-Camden,119.2,247.21,138.35,174.63,560.19,Single-ply,SBD,M
Boys,124.74,4,Avery Garcia,Baytown Lee,110.77,201.85,129.27,183.7,514.83,Single-ply,SBD,M
Boys,124.74,5,Jonathan Maldanado,Baytown Lee,120.84,181.44,88.45,140.61,410.5,Single-ply,SBD,M
Boys,124.74,6,Manuel Chavez,Katy Morton Ranch,113.76,90.72,61.23,102.06,254.01,Single-ply,SBD,M
Boys,124.74,DQ,Jared Baker,Houston Cypress Woods,111.86,249.48,,,,Single-ply,SBD,M
Boys,124.74+,1,Rafael Gallo,Katy Mayde Creek,126.19,294.84,165.56,260.82,721.21,Single-ply,SBD,M
Boys,124.74+,2,Justin Smith,New Caney,125.1,229.06,181.44,192.78,603.28,Single-ply,SBD,M
Boys,124.74+,3,Nick Hamilton,La Porte,127.73,204.12,133.81,204.12,542.04,Single-ply,SBD,M
Boys,124.74+,4,Larry Smith,La Porte,156.76,204.12,129.27,183.7,517.1,Single-ply,SBD,M
Boys,124.74+,DQ,Felix Aguirre,Houston Sam Houston,148.14,,,,,Single-ply,SBD,M
Boys,124.74+,DQ,Revis Davis,La Porte,141.07,244.94,,,,Single-ply,SBD,M
