Division,WeightClassKg,Place,Name,Team,BodyweightKg,Best3SquatKg,Best3BenchKg,Best3DeadliftKg,TotalKg,Equipment,Event,Sex
Boys,51.71,1,Kendrel Wilson,Longview,51.26,120.2,63.5,136.08,319.78,Single-ply,SBD,M
Boys,51.71,2,Matthew Solomon,Texarkana Liberty-Eylau,51.71,131.54,61.23,120.2,312.98,Single-ply,SBD,M
Boys,51.71,3,Wylie Brown,Nacogdoches,50.35,115.67,68.04,122.47,306.17,Single-ply,SBD,M
Boys,55.79,4,Camron King,Marshall,51.94,117.93,61.23,99.79,278.96,Single-ply,SBD,M
Boys,51.71,5,Caleb Bush,Elysian Fields,51.26,86.18,56.7,97.52,240.4,Single-ply,SBD,M
Boys,51.71,6,Cullin Chambers,Beckville,45.81,61.23,40.82,70.31,172.37,Single-ply,SBD,M
Boys,51.71,DQ,Lance Stoker,Marshall,51.71,,,,,Single-ply,SBD,M
Boys,55.79,1,Makenzie Davis,Texarkana Liberty-Eylau,52.16,122.47,61.23,120.2,303.91,Single-ply,SBD,M
Boys,55.79,2,Colton Martin,Elysian Fields,55.34,97.52,61.23,129.27,288.03,Single-ply,SBD,M
Boys,55.79,3,Darrell Taylor,Marshall,55.79,115.67,54.43,111.13,281.23,Single-ply,SBD,M
Boys,55.79,4,David Balckwell,Nacogdoches,52.62,115.67,47.63,99.79,263.08,Single-ply,SBD,M
Boys,55.79,DQ,Jordan Mills,Marshall,55.79,,,,,Single-ply,SBD,M
Boys,55.79,DQ,Taylor Lindsey,Elysian Fields,55.79,,,,,Single-ply,SBD,M
Boys,59.87,1,Tj Howard,Texarkana Liberty-Eylau,59.87,183.7,113.4,176.9,474,Single-ply,SBD,M
Boys,59.87,2,Kentrun Pemberton,Texarkana Liberty-Eylau,59.42,176.9,108.86,174.63,460.4,Single-ply,SBD,M
Boys,59.87,3,Reid Bynum,Linden-Kildare,59.42,136.08,68.04,142.88,347,Single-ply,SBD,M
Boys,59.87,DQ,Timothy Breazeale,Linden-Kildare,59.87,,,,,Single-ply,SBD,M
Boys,59.87,DQ,Laurent Johnson,Longview,59.87,,,,,Single-ply,SBD,M
Boys,67.13,1,Rod Howard,Texarkana Liberty-Eylau,63.96,174.63,108.86,181.44,464.93,Single-ply,SBD,M
Boys,67.13,2,Alex Pierson,Longview,62.14,170.1,83.91,204.12,458.13,Single-ply,SBD,M
Boys,67.13,3,Edgar Simmons,Marshall,63.5,167.83,104.33,158.76,430.91,Single-ply,SBD,M
Boys,67.13,4,Javonte Parker,Marshall,60.78,167.83,79.38,176.9,424.11,Single-ply,SBD,M
Boys,67.13,5,Justin Spurlin,Waskom,63.96,136.08,81.65,165.56,383.29,Single-ply,SBD,M
Boys,67.13,6,Cedric King,Longview,63.5,147.42,68.04,154.22,369.68,Single-ply,SBD,M
Boys,67.13,7,Deunta Jackson,Marshall,66.68,136.08,72.57,124.74,333.39,Single-ply,SBD,M
Boys,67.13,8,Terry Dickerson,Atlanta,66.68,120.2,72.57,140.61,333.39,Single-ply,SBD,M
Boys,67.13,9,Cornellius Zachary,Longview,67.13,124.74,72.57,136.08,333.39,Single-ply,SBD,M
Boys,67.13,10,Kevin Jackson,Marshall,65.32,129.27,81.65,113.4,324.32,Single-ply,SBD,M
Boys,67.13,11,Jayden Whitely,Nacogdoches,62.14,120.2,72.57,122.47,315.25,Single-ply,SBD,M
Boys,67.13,12,Jacouri Macon,Marshall,62.6,102.06,63.5,142.88,308.44,Single-ply,SBD,M
Boys,67.13,13,Taylor Lang,Elysian Fields,65.32,115.67,61.23,111.13,288.03,Single-ply,SBD,M
Boys,67.13,14,Cullum Ditmore,Elysian Fields,61.69,95.25,56.7,111.13,263.08,Single-ply,SBD,M
Boys,74.84,1,Jason Haley,Texarkana Liberty-Eylau,74.84,231.33,102.06,204.12,537.51,Single-ply,SBD,M
Boys,74.84,2,Cory Bartley,Longview,68.04,215.46,113.4,201.85,530.7,Single-ply,SBD,M
Boys,74.84,3,Jacovin Coats,Marshall,72.12,181.44,104.33,235.87,521.63,Single-ply,SBD,M
Boys,74.84,4,De'Shun Brewer,Texarkana Liberty-Eylau,70.31,172.37,124.74,210.92,508.02,Single-ply,SBD,M
Boys,74.84,5,Dk Calloway,Carthage,71.67,190.51,117.93,192.78,501.22,Single-ply,SBD,M
Boys,74.84,6,Jacob Neshbya,Atlanta,74.84,188.24,102.06,195.04,485.34,Single-ply,SBD,M
Boys,74.84,6,Davatric Cooks,Longview,73.94,181.44,92.99,201.85,476.27,Single-ply,SBD,M
Boys,74.84,7,JC Garcia,Waskom,73.03,199.58,83.91,185.97,469.47,Single-ply,SBD,M
Boys,74.84,8,Cameron Slay,Jefferson,69.4,170.1,92.99,192.78,455.86,Single-ply,SBD,M
Boys,74.84,9,John Coe,Linden-Kildare,74.39,165.56,102.06,185.97,453.59,Single-ply,SBD,M
Boys,74.84,10,Adam Mangum,Texarkana Liberty-Eylau,72.12,154.22,117.93,174.63,446.79,Single-ply,SBD,M
Boys,74.84,11,Kensha Talley,Marshall,70.76,158.76,95.25,190.51,444.52,Single-ply,SBD,M
Boys,74.84,12,Paulo Cagol,Marshall,73.03,154.22,97.52,176.9,428.64,Single-ply,SBD,M
Boys,74.84,13,Eddie Blacknell,Marshall,74.53,145.15,102.06,181.44,428.64,Single-ply,SBD,M
Boys,74.84,14,Hunter Bollier,Texarkana Liberty-Eylau,74.84,181.44,88.45,136.08,405.97,Single-ply,SBD,M
Boys,74.84,15,Cameron Simmons,Texarkana Liberty-Eylau,71.21,154.22,97.52,145.15,396.89,Single-ply,SBD,M
Boys,74.84,16,Levi Roberts,Atlanta,72.57,158.76,81.65,145.15,385.55,Single-ply,SBD,M
Boys,74.84,17,Jalannie Walker,Texarkana Liberty-Eylau,68.04,142.88,97.52,136.08,376.48,Single-ply,SBD,M
Boys,74.84,18,Nolan Allen,Marshall,70.76,142.88,88.45,142.88,374.21,Single-ply,SBD,M
Boys,74.84,19,Graham Sams,Atlanta,74.84,129.27,88.45,154.22,371.95,Single-ply,SBD,M
Boys,74.84,20,Ben Wise,Waskom,70.31,124.74,72.57,136.08,333.39,Single-ply,SBD,M
Boys,74.84,21,Tristen Moore,Elysian Fields,73.48,117.93,65.77,145.15,328.85,Single-ply,SBD,M
Boys,74.84,22,Tevin Rudd,Marshall,68.49,113.4,63.5,142.88,319.78,Single-ply,SBD,M
Boys,74.84,23,Evan Guillory,Nacogdoches,69.4,129.27,72.57,117.93,319.78,Single-ply,SBD,M
Boys,74.84,24,Sam Ruley,Atlanta,71.67,92.99,92.99,131.54,317.51,Single-ply,SBD,M
Boys,74.84,25,Justin Brown,Elysian Fields,68.04,102.06,61.23,145.15,308.44,Single-ply,SBD,M
Boys,74.84,26,Kameron Hudson,Marshall,70.76,108.86,63.5,117.93,290.3,Single-ply,SBD,M
Boys,74.84,27,Dakota Johnson,Linden-Kildare,69.4,99.79,56.7,108.86,265.35,Single-ply,SBD,M
Boys,82.1,1,Kevin Jones,Elysian Fields,81.65,210.92,131.54,226.8,569.26,Single-ply,SBD,M
Boys,82.1,2,Trent Tucker,Texarkana Liberty-Eylau,80.74,213.19,136.08,217.72,566.99,Single-ply,SBD,M
Boys,82.1,3,Demarkus Lathan,Longview,82.1,204.12,129.27,231.33,564.72,Single-ply,SBD,M
Boys,82.1,4,Colby Simmons,Elysian Fields,82.1,185.97,131.54,215.46,532.97,Single-ply,SBD,M
Boys,82.1,5,Shaquille Grant,Linden-Kildare,76.2,185.97,99.79,226.8,512.56,Single-ply,SBD,M
Boys,82.1,7,Tony Sanders,Longview,76.66,183.7,108.86,192.78,485.34,Single-ply,SBD,M
Boys,82.1,8,Travian Jones,Longview,78.47,204.12,92.99,188.24,485.34,Single-ply,SBD,M
Boys,82.1,9,Nakia Brown,Longview,77.56,183.7,90.72,204.12,478.54,Single-ply,SBD,M
Boys,82.1,10,Javontrae Williams,Longview,78.47,183.7,104.33,183.7,471.74,Single-ply,SBD,M
Boys,82.1,11,Jacob Hanson,Marshall,76.66,172.37,104.33,172.37,449.06,Single-ply,SBD,M
Boys,82.1,12,Jaylon Webster,Longview,77.11,165.56,90.72,188.24,444.52,Single-ply,SBD,M
Boys,82.1,13,Chris Lambert,Linden-Kildare,79.83,183.7,88.45,172.37,444.52,Single-ply,SBD,M
Boys,82.1,14,Shawn Smith,Nacogdoches,80.29,165.56,97.52,174.63,437.72,Single-ply,SBD,M
Boys,82.1,15,David Jackson,Carthage,80.29,138.35,86.18,167.83,392.36,Single-ply,SBD,M
Boys,82.1,16,Casey Williams,Nacogdoches,80.29,124.74,86.18,147.42,358.34,Single-ply,SBD,M
Boys,82.1,17,Chance Hatton,Elysian Fields,78.47,115.67,74.84,145.15,335.66,Single-ply,SBD,M
Boys,82.1,DQ,Devin Ehrhart,Marshall,82.1,,,,,Single-ply,SBD,M
Boys,89.81,1,Taylor Lollis,Texarkana Liberty-Eylau,88.45,222.26,140.61,224.53,587.4,Single-ply,SBD,M
Boys,89.81,2,Kederrick Holmes,Texarkana Liberty-Eylau,88.45,217.72,127.01,226.8,571.53,Single-ply,SBD,M
Boys,89.81,3,Xavier Mitchell,Longview,83.46,204.12,111.13,217.72,532.97,Single-ply,SBD,M
Boys,89.81,4,Kenderson Cooks,Marshall,89.81,204.12,104.33,199.58,508.02,Single-ply,SBD,M
Boys,89.81,5,Jaron Anthony,Texarkana Liberty-Eylau,82.55,210.92,106.59,174.63,492.15,Single-ply,SBD,M
Boys,89.81,6,Hunter Jeans,Marshall,89.36,181.44,99.79,204.12,485.34,Single-ply,SBD,M
Boys,89.81,7,Trevor Jacobus,Longview,83.46,174.63,111.13,192.78,478.54,Single-ply,SBD,M
Boys,89.81,8,Dan Davis,Atlanta,84.82,165.56,106.59,206.38,478.54,Single-ply,SBD,M
Boys,89.81,9,Tyler Hutsell,Linden-Kildare,86.64,195.04,90.72,188.24,474,Single-ply,SBD,M
Boys,89.81,10,Jarvis Ayers,Jefferson,87.54,183.7,102.06,183.7,469.47,Single-ply,SBD,M
Boys,89.81,11,Keenan Horton,Marshall,89.81,158.76,104.33,190.51,453.59,Single-ply,SBD,M
Boys,89.81,12,John Lumpkin,Waskom,83.01,149.69,81.65,167.83,399.16,Single-ply,SBD,M
Boys,89.81,13,Anthony Washington,Marshall,83.46,149.69,68.04,154.22,371.95,Single-ply,SBD,M
Boys,89.81,14,Park Gibbs,Nacogdoches,84.82,136.08,92.99,142.88,371.95,Single-ply,SBD,M
Boys,89.81,15,Chase Williams,Beckville,87.09,102.06,65.77,158.76,326.59,Single-ply,SBD,M
Boys,89.81,16,Lane Burleson,Linden-Kildare,87.09,115.67,72.57,138.35,326.59,Single-ply,SBD,M
Boys,89.81,17,Deshanti Holloway,Atlanta,89.36,158.76,79.38,,238.14,Single-ply,SB,M
Boys,99.79,1,Dekota Newson,Marshall,99.34,263.08,142.88,254.01,659.98,Single-ply,SBD,M
Boys,99.79,2,Morocco Arnold,Texarkana Liberty-Eylau,96.16,240.4,122.47,240.4,603.28,Single-ply,SBD,M
Boys,99.79,3,William Wayne,Texarkana Liberty-Eylau,98.43,195.04,122.47,199.58,517.1,Single-ply,SBD,M
Boys,99.79,4,Cole Davis,Atlanta,93.44,204.12,104.33,190.51,498.95,Single-ply,SBD,M
Boys,99.79,5,Lavontae Hick,Longview,99.79,192.78,83.91,192.78,469.47,Single-ply,SBD,M
Boys,99.79,6,Alex Silva,Marshall,96.62,172.37,92.99,183.7,449.06,Single-ply,SBD,M
Boys,99.79,7,K'Aelin Ware,Carthage,94.8,172.37,90.72,179.17,442.25,Single-ply,SBD,M
Boys,99.79,8,Cade Clinton,Carthage,99.34,147.42,113.4,181.44,442.25,Single-ply,SBD,M
Boys,99.79,9,Garrett Harvey,Carthage,99.79,172.37,106.59,158.76,437.72,Single-ply,SBD,M
Boys,99.79,10,Cody Shaddix,Atlanta,99.79,163.29,102.06,172.37,437.72,Single-ply,SBD,M
Boys,99.79,11,Alex Gavin,Nacogdoches,97.07,147.42,83.91,142.88,374.21,Single-ply,SBD,M
Boys,99.79,12,Austin Guillory,Nacogdoches,90.72,127.01,97.52,145.15,369.68,Single-ply,SBD,M
Boys,99.79,13,Trey Valentine,Marshall,97.98,113.4,74.84,147.42,335.66,Single-ply,SBD,M
Boys,99.79,14,Robert Earnhart,Atlanta,97.07,129.27,77.11,,206.38,Single-ply,SB,M
Boys,109.77,1,Mark Malone,Longview,105.69,197.31,111.13,215.46,523.9,Single-ply,SBD,M
Boys,109.77,2,Zacchaeus Prince,Texarkana Liberty-Eylau,103.42,226.8,113.4,181.44,521.63,Single-ply,SBD,M
Boys,109.77,3,Joey Lenard,Atlanta,104.78,181.44,115.67,204.12,501.22,Single-ply,SBD,M
Boys,109.77,4,Jonathan Montoya,Longview,106.14,192.78,99.79,190.51,483.08,Single-ply,SBD,M
Boys,109.77,5,Mario McCain,Carthage,103.42,183.7,120.2,170.1,474,Single-ply,SBD,M
Boys,109.77,6,Cody Forbes,Marshall,103.42,183.7,102.06,154.22,439.98,Single-ply,SBD,M
Boys,109.77,7,Dylan Husar,Carthage,103.42,154.22,90.72,147.42,392.36,Single-ply,SBD,M
Boys,109.77,8,Tyler Johnston,Nacogdoches,101.15,145.15,88.45,142.88,376.48,Single-ply,SBD,M
Boys,109.77,9,William Ruley,Atlanta,106.59,147.42,88.45,113.4,349.27,Single-ply,SBD,M
Boys,109.77,DQ,Dakota Hart,Carthage,109.77,,,,,Single-ply,SBD,M
Boys,109.77,DQ,Kenny Andrews,Longview,109.77,,,,,Single-ply,SBD,M
Boys,124.74,1,Donovan Webb,Longview,115.21,272.16,142.88,235.87,650.91,Single-ply,SBD,M
Boys,124.74,2,Victor Angeles,Beckville,124.28,240.4,174.63,210.92,625.96,Single-ply,SBD,M
Boys,124.74,3,Cornelius Williams,Longview,121.56,233.6,129.27,229.06,591.94,Single-ply,SBD,M
Boys,124.74,4,Hayden Hart,Texarkana Liberty-Eylau,117.03,226.8,147.42,183.7,557.92,Single-ply,SBD,M
Boys,124.74,5,Brandon Parkman,Atlanta,111.13,185.97,117.93,188.24,492.15,Single-ply,SBD,M
Boys,124.74,6,Dexter Clough,Carthage,121.56,185.97,129.27,176.9,492.15,Single-ply,SBD,M
Boys,124.74,7,Adrian Jackson,Longview,118.39,183.7,106.59,188.24,478.54,Single-ply,SBD,M
Boys,124.74,8,Katrail Flanagan,Marshall,118.39,181.44,95.25,172.37,449.06,Single-ply,SBD,M
Boys,124.74,9,Kiara Neal,Linden-Kildare,112.94,147.42,81.65,145.15,374.21,Single-ply,SBD,M
Boys,124.74,10,Ryan Cox,Jefferson,122.92,113.4,81.65,142.88,337.93,Single-ply,SBD,M
Boys,124.74+,1,Joshua Byrd,Marshall,141.07,288.03,167.83,217.72,673.58,Single-ply,SBD,M
Boys,124.74+,2,Jensen Jackson,Marshall,129.27,265.35,161.03,215.46,641.83,Single-ply,SBD,M
Boys,124.74+,3,Landan Templin,Jefferson,126.55,219.99,122.47,181.44,523.9,Single-ply,SBD,M
Boys,124.74+,4,Kason Willis,Atlanta,129.27,197.31,117.93,206.38,521.63,Single-ply,SBD,M
Boys,124.74+,5,Wesley Prince,Waskom,142.88,215.46,111.13,174.63,501.22,Single-ply,SBD,M
Boys,124.74+,6,Dakota Brooks,Marshall,136.08,204.12,102.06,170.1,476.27,Single-ply,SBD,M
Boys,124.74+,7,Griffin Blankhead,Carthage,129.73,154.22,106.59,170.1,430.91,Single-ply,SBD,M
Boys,124.74+,8,Uriel Scott,Nacogdoches,146.06,156.49,97.52,145.15,399.16,Single-ply,SBD,M
Boys,124.74+,9,Hunter Fountain,Elysian Fields,129.27,136.08,99.79,136.08,371.95,Single-ply,SBD,M
