Place,Sex,Name,Event,Division,WeightClassKg,Equipment,BirthYear,Team,State,BodyweightKg,Squat1Kg,Squat2Kg,Squat3Kg,Best3SquatKg,Bench1Kg,Bench2Kg,Bench3Kg,Best3BenchKg,Deadlift1Kg,Deadlift2Kg,Deadlift3Kg,Best3DeadliftKg,TotalKg
G,F,Dylana Ward,SBD,F-G,90+,Single-ply,1999,,SD,92.4,135,137.5,155,155,70,-75,-75,70,140,147.5,155,155,380
2,F,Nicole Vanderklis,SBD,F-JV,44,Single-ply,2001,,LA,43.4,-60,60,65,65,30,32.5,-37.5,32.5,67.5,72.5,-77.5,72.5,170
1,F,Celeste Correa,SBD,F-JV,48,Single-ply,2001,Carrizo Springs High School,TX,46.1,-85,85,-90,85,30,35,-37.5,35,97.5,105,-107.5,105,225
1,F,Anna Delao,SBD,F-JV,52,Single-ply,2000,,WI,51.7,125,130,135,135,55,60,62.5,62.5,125,130,135,135,332.5
2,F,Ashley Lee,SBD,F-JV,52,Single-ply,2001,Cudahy High School,WI,51.3,110,117.5,122.5,122.5,60,62.5,65,65,120,125,127.5,127.5,315
3,F,Lauren Freeck,SBD,F-JV,52,Single-ply,2001,Cudahy High School,WI,51.5,105,110,115,115,55,-57.5,-57.5,55,132.5,140,145,145,315
4,F,Natalie Weckesser,SBD,F-JV,52,Single-ply,2001,Necedah High School,WI,51.6,102.5,107.5,112.5,112.5,37.5,40,42.5,42.5,107.5,-112.5,115,115,270
5,F,Sophia Salter,SBD,F-JV,52,Single-ply,2001,,SD,50.2,87.5,-95,97.5,97.5,40,-45,-45,40,112.5,122.5,-132.5,122.5,260
6,F,Ashlynn Arnold,SBD,F-JV,52,Single-ply,2001,,WI,51,90,-97.5,-97.5,90,35,40,42.5,42.5,85,97.5,105,105,237.5
7,F,Melanie Johnson,SBD,F-JV,52,Single-ply,2001,Neenah High School,WI,50.8,75,80,85,85,35,40,-45,40,97.5,102.5,107.5,107.5,232.5
1,F,Britney Kopp,SBD,F-JV,56,Single-ply,2001,Cudahy High School,WI,55.9,137.5,145,-150,145,75,80.5,83,83,140,-147.5,-147.5,140,368
2,F,Machaela Exner,SBD,F-JV,56,Single-ply,2001,Necedah High School,WI,55.3,122.5,130,137.5,137.5,62.5,-65,-65,62.5,125,130,137.5,137.5,337.5
3,F,Britney Wright,SBD,F-JV,56,Single-ply,2002,,WI,52.5,122.5,130,-135,130,42.5,52.5,57.5,57.5,125,137.5,140,140,327.5
4,F,Jennifer Salazar,SBD,F-JV,56,Single-ply,2000,,WI,55,112.5,122.5,-137.5,122.5,62.5,-67.5,-67.5,62.5,122.5,127.5,-157.5,127.5,312.5
5,F,Ally Spang,SBD,F-JV,56,Single-ply,2002,,WI,52.1,92.5,100,107.5,107.5,-42.5,42.5,47.5,47.5,97.5,107.5,112.5,112.5,267.5
6,F,Riley Ganther,SBD,F-JV,56,Single-ply,2001,Necedah High School,WI,54.5,92.5,-95,-95,92.5,32.5,35,-37.5,35,110,115,-120,115,242.5
1,F,Cassie Kratt,SBD,F-JV,60,Single-ply,2000,Cudahy High School,WI,57.5,155,162.5,-172.5,162.5,72.5,77.5,-82.5,77.5,152.5,162.5,-167.5,162.5,402.5
2,F,Elena Marquez,SBD,F-JV,60,Single-ply,2001,Necedah High School,WI,60,127.5,135,140,140,60,62.5,67.5,67.5,110,120,130,130,337.5
3,F,Kendra Trewyn,SBD,F-JV,60,Single-ply,2001,Necedah High School,WI,58.8,112.5,117.5,122.5,122.5,45,50,52.5,52.5,107.5,115,125,125,300
4,F,Megan Wesolek,SBD,F-JV,60,Single-ply,2001,Necedah High School,WI,59.2,102.5,107.5,112.5,112.5,57.5,62.5,65,65,107.5,112.5,-122.5,112.5,290
5,F,Anita Lozano,SBD,F-JV,60,Single-ply,2001,Neenah High School,WI,59.9,90,102.5,110,110,47.5,52.5,-57.5,52.5,92.5,102.5,110,110,272.5
7,F,Kailey Bilka,SBD,F-JV,60,Single-ply,2000,,WI,57.3,77.5,-85,85,85,30,32.5,-35,32.5,92.5,100,105,105,222.5
1,F,Geri Fredrickson,SBD,F-JV,75,Single-ply,2001,,WI,71.8,145,152.5,162.5,162.5,60,65,72.5,72.5,127.5,135,142.5,142.5,377.5
3,F,Cloe Winters,SBD,F-JV,75,Single-ply,2000,Necedah High School,WI,69.9,130,135,140,140,52.5,57.5,60,60,140,145,147.5,147.5,347.5
5,F,Cassandra Bitsko,SBD,F-JV,75,Single-ply,2000,,PA,71.7,102.5,110,125,125,52.5,60,65,65,115,125,137.5,137.5,327.5
6,F,Elizabeth Lubeck,SBD,F-JV,75,Single-ply,2001,,SD,73.3,112.5,-122.5,-122.5,112.5,47.5,-50,-50,47.5,117.5,120,130,130,290
7,F,Makenzie Exner,SBD,F-JV,75,Single-ply,2002,Necedah High School,WI,74.4,102.5,107.5,115,115,37.5,40,-42.5,40,102.5,115,-132.5,115,270
12,F,Alma Gonzalez,SBD,F-JV,75,Single-ply,2001,,LA,68.5,102.5,-107.5,-107.5,102.5,42.5,47.5,-50,47.5,92.5,102.5,-110,102.5,252.5
3,F,Anahi De Jesus,SBD,F-JV,90,Single-ply,2001,Cudahy High School,WI,88,112.5,-120,122.5,122.5,62.5,65,70,70,127.5,132.5,140,140,332.5
1,F,Bethany Skroch,SBD,F-JV,90+,Single-ply,2001,,WI,105.6,155,162.5,172.5,172.5,52.5,70,77.5,77.5,115,-127.5,127.5,127.5,377.5
2,F,Trinity Murphy,SBD,F-JV,90+,Single-ply,2002,,PA,96.7,105,117.5,130,130,60,67.5,-70,67.5,142.5,160,167.5,167.5,365
4,F,Eden Mokler,SBD,F-JV,90+,Single-ply,2000,,WI,102.3,-135,135,-150,135,45,-47.5,-47.5,45,127.5,132.5,-140,132.5,312.5
5,F,Shaye Winker,SBD,F-JV,90+,Single-ply,2000,,WI,91.9,107.5,-115,120,120,62.5,67.5,-75,67.5,112.5,-122.5,-122.5,112.5,300
2,F,Cienna Haller,SBD,F-JV,67.5,Single-ply,2001,,WI,64,125,135,142.5,142.5,62.5,70,75,75,125,135,142.5,142.5,360
4,F,Erin Whipple,SBD,F-JV,67.5,Single-ply,2001,,WI,65.9,137.5,-152.5,-152.5,137.5,42.5,-52.5,52.5,52.5,137.5,-152.5,-152.5,137.5,327.5
6,F,Audrey Williams,SBD,F-JV,67.5,Single-ply,2000,Necedah High School,WI,67.1,122.5,127.5,135,135,50,52.5,55,55,127.5,135,-145,135,325
7,F,Abigail Momberg,SBD,F-JV,67.5,Single-ply,2000,Cudahy High School,WI,63.8,105,110,117.5,117.5,57.5,62.5,-67.5,62.5,130,135,-145,135,315
8,F,Jamie Regnier,SBD,F-JV,67.5,Single-ply,2001,Neenah High School,WI,65.8,110,120,130,130,52.5,-57.5,-57.5,52.5,110,120,127.5,127.5,310
9,F,Amanda Reilly,SBD,F-JV,67.5,Single-ply,2002,Necedah High School,WI,65.6,100,107.5,112.5,112.5,52.5,55,57.5,57.5,102.5,112.5,120,120,290
10,F,Kaileigh Nickel,SBD,F-JV,67.5,Single-ply,2000,Neenah High School,WI,63.2,82.5,92.5,102.5,102.5,47.5,52.5,-55,52.5,105,112.5,127.5,127.5,282.5
11,F,Amber Deitz,SBD,F-JV,67.5,Single-ply,2000,,WI,64.2,-102.5,102.5,110,110,37.5,42.5,-45,42.5,107.5,115,-122.5,115,267.5
6,F,Johanna Moter,SBD,F-JV,67.5,Single-ply,2001,,WY,62.6,90,-92.5,92.5,92.5,-47.5,-47.5,47.5,47.5,100,110,115,115,255
13,F,Nevaeh A. Scow,SBD,F-JV,67.5,Single-ply,2001,,WI,65.5,100,-105,-105,100,42.5,47.5,-50,47.5,92.5,100,-107.5,100,247.5
14,F,Ally Mcdonald,SBD,F-JV,67.5,Single-ply,2001,,SD,65.4,-82.5,85,-100,85,-37.5,-37.5,37.5,37.5,102.5,110,-117.5,110,232.5
1,F,Kennedy Ketzer,SBD,F-JV,82.5,Single-ply,2000,,WI,75.4,132.5,140,-147.5,140,72.5,77.5,85,85,125,130,135,135,360
2,F,Madelynn Mcfarland,SBD,F-JV,82.5,Single-ply,2001,,WI,78.6,140,147.5,155,155,52.5,57.5,-67.5,57.5,125,130,137.5,137.5,350
3,F,Virginia McMillan,SBD,F-JV,82.5,Single-ply,2001,,WI,79.8,130,135,137.5,137.5,65,-70,-70,65,130,135,140,140,342.5
4,F,Stella Lobacz,SBD,F-JV,82.5,Single-ply,2002,,WI,79.6,125,-142.5,142.5,142.5,40,45,-50,45,142.5,150,-165,150,337.5
5,F,Isabella Mullally,SBD,F-JV,82.5,Single-ply,2002,Neenah High School,WI,79.8,115,120,132.5,132.5,57.5,65,67.5,67.5,102.5,117.5,125,125,325
1,F,Grace Albarez,SBD,F-V,44,Single-ply,1999,Covington High school,LA,44,115,125,132.5,132.5,60,67.5,-70,67.5,102.5,110,115,115,315
1,F,Zyanna Price,SBD,F-V,44,Single-ply,2000,Alexandria Senior High School,LA,42.2,105,115,125,125,47.5,52.5,60,60,107.5,125,-130,125,310
3,F,Kailyn Barnett,SBD,F-V,44,Single-ply,2001,,LA,43.7,120,125,-132.5,125,45,52.5,-55,52.5,105,117.5,-125,117.5,295
4,F,Blayna Parfait,SBD,F-V,44,Single-ply,1999,,LA,43.7,115,125,-130,125,45,52.5,-55,52.5,110,-122.5,-122.5,110,287.5
2,F,Tianne Trujillo,SBD,F-V,44,Single-ply,1999,,TX,40.7,95,-97.5,-115,95,40,-47.5,-47.5,40,90,100,-102.5,100,235
DD,F,Apryl Moran,SBD,F-V,48,Single-ply,1999,Alexandria Senior High School,LA,47.1,-105,-117.5,-127.5,,-52.5,-57.5,-65,,-112.5,-125,-135,,
2,F,Mya Brown,SBD,F-V,48,Single-ply,1998,Alexandria Senior High School,LA,46.2,107.5,117.5,127.5,127.5,52.5,-57.5,-57.5,52.5,110,-125,125,125,305
4,F,Lauren Kunkel,SBD,F-V,48,Single-ply,1999,,WI,47.9,105,115,120,120,55,57.5,60,60,90,100,105,105,285
G,F,Taylor Munro,SBD,FR-G,67.5,Raw,2000,Croswell-Lexington High School,MI,61.9,102.5,-112.5,-112.5,102.5,52.5,55,-57.5,55,-117.5,117.5,-135,117.5,275
1,F,Laurel Shaw,SBD,FR-V,52,Raw,2000,Croswell-Lexington High School,MI,50.5,77.5,85,-90,85,45,-50,-50,45,110,120,-125,120,250
2,F,Emilyn Christian,SBD,FR-V,52,Raw,2000,Croswell-Lexington High School,MI,51.1,77.5,82.5,-95,82.5,32.5,37.5,-40,37.5,110,115,-117.5,115,235
1,F,Elizabeth DeMunck,SBD,FR-V,56,Raw,1998,,WI,55.1,-97.5,97.5,102.5,102.5,42.5,45,47.5,47.5,125,132.5,-135,132.5,282.5
2,F,Kylie Klaas,SBD,FR-V,56,Raw,1999,Croswell-Lexington High School,MI,53.3,87.5,-95,95,95,50,55,-57.5,55,115,125,-132.5,125,275
3,F,Kayleigh Tokash,SBD,FR-V,56,Raw,1998,Abington Heights High School,PA,55.2,82.5,92.5,95,95,45,47.5,-50,47.5,105,115,120,120,262.5
1,F,Noelle Marinez,SBD,FR-V,60,Raw,1999,Croswell-Lexington High School,MI,58.1,102.5,107.5,110,110,45,-50,50,50,-122.5,125,132.5,132.5,292.5
2,F,Shyla Dake,SBD,FR-V,60,Raw,2000,,WI,58.5,75,85,92.5,92.5,50,57.5,-60,57.5,102.5,115,127.5,127.5,277.5
3,F,Jaime Hernandez,SBD,FR-V,60,Raw,2000,Necedah High School,WI,59.9,97.5,100,105,105,45,50,52.5,52.5,110,117.5,-135,117.5,275
1,F,Natalie Richardson,SBD,FR-V,75,Raw,1999,,SD,72.2,137.5,142.5,145,145,80,85,-87.5,85,160,170,-175,170,400
3,F,Morgan Gilliam,SBD,FR-V,75,Raw,2000,,MI,73.2,122.5,-132.5,132.5,132.5,55,60,-65,60,140,152.5,162.5,162.5,355
4,F,Miranda Koehnke,SBD,FR-V,75,Raw,2001,,WI,73.9,117.5,120,122.5,122.5,50,55,62.5,62.5,120,127.5,137.5,137.5,322.5
1,F,Abbi Stafslien-Dumale,SBD,FR-V,90,Raw,2000,,WI,88,150,160,162.5,162.5,70,75,-77.5,75,155,162.5,170,170,407.5
5,F,Sydney Krueger,SBD,FR-V,90,Raw,2002,,WI,87.9,110,120,130,130,52.5,60,-62.5,60,125,142.5,-147.5,142.5,332.5
6,F,Faith Brooks,SBD,FR-V,90,Raw,2000,,WI,87.5,107.5,112.5,125,125,50,-55,-60,50,102.5,127.5,-142.5,127.5,302.5
7,F,Abigail Mcnitt,SBD,FR-V,90,Raw,1999,,WI,87.4,102.5,-107.5,107.5,107.5,47.5,50,52.5,52.5,125,130,-132.5,130,290
2,F,Miranda Rueter,SBD,FR-V,90+,Raw,2000,,WI,129.6,142.5,145,-147.5,145,85,87.5,-90,87.5,147.5,150,152.5,152.5,385
3,F,Caitlyn Wilson,SBD,FR-V,90+,Raw,1999,Ionia High School,MI,107,125,135,-142.5,135,62.5,70,75,75,135,145,150,150,360
4,F,Sierra Keyes,SBD,FR-V,90+,Raw,1999,,WI,94.4,125,130,-137.5,130,65,70,72.5,72.5,125,135,142.5,142.5,345
8,F,Camille Ciesznski,SBD,FR-V,90+,Raw,2000,,WI,107.3,82.5,92.5,-100,92.5,42.5,47.5,50,50,95,105,110,110,252.5
9,F,Liliana Martinez,SBD,FR-V,90+,Raw,2000,Carrizo Springs High School,TX,94,-72.5,72.5,90,90,32.5,45,-50,45,95,102.5,110,110,245
1,F,Lexxie Barr,SBD,FR-V,67.5,Raw,1999,,WI,67.1,137.5,142.5,147.5,147.5,57.5,-62.5,62.5,62.5,137.5,147.5,160,160,370
2,F,Hannah Slater,SBD,FR-V,67.5,Raw,2000,,WI,65.7,107.5,-112.5,115,115,50,-55,55,55,115,125,132.5,132.5,302.5
3,F,Lauren Barbarich,SBD,FR-V,67.5,Raw,1999,Croswell-Lexington High School,MI,63.4,-102.5,105,-112.5,105,50,52.5,-55,52.5,140,-152.5,-152.5,140,297.5
4,F,Hannah White,SBD,FR-V,67.5,Raw,1999,Abington Heights High School,PA,65.1,87.5,97.5,100,100,50,52.5,55,55,117.5,127.5,132.5,132.5,287.5
5,F,Raquel Emery,SBD,FR-V,67.5,Raw,2000,,OH,66.2,92.5,-100,105,105,45,-47.5,-47.5,45,110,115,122.5,122.5,272.5
6,F,Nadine Alberg,SBD,FR-V,67.5,Raw,2000,Neenah High School,WI,66.2,77.5,85,90,90,45,50,-55,50,107.5,117.5,-135,117.5,257.5
7,F,Mikayla Mellendorf,SBD,FR-V,67.5,Raw,1998,,WY,65.8,87.5,-92.5,-92.5,87.5,47.5,-50,-50,47.5,105,112.5,117.5,117.5,252.5
2,F,Emma Wothe,SBD,FR-V,82.5,Raw,1999,,WI,80.1,142.5,-150,-150,142.5,62.5,67.5,-70,67.5,152.5,165,-167.5,165,375
5,F,Jessica Blandino,SBD,FR-V,82.5,Raw,1999,Croswell-Lexington High School,MI,77.8,87.5,102.5,110,110,45,52.5,-62.5,52.5,117.5,132.5,-142.5,132.5,295
6,F,Cassidy Wienke,SBD,FR-V,82.5,Raw,1999,,WI,78.4,102.5,-107.5,107.5,107.5,52.5,55,-60,55,122.5,127.5,-135,127.5,290
7,F,Elia Leary,SBD,FR-V,82.5,Raw,1999,,WI,80.1,90,-97.5,97.5,97.5,40,45,-50,45,112.5,122.5,-130,122.5,265
8,F,Kassidy Kolodzik,SBD,FR-V,82.5,Raw,1999,,WI,80.3,57.5,60,-70,60,37.5,40,-42.5,40,65,75,-82.5,75,175
2,F,Grace King,SBD,FR-JV,48,Raw,2000,,MI,48,-75,75,-80,75,52.5,-55,55,55,97.5,102.5,107.5,107.5,237.5
1,F,Mari Stafslien-Dumale,SBD,FR-HS,52,Raw,2002,,WI,52,70,75,80,80,37.5,42.5,45,45,107.5,112.5,117.5,117.5,242.5
3,F,Karina Frisbie,SBD,FR-HS,52,Raw,2001,,WI,51.4,55,65,70,70,-40,40,-47.5,40,95,105,112.5,112.5,222.5
1,F,Kaylie Ball,SBD,FR-HS,56,Raw,2001,,AK,56,80,87.5,92.5,92.5,42.5,47.5,-50,47.5,95,102.5,107.5,107.5,247.5
1,F,Naomi Kutin,SBD,FR-HS,60,Raw,2001,,NJ,59.8,125,-135,135,135,52.5,55,-60,55,137.5,145,157.5,157.5,347.5
2,F,Elly Bjork,SBD,FR-HS,60,Raw,2001,,WI,59.6,62.5,67.5,72.5,72.5,40,42.5,45,45,105,117.5,-125,117.5,235
4,F,Olivia Fratianni,SBD,FR-HS,75,Raw,2000,Kasson-Mantorville High School,MN,69,87.5,-100,-102.5,87.5,37.5,42.5,-47.5,42.5,90,105,112.5,112.5,242.5
1,F,Jenna Hayre,SBD,FR-HS,90+,Raw,2001,Croswell-Lexington High School,MI,96.1,132.5,-145,145,145,57.5,62.5,65,65,132.5,145,-152.5,145,355
2,F,Hailee Markey,SBD,FR-HS,90+,Raw,2000,,WI,105.2,-117.5,117.5,-147.5,117.5,60,-65,67.5,67.5,145,165,-180,165,350
1,F,Kassidy Snell,SBD,FR-HS,67.5,Raw,2001,,WI,65.9,100,107.5,-112.5,107.5,52.5,57.5,-60,57.5,97.5,105,-107.5,105,270
2,F,Alana Feser,SBD,FR-HS,67.5,Raw,2001,,WI,66.5,-82.5,-82.5,82.5,82.5,42.5,47.5,-50,47.5,102.5,117.5,125,125,255
3,F,Arla Davis,SBD,FR-HS,67.5,Raw,2001,Abington Heights High School,PA,65.9,67.5,72.5,80,80,42.5,45,47.5,47.5,102.5,110,115,115,242.5
5,F,Tabatha Bartlett,SBD,FR-HS,67.5,Raw,2002,,WI,64.3,-65,65,-70,65,37.5,47.5,-50,47.5,67.5,75,-90,75,187.5
1,F,Mackenzie Edgar,SBD,FR-HS,82.5,Raw,2001,Kasson-Mantorville High School,MN,75.5,85,-97.5,97.5,97.5,35,40,-45,40,87.5,102.5,117.5,117.5,255
5,F,Delaney Ortiz,SBD,F-TJ,48,Single-ply,2000,Neenah High School,WI,46.9,102.5,110,112.5,112.5,45,50,-55,50,105,112.5,-122.5,112.5,275
8,F,Alannah Daniels,SBD,F-TJ,48,Single-ply,1999,Necedah High School,WI,47.9,105,110,115,115,52.5,57.5,-62.5,57.5,97.5,102.5,-112.5,102.5,275
10,F,Emily Salm,SBD,F-TJ,48,Single-ply,1999,Neenah High School,WI,47.1,92.5,100,-105,100,45,52.5,-55,52.5,97.5,100,112.5,112.5,265
11,F,Noelle Ladwig,SBD,F-TJ,48,Single-ply,2000,Necedah High School,WI,47.4,95,100,-105,100,40,42.5,45,45,97.5,105,-112.5,105,250
12,F,Breanna Tullos,SBD,F-TJ,48,Single-ply,1999,Covington High school,LA,48,85,-92.5,92.5,92.5,47.5,55,-60,55,77.5,85,92.5,92.5,240
1,F,Stephanie Lavoy,SBD,F-TJ,52,Single-ply,1999,Necedah High School,WI,52,145,150,155,155,65,70,72.5,72.5,152.5,160,165,165,392.5
2,F,Mikaela Leibfried,SBD,F-TJ,52,Single-ply,1999,,WI,51.8,142.5,-155,155,155,77.5,82.5,87.5,87.5,137.5,142.5,147.5,147.5,390
3,F,Annika Angelo,SBD,F-TJ,52,Single-ply,2000,,WI,51.4,130,137.5,-142.5,137.5,-85,-85,85,85,135,140,142.5,142.5,365
6,F,Mackenzie Nguyen,SBD,F-TJ,52,Single-ply,2000,Abbeville High School,LA,51.5,115,-125,-125,115,45,-50,-50,45,110,117.5,125,125,285
7,F,Cara Scott,SBD,F-TJ,52,Single-ply,2001,Covington High school,LA,50.3,97.5,107.5,117.5,117.5,40,47.5,-50,47.5,92.5,102.5,112.5,112.5,277.5
9,F,Makayla Jones,SBD,F-TJ,52,Single-ply,2001,Abbeville High School,LA,51.5,92.5,100,107.5,107.5,52.5,57.5,60,60,90,100,102.5,102.5,270
1,F,Taylor LaChapelle,SBD,F-TJ,56,Single-ply,1999,,WI,55.8,170,180,187.5,187.5,100,105,-112.5,105,165,172.5,-182.5,172.5,465
3,F,Kennedy Madison,SBD,F-TJ,56,Single-ply,2000,Alexandria Senior High School,LA,54.6,125,135,147.5,147.5,57.5,62.5,67.5,67.5,120,137.5,147.5,147.5,362.5
5,F,Kenzie Svoboda,SBD,F-TJ,56,Single-ply,2000,,WI,55.3,127.5,130,-140,130,-72.5,72.5,77.5,77.5,135,140,147.5,147.5,355
6,F,Gina Catalanotto,SBD,F-TJ,56,Single-ply,1998,Covington High school,LA,55.9,135,142.5,-150,142.5,77.5,-85,-85,77.5,120,130,-135,130,350
7,F,Chelsea Baudoin,SBD,F-TJ,56,Single-ply,1999,Abbeville High School,LA,54.5,120,130,-132.5,130,72.5,-80,-80,72.5,117.5,127.5,-137.5,127.5,330
8,F,Rhiannon Mach,SBD,F-TJ,56,Single-ply,1998,Necedah High School,WI,55.5,130,137.5,145,145,52.5,57.5,60,60,117.5,125,-137.5,125,330
9,F,Taylor Wyngaard,SBD,F-TJ,56,Single-ply,2001,Neenah High School,WI,54.4,125,130,-142.5,130,62.5,65,67.5,67.5,115,125,-127.5,125,322.5
10,F,Haley Chojnacki,SBD,F-TJ,56,Single-ply,1999,,WI,55.1,112.5,120,125,125,60,62.5,65,65,112.5,120,-127.5,120,310
11,F,Kendra Bartels,SBD,F-TJ,56,Single-ply,1999,Necedah High School,WI,55.7,115,120,122.5,122.5,47.5,50,55,55,115,120,-125,120,297.5
2,F,Jane Krueger,SBD,F-TJ,60,Single-ply,1999,,WI,56.8,147.5,157.5,-165,157.5,62.5,67.5,70,70,157.5,175,177.5,177.5,405
1,F,Kelsey Johnson,SBD,F-TJ,60,Single-ply,1999,,WI,59.2,147.5,155,-160,155,57.5,75,-82.5,75,147.5,157.5,-175,157.5,387.5
2,F,Allison Duhon,SBD,F-TJ,60,Single-ply,1999,,LA,59.7,-132.5,132.5,147.5,147.5,65,-72.5,72.5,72.5,140,152.5,157.5,157.5,377.5
3,F,Courtney Corrente,SBD,F-TJ,60,Single-ply,2000,Neenah High School,WI,57.8,130,140,150,150,55,-60,-60,55,152.5,160,-172.5,160,365
4,F,Gabrielle Slater,SBD,F-TJ,60,Single-ply,1998,,WI,58.8,135,142.5,150,150,65,70,-75,70,137.5,145,-152.5,145,365
4,F,Breasia Sylvain,SBD,F-TJ,60,Single-ply,2000,Alexandria Senior High School,LA,57,130,147.5,155,155,52.5,-60,60,60,125,145,-162.5,145,360
5,F,Jessica Larson,SBD,F-TJ,60,Single-ply,1998,,WI,59.8,132.5,140,-145,140,67.5,75,80,80,130,140,-147.5,140,360
6,F,Lauren Christy,SBD,F-TJ,60,Single-ply,1998,,SD,58,122.5,140,-145,140,-75,75,-80,75,122.5,130,-137.5,130,345
7,F,Grace Tollar,SBD,F-TJ,60,Single-ply,2000,Neenah High School,WI,58.1,115,-122.5,122.5,122.5,70,-75,75,75,135,145,-155,145,342.5
8,F,Kelly Huerta,SBD,F-TJ,60,Single-ply,1999,Carrizo Springs High School,TX,59.9,130,-142.5,-142.5,130,62.5,67.5,72.5,72.5,120,132.5,140,140,342.5
9,F,Katrina Dunbar,SBD,F-TJ,60,Single-ply,2000,,WI,59.4,122.5,127.5,-137.5,127.5,-67.5,67.5,-70,67.5,125,130,-140,130,325
10,F,Marina Behl,SBD,F-TJ,60,Single-ply,1999,,WI,59.5,115,125,-135,125,40,47.5,-55,47.5,125,137.5,142.5,142.5,315
DQ,F,Maddie Graham,SBD,F-TJ,60,Single-ply,1999,,TX,58.5,160,-175,-175,160,-100,-100,-105,,-152.5,,,,
4,F,Camryn Ochs,SBD,F-TJ,75,Single-ply,1999,,WI,73.3,157.5,167.5,-175,167.5,87.5,92.5,-95,92.5,137.5,150,157.5,157.5,417.5
4,F,Abigail Saunders,SBD,F-TJ,75,Single-ply,2000,Necedah High School,WI,69.1,160,-167.5,167.5,167.5,57.5,60,62.5,62.5,160,167.5,172.5,172.5,402.5
5,F,Caitlyn Whipple,SBD,F-TJ,75,Single-ply,2000,,WI,70.3,152.5,165,172.5,172.5,57.5,65,-70,65,150,165,-180,165,402.5
5,F,Dallas Cavegn,SBD,F-TJ,75,Single-ply,2000,Neenah High School,WI,72.1,145,155,165,165,85,90,97.5,97.5,130,140,-155,140,402.5
6,F,Rhonda Peronto,SBD,F-TJ,75,Single-ply,1999,Cudahy High School,WI,71.7,155,165,-172.5,165,70,72.5,75,75,137.5,145,-160,145,385
11,F,Edy Garza,SBD,F-TJ,75,Single-ply,1999,,TX,75,145,155,-167.5,155,-70,70,-75,70,145,-155,-162.5,145,370
8,F,Sophia Becerra,SBD,F-TJ,75,Single-ply,2000,Necedah High School,WI,69.1,127.5,140,150,150,60,-62.5,-62.5,60,125,132.5,137.5,137.5,347.5
DQ,F,Shelby Vacula,SBD,F-TJ,75,Single-ply,1999,,WI,73,-170,-170,-170,,-62.5,62.5,72.5,72.5,137.5,-147.5,147.5,147.5,
DQ,F,Nina Duffeck,SBD,F-TJ,75,Single-ply,1999,Neenah High School,WI,73.8,-157.5,-157.5,-165,,80,85,-90,85,155,170,-185,170,
5,F,Tessa Wertjes,SBD,F-TJ,90,Single-ply,1999,Necedah High School,WI,86.9,182.5,192.5,205,205,70,80,90,90,170,180,-185,180,475
6,F,Hunter Gibson,SBD,F-TJ,90,Single-ply,1999,Alexandria Senior High School,LA,87.8,160,182.5,190,190,75,85,97.5,97.5,152.5,172.5,-190,172.5,460
8,F,Taylor Holliday,SBD,F-TJ,90,Single-ply,1998,,LA,87.3,185,-195,-195,185,70,77.5,85,85,127.5,140,147.5,147.5,417.5
11,F,Danielle Eaglin,SBD,F-TJ,90,Single-ply,2001,Neenah High School,WI,85.3,-137.5,-145,147.5,147.5,60,67.5,77.5,77.5,127.5,137.5,-142.5,137.5,362.5
12,F,Mary Grace Heying,SBD,F-TJ,90,Single-ply,1999,Abbeville High School,LA,88.6,115,122.5,-127.5,122.5,75,82.5,87.5,87.5,115,130,135,135,345
13,F,Allison Smith,SBD,F-TJ,90,Single-ply,1999,,LA,89.3,122.5,132.5,-142.5,132.5,62.5,67.5,72.5,72.5,125,-132.5,135,135,340
14,F,Carolyn Luquette,SBD,F-TJ,90,Single-ply,1998,Abbeville High School,LA,85.6,107.5,120,-125,120,72.5,77.5,-80,77.5,115,127.5,-132.5,127.5,325
1,F,Lilliana Poisso,SBD,F-TJ,90+,Single-ply,1998,Alexandria Senior High School,LA,136.9,237.5,265,290,290,110,130,-137.5,130,-200,205,-215,205,625
2,F,Carlie Walker,SBD,F-TJ,90+,Single-ply,1999,,WI,144.6,197.5,205,-210,205,142.5,152.5,160,160,177.5,187.5,-195,187.5,552.5
3,F,Kristen Opiela,SBD,F-TJ,90+,Single-ply,2000,Neenah High School,WI,103.9,-210,217.5,227.5,227.5,87.5,95,-105,95,195,207.5,-230,207.5,530
4,F,Destiny Brownfield,SBD,F-TJ,90+,Single-ply,1998,Alexandria Senior High School,LA,128.6,160,185,210,210,75,80,85,85,172.5,182.5,215,215,510
7,F,Miranda Adams,SBD,F-TJ,90+,Single-ply,1999,,WI,121.1,-187.5,190,-205,190,72.5,80,90,90,130,140,147.5,147.5,427.5
9,F,Caitlyn Wilson,SBD,F-TJ,90+,Single-ply,1999,Ionia High School,MI,106.1,142.5,152.5,160,160,80,85,92.5,92.5,137.5,150,-175,150,402.5
10,F,Lainey Trahan,SBD,F-TJ,90+,Single-ply,2001,Abbeville High School,LA,108.8,132.5,-147.5,147.5,147.5,85,90,95,95,120,142.5,152.5,152.5,395
1,F,Jordanne Panton,SBD,F-TJ,67.5,Single-ply,1999,,WI,63.4,177.5,187.5,-197.5,187.5,85,92.5,-97.5,92.5,200,215,220,220,500
2,F,Alexandra Chavez,SBD,F-TJ,67.5,Single-ply,1999,,TX,66.7,192.5,-210,-210,192.5,-87.5,-87.5,87.5,87.5,142.5,155,170,170,450
3,F,Emma Ramsey,SBD,F-TJ,67.5,Single-ply,1998,,WI,66.1,145,155,-162.5,155,82.5,87.5,92.5,92.5,155,162.5,170,170,417.5
7,F,Asia McGee,SBD,F-TJ,67.5,Single-ply,1999,Alexandria Senior High School,LA,64.8,142.5,-157.5,157.5,157.5,-60,65,80,80,122.5,125,-160,125,362.5
9,F,Melanie Hess,SBD,F-TJ,67.5,Single-ply,1999,Necedah High School,WI,63.1,137.5,145,147.5,147.5,57.5,62.5,-67.5,62.5,122.5,130,135,135,345
10,F,Lauren Hodal,SBD,F-TJ,67.5,Single-ply,1999,Necedah High School,WI,66.7,135,-140,140,140,57.5,60,62.5,62.5,122.5,130,-145,130,332.5
1,F,Brittany Williams,SBD,F-TJ,82.5,Single-ply,1999,Alexandria Senior High School,LA,80.5,165,182.5,200,200,82.5,95,-100,95,150,172.5,185,185,480
2,F,Sophia Dionne,SBD,F-TJ,82.5,Single-ply,1998,,WI,78.1,177.5,-185,-192.5,177.5,87.5,97.5,-102.5,97.5,152.5,165,-172.5,165,440
3,F,Ashley Ristic,SBD,F-TJ,82.5,Single-ply,2000,,WI,77.2,-162.5,167.5,175,175,-92.5,92.5,-95,92.5,152.5,162.5,-172.5,162.5,430
6,F,Alexis Estringel,SBD,F-TJ,82.5,Single-ply,2000,,TX,82.2,-150,152.5,160,160,-82.5,82.5,85,85,142.5,147.5,-152.5,147.5,392.5
7,F,Heidi Colvin,SBD,F-TJ,82.5,Single-ply,1999,Germantown High school,WI,80.3,155,160,167.5,167.5,62.5,70,-75,70,142.5,152.5,-157.5,152.5,390
8,F,Miah Nielsen,SBD,F-TJ,82.5,Single-ply,1999,,WI,80.9,137.5,147.5,-157.5,147.5,65,67.5,70,70,142.5,152.5,165,165,382.5
9,F,Madelyn Woychik,SBD,F-TJ,82.5,Single-ply,2000,,WI,79.6,127.5,-135,135,135,80,85,90,90,145,155,-165,155,380
10,F,Alexea Engel,SBD,F-TJ,82.5,Single-ply,1999,,WI,82.5,135,147.5,160,160,47.5,65,72.5,72.5,127.5,142.5,-162.5,142.5,375
12,F,Samantha Kristian,SBD,F-TJ,82.5,Single-ply,2000,Necedah High School,WI,75.4,135,142.5,150,150,55,60,65,65,127.5,137.5,-145,137.5,352.5
13,F,Suzy Luthi,SBD,F-TJ,82.5,Single-ply,1999,,WI,80.1,122.5,132.5,142.5,142.5,72.5,77.5,82.5,82.5,117.5,127.5,-137.5,127.5,352.5
14,F,Emily Nickolai,SBD,F-TJ,82.5,Single-ply,1999,Neenah High School,WI,77.7,-127.5,127.5,137.5,137.5,60,65,70,70,127.5,137.5,-152.5,137.5,345
G,M,Felix Tyler,SBD,M-G,60,Single-ply,1999,Lake Cormorant High School,MS,58.25,155,-177.5,177.5,177.5,90,-100,-100,90,155,-172.5,-172.5,155,422.5
4,M,Devon Davis,SBD,M-JV,52,Single-ply,2001,,PA,51.4,-100,105,-117.5,105,-72.5,72.5,77.5,77.5,140,-152.5,152.5,152.5,335
5,M,Brayden Londerville,SBD,M-JV,52,Single-ply,2002,Neenah High School,WI,50.6,-120,130,-135,130,55,60,-65,60,132.5,142.5,-152.5,142.5,332.5
6,M,Victor Abarca,SBD,M-JV,52,Single-ply,2001,,IA,50.75,-110,-110,110,110,55,62.5,67.5,67.5,115,125,132.5,132.5,310
7,M,Devan Ghai,SBD,M-JV,52,Single-ply,2001,,PA,50.7,102.5,110,117.5,117.5,57.5,65,67.5,67.5,105,115,122.5,122.5,307.5
8,M,Bobby Requena,SBD,M-JV,52,Single-ply,2001,,IL,51.65,92.5,102.5,107.5,107.5,50,60,62.5,62.5,115,125,127.5,127.5,297.5
9,M,Pyrria Sangster,SBD,M-JV,52,Single-ply,2001,,IA,51.15,95,105,-115,105,50,55,60,60,105,117.5,-132.5,117.5,282.5
2,M,Kolby Pierce,SBD,M-JV,56,Single-ply,2001,Ionia High School,MI,52.25,120,127.5,135,135,77.5,85,90,90,122.5,130,142.5,142.5,367.5
3,M,Jonathan Vidrine,SBD,M-JV,56,Single-ply,2001,Covington High school,LA,54.65,112.5,125,135,135,75,82.5,90,90,107.5,115,-132.5,115,340
DQ,M,Thomas Schell,SBD,M-JV,56,Single-ply,2001,,WI,55.1,142.5,145,-147.5,145,-70,72.5,77.5,77.5,-142.5,-142.5,-142.5,,
1,M,Trevor Johns,SBD,M-JV,60,Single-ply,2000,,MI,59.15,147.5,160,167.5,167.5,97.5,105,107.5,107.5,162.5,175,182.5,182.5,457.5
3,M,Michael Nichols,SBD,M-JV,60,Single-ply,2000,,IA,59.15,150,-170,-170,150,105,-115,-115,105,160,-172.5,177.5,177.5,432.5
1,M,Dylan Hill,SBD,M-JV,60,Single-ply,2000,Ionia High School,MI,58,150,155,160,160,80,85,-87.5,85,170,177.5,-187.5,177.5,422.5
1,M,Case Riehl,SBD,M-JV,75,Single-ply,2000,,WI,74,-182.5,192.5,200,200,102.5,107.5,-115,107.5,177.5,187.5,-200,187.5,495
4,M,Keyon Roby,SBD,M-JV,75,Single-ply,2001,,IA,74.25,150,170,180,180,100,110,120,120,165,-182.5,182.5,182.5,482.5
1,M,Shane Kierstyn,SBD,M-JV,90,Single-ply,2001,,WI,83.55,-215,215,-227.5,215,132.5,142.5,147.5,147.5,237.5,250,257.5,257.5,620
2,M,Devani Albritton,SBD,M-JV,90,Single-ply,2001,,WI,86.4,182.5,190,197.5,197.5,102.5,107.5,112.5,112.5,200,212.5,222.5,222.5,532.5
3,M,Grady Gulbrandson,SBD,M-JV,90,Single-ply,2000,,SD,88.95,-160,170,-177.5,170,-110,115,120,120,220,232.5,-245,232.5,522.5
4,M,Dustin Pierson,SBD,M-JV,90,Single-ply,2000,,IA,88.75,160,175,187.5,187.5,115,127.5,-137.5,127.5,180,197.5,202.5,202.5,517.5
5,M,Sean Lemkuil,SBD,M-JV,90,Single-ply,2000,,WI,84.75,175,182.5,190,190,102.5,105,110,110,200,207.5,-217.5,207.5,507.5
6,M,Benjamin Zahn,SBD,M-JV,90,Single-ply,2000,,WI,88.7,182.5,190,197.5,197.5,97.5,102.5,-105,102.5,205,-215,-217.5,205,505
7,M,David Castro,SBD,M-JV,90,Single-ply,2001,Carrizo Springs High School,TX,88.75,152.5,182.5,192.5,192.5,110,127.5,135,135,155,172.5,-180,172.5,500
1,M,Jordan Stokes,SBD,M-JV,100,Single-ply,2001,,WI,99.8,257.5,265,275,275,130,137.5,-140,137.5,245,257.5,-265,257.5,670
2,M,Brandon Thurlby,SBD,M-JV,100,Single-ply,2000,Ionia High School,MI,97.85,182.5,195,-220,195,-122.5,122.5,130,130,185,195,200,200,525
3,M,John Locks IV,SBD,M-JV,100,Single-ply,2001,,IA,95.8,150,170,185,185,100,110,-120,110,-185,185,-230,185,480
4,M,Brady Bakken,SBD,M-JV,100,Single-ply,2000,,IA,97.45,145,160,-175,160,115,125,-145,125,-160,175,185,185,470
1,M,Alex Ochs,SBD,M-JV,110,Single-ply,2001,,WI,109.4,210,220,230,230,147.5,157.5,162.5,162.5,195,207.5,220,220,612.5
1,M,Randy McDonald Jr,SBD,M-JV,125,Single-ply,2001,Lake Cormorant High School,LA,123.5,-200,205,227.5,227.5,125,127.5,-135,127.5,205,225,227.5,227.5,582.5
4,M,Joshua Corbin-Nichols,SBD,M-JV,125,Single-ply,2000,,IA,122.3,165,182.5,-195,182.5,105,110,-120,110,170,190,-200,190,482.5
2,M,W. Munson,SBD,M-JV,125+,Single-ply,2000,,PA,128.35,182.5,195,210,210,115,130,-142.5,130,182.5,205,230,230,570
3,M,Michael Ballin-Skelton,SBD,M-JV,125+,Single-ply,2000,,IA,134.1,185,205,215,215,140,155,-165,155,180,195,200,200,570
2,M,Nathaniel Ramsey,SBD,M-JV,67.5,Single-ply,2000,,WI,66.45,170,180,187.5,187.5,82.5,87.5,90,90,175,185,195,195,472.5
3,M,Kyllian Harper,SBD,M-JV,67.5,Single-ply,2000,,PA,66.25,165,180,-190,180,90,97.5,102.5,102.5,162.5,177.5,187.5,187.5,470
2,M,Lenny Villalobos,SBD,M-JV,67.5,Single-ply,2000,,IA,65.8,135,150,157.5,157.5,95,105,115,115,160,172.5,180,180,452.5
4,M,Peter Piparo,SBD,M-JV,67.5,Single-ply,2000,Cudahy High School,WI,64.1,160,-170,175,175,70,75,-80,75,177.5,-187.5,-187.5,177.5,427.5
5,M,Dan Hyatt,SBD,M-JV,67.5,Single-ply,2001,,PA,65.9,-120,132.5,-145,132.5,82.5,92.5,100,100,157.5,172.5,-182.5,172.5,405
1,M,Austin Payne,SBD,M-JV,82.5,Single-ply,2000,,WI,82.15,-210,210,-220,210,102.5,110,-115,110,212.5,227.5,235,235,555
2,M,Dylan Wysocky,SBD,M-JV,82.5,Single-ply,2001,,WI,81.65,175,-192.5,192.5,192.5,92.5,-105,105,105,192.5,200,205,205,502.5
3,M,Nick Purcell,SBD,M-JV,82.5,Single-ply,2001,,WI,80.45,-180,185,-195,185,92.5,100,-107.5,100,190,202.5,-217.5,202.5,487.5
5,M,Brandon Patschke,SBD,M-JV,82.5,Single-ply,2000,Neenah High School,WI,78.9,-142.5,142.5,157.5,157.5,97.5,102.5,-105,102.5,170,182.5,192.5,192.5,452.5
9,M,Kentarius Simpson,SBD,MR-V,52,Raw,1999,Glen Mills Schools,PA,50.55,75,95,102.5,102.5,42.5,55,-60,55,100,115,125,125,282.5
3,M,Matthew Devine,SBD,MR-V,56,Raw,1997,Abington Heights High School,PA,54.4,110,120,125,125,85,92.5,95,95,157.5,162.5,167.5,167.5,387.5
8,M,Aidan Miers,SBD,MR-V,56,Raw,2000,,WI,55.55,90,102.5,107.5,107.5,50,52.5,-55,52.5,142.5,-152.5,152.5,152.5,312.5
10,M,Ben Knox,SBD,MR-V,56,Raw,1998,Abington Heights High School,PA,55,80,85,92.5,92.5,40,47.5,52.5,52.5,85,92.5,102.5,102.5,247.5
1,M,Matthew Nguyen,SBD,MR-V,60,Raw,1999,,TX,58.4,147.5,150,-152.5,150,90,-92.5,92.5,92.5,182.5,187.5,190,190,432.5
2,M,Gabe Glennon,SBD,MR-V,60,Raw,1999,,WI,58.85,165,175,-177.5,175,75,82.5,85,85,160,-167.5,-167.5,160,420
4,M,Graham Payne-Reichert,SBD,MR-V,60,Raw,2000,,PA,59.5,160,170,-172.5,170,70,-72.5,-72.5,70,160,-177.5,-177.5,160,400
6,M,Jihad Jordan,SBD,MR-V,60,Raw,2001,Glen Mills Schools,PA,59.4,117.5,140,-142.5,140,70,-80,-80,70,137.5,155,-160,155,365
7,M,Jonas Kasten,SBD,MR-V,60,Raw,2000,Neenah High School,WI,59.25,95,102.5,107.5,107.5,80,85,-87.5,85,145,155,167.5,167.5,360
4,M,Alexander McElmury,SBD,MR-V,60,Raw,1999,Kasson-Mantorville High School,MN,58.75,112.5,125,-137.5,125,60,65,67.5,67.5,137.5,150,165,165,357.5
5,M,Kolton Fiedler,SBD,MR-V,60,Raw,1999,,WI,58.55,102.5,107.5,112.5,112.5,72.5,75,77.5,77.5,135,142.5,160,160,350
6,M,Gino Serra,SBD,MR-V,60,Raw,2000,St. John's High School,MA,58.3,90,100,105,105,70,77.5,-82.5,77.5,137.5,145,150,150,332.5
8,M,Terry Oveal,SBD,MR-V,60,Raw,2000,Glen Mills Schools,PA,59.2,-120,120,-147.5,120,62.5,-72.5,-72.5,62.5,130,150,-165,150,332.5
9,M,Jacob Bloede,SBD,MR-V,60,Raw,1998,,WI,59.45,105,-110,112.5,112.5,70,-75,-75,70,140,-145,145,145,327.5
7,M,Anthony Hirst,SBD,MR-V,60,Raw,2001,St. John's High School,MA,58.45,117.5,125,130,130,60,67.5,-70,67.5,110,122.5,125,125,322.5
2,M,Antonino Fazio,SBD,MR-V,75,Raw,1999,,NY,74.1,170,182.5,190,190,130,140,150,150,205,220,-230,220,560
1,M,Eddie Frazier,SBD,MR-V,75,Raw,2000,Glen Mills Schools,PA,73.7,167.5,182.5,192.5,192.5,102.5,115,-120,115,227.5,-245,-252.5,227.5,535
2,M,Jasiah Scott,SBD,MR-V,75,Raw,1999,,WI,70.5,182.5,190,197.5,197.5,102.5,107.5,110,110,192.5,200,-205,200,507.5
9,M,Bruce Asbury,SBD,MR-V,75,Raw,1999,Glen Mills Schools,PA,74.2,165,-182.5,-182.5,165,92.5,102.5,112.5,112.5,202.5,215,227.5,227.5,505
11,M,Hunter Gagner,SBD,MR-V,75,Raw,1999,,WI,74.95,167.5,180,-185,180,110,115,-120,115,190,197.5,205,205,500
13,M,Karter Brachear,SBD,MR-V,75,Raw,1999,,IL,74.55,140,160,-180,160,95,110,115,115,200,220,-225,220,495
5,M,Danny Byers,SBD,MR-V,75,Raw,2000,St. John's High School,MA,73.2,160,167.5,172.5,172.5,117.5,122.5,-125,122.5,170,182.5,-202.5,182.5,477.5
17,M,Dalton Stike,SBD,MR-V,75,Raw,2000,,PA,74.45,147.5,162.5,165,165,90,100,105,105,165,175,185,185,455
6,M,Anthony Melby,SBD,MR-V,75,Raw,1998,,WI,73.45,135,145,152.5,152.5,90,97.5,100,100,177.5,187.5,195,195,447.5
8,M,Benjamin Carr,SBD,MR-V,75,Raw,1999,St. John's High School,MA,73.6,130,140,-145,140,87.5,95,-100,95,165,182.5,192.5,192.5,427.5
2,M,Christopher Thomas,SBD,MR-V,90,Raw,1998,,WI,89.1,182.5,197.5,205,205,125,132.5,-142.5,132.5,250,-265,-272.5,250,587.5
3,M,Brandon Haag,SBD,MR-V,90,Raw,1999,,WI,84.95,165,177.5,185,185,97.5,102.5,107.5,107.5,242.5,255,262.5,262.5,555
4,M,Tarion Carlton,SBD,MR-V,90,Raw,1999,Glen Mills Schools,PA,89.55,180,192.5,200,200,100,-112.5,112.5,112.5,225,242.5,-257.5,242.5,555
5,M,Ryan Kelly,SBD,MR-V,90,Raw,2000,St. John's High School,MA,87.65,192.5,202.5,210,210,110,120,127.5,127.5,195,-212.5,-212.5,195,532.5
6,M,Daniel Buyeske,SBD,MR-V,90,Raw,1999,,WI,86.4,142.5,150,165,165,102.5,107.5,110,110,175,185,195,195,470
7,M,Travis Messer,SBD,MR-V,90,Raw,2000,,WI,88.5,125,135,150,150,105,112.5,115,115,185,-197.5,197.5,197.5,462.5
8,M,Dustin Knopps,SBD,MR-V,90,Raw,2000,,WI,88.2,145,157.5,-165,157.5,87.5,90,92.5,92.5,162.5,175,-212.5,175,425
DQ,M,Charlie Hechter,SBD,MR-V,90,Raw,1999,,MD,88.95,-195,-195,195,195,-100,-107.5,-107.5,,195,210,225,225,
1,M,Gabriel Overton,SBD,MR-V,100,Raw,1999,,OH,98.1,247.5,-265,-265,247.5,162.5,170,-177.5,170,247.5,-260,-260,247.5,665
1,M,Ryan McNutt,SBD,MR-V,100,Raw,1998,,PA,92.5,182.5,192.5,197.5,197.5,140,147.5,157.5,157.5,227.5,237.5,240,240,595
2,M,Andre Colen,SBD,MR-V,100,Raw,2000,Glen Mills Schools,PA,98.4,165,-192.5,192.5,192.5,107.5,120,127.5,127.5,207.5,235,252.5,252.5,572.5
3,M,Joseph Chau,SBD,MR-V,100,Raw,1999,,MA,97.2,195,207.5,-217.5,207.5,102.5,-107.5,107.5,107.5,185,200,210,210,525
4,M,Johnathan Little,SBD,MR-V,100,Raw,1998,,WI,97.7,170,182.5,-202.5,182.5,120,127.5,-130,127.5,180,195,205,205,515
5,M,Caleb Cihlar,SBD,MR-V,100,Raw,2000,,WI,95.9,185,192.5,-197.5,192.5,-102.5,102.5,107.5,107.5,185,195,205,205,505
7,M,Joshua Malofsky,SBD,MR-V,100,Raw,2001,St. John's High School,MA,96,152.5,162.5,-170,162.5,107.5,112.5,117.5,117.5,205,217.5,-227.5,217.5,497.5
8,M,Ben Burton,SBD,MR-V,100,Raw,1999,St. John's High School,MA,96.8,155,162.5,-172.5,162.5,100,-105,-105,100,147.5,155,162.5,162.5,425
9,M,Collin Johnson,SBD,MR-V,100,Raw,1999,Kasson-Mantorville High School,MN,95.4,127.5,137.5,142.5,142.5,82.5,92.5,95,95,172.5,185,-192.5,185,422.5
3,M,Quadir Gibson,SBD,MR-V,110,Raw,1999,Glen Mills Schools,PA,109.45,175,192.5,-215,192.5,107.5,117.5,122.5,122.5,227.5,247.5,262.5,262.5,577.5
5,M,Noah Iverson,SBD,MR-V,110,Raw,1998,Kasson-Mantorville High School,MN,106.3,167.5,-177.5,180,180,100,107.5,110,110,210,225,237.5,237.5,527.5
6,M,Matt Taylor,SBD,MR-V,110,Raw,1999,Ionia High School,MI,109.3,165,175,-187.5,175,120,127.5,132.5,132.5,215,-227.5,-227.5,215,522.5
6,M,Jeffrey De Leon,SBD,MR-V,110,Raw,2000,Carrizo Springs High School,TX,103.95,162.5,185,-192.5,185,92.5,100,-105,100,182.5,205,220,220,505
10,M,Aaron Coleman,SBD,MR-V,110,Raw,1998,Glen Mills Schools,PA,108.4,-175,175,197.5,197.5,102.5,110,117.5,117.5,102.5,182.5,-200,182.5,497.5
11,M,Jon Sena,SBD,MR-V,110,Raw,1999,Ionia High School,MI,108.05,170,180,187.5,187.5,80,85,-90,85,-200,-200,200,200,472.5
1,M,D'Amonte Bell,SBD,MR-V,125,Raw,1999,Glen Mills Schools,PA,114.15,210,220,-225,220,125,137.5,-142.5,137.5,-242.5,242.5,252.5,252.5,610
2,M,Jordon Prondzinski,SBD,MR-V,125,Raw,2000,,WI,116.55,220,227.5,235,235,112.5,122.5,-127.5,122.5,227.5,237.5,-252.5,237.5,595
2,M,Alex Boehlen,SBD,MR-V,125,Raw,2001,Neenah High School,WI,121.7,200,212.5,-217.5,212.5,-142.5,152.5,-160,152.5,220,-235,-240,220,585
4,M,Benjamin Howard,SBD,MR-V,125,Raw,1999,,WA,114.7,182.5,197.5,-205,197.5,110,117.5,125,125,190,202.5,212.5,212.5,535
6,M,Tyler David,SBD,MR-V,125,Raw,1999,Necedah High School,WI,124.75,190,195,-197.5,195,115,120,125,125,185,195,200,200,520
7,M,Aaron Carpenter,SBD,MR-V,125,Raw,1999,,WI,116.95,187.5,-207.5,-207.5,187.5,125,132.5,-140,132.5,197.5,-207.5,-207.5,197.5,517.5
8,M,Noah Mann,SBD,MR-V,125,Raw,1998,,WI,115.9,155,165,175,175,102.5,107.5,110,110,210,222.5,-235,222.5,507.5
9,M,Alberto Torres,SBD,MR-V,125,Raw,1999,Glen Mills Schools,PA,113.8,167.5,182.5,-197.5,182.5,100,105,112.5,112.5,172.5,182.5,205,205,500
1,M,Michael Singer,SBD,MR-V,125+,Raw,1999,,WI,140.3,182.5,200,227.5,227.5,122.5,137.5,-152.5,137.5,-265,270,-290,270,635
3,M,Federico Ernst,SBD,MR-V,125+,Raw,1999,St. John's High School,MA,144.15,210,220,-227.5,220,117.5,127.5,-132.5,127.5,212.5,227.5,230,230,577.5
4,M,Trevor Marquardt,SBD,MR-V,125+,Raw,2000,Neenah High School,WI,154.35,215,227.5,240,240,105,115,122.5,122.5,190,205,212.5,212.5,575
5,M,Rylan Maves,SBD,MR-V,125+,Raw,1999,,WI,140.75,210,220,-225,220,100,-105,105,105,225,232.5,-250,232.5,557.5
3,M,Kerry Cottrell,SBD,MR-V,67.5,Raw,2000,Glen Mills Schools,PA,66.45,-162.5,162.5,185,185,92.5,100,105,105,182.5,192.5,202.5,202.5,492.5
4,M,Brian Miller,SBD,MR-V,67.5,Raw,1998,,WI,66.9,-157.5,165,-172.5,165,92.5,97.5,100,100,205,220,-230,220,485
1,M,Jonathan Lee,SBD,MR-V,67.5,Raw,1999,St. John's High School,MA,65.6,155,167.5,175,175,87.5,92.5,-95,92.5,170,182.5,190,190,457.5
7,M,Samir Hawkins,SBD,MR-V,67.5,Raw,1999,Glen Mills Schools,PA,66.1,125,145,152.5,152.5,60,70,-75,70,182.5,200,215,215,437.5
2,M,Luke Thomas,SBD,MR-V,67.5,Raw,1999,Glen Mills Schools,PA,65.3,110,135,-162.5,135,82.5,97.5,105,105,165,180,190,190,430
3,M,Jacob Fossler,SBD,MR-V,67.5,Raw,2000,Ionia High School,MI,65.9,140,150,155,155,82.5,90,95,95,162.5,170,-180,170,420
5,M,John-Henry Hendley,SBD,MR-V,67.5,Raw,1999,St. John's High School,MA,64.6,127.5,135,137.5,137.5,87.5,92.5,95,95,147.5,157.5,162.5,162.5,395
1,M,Shawn Ellis,SBD,MR-V,82.5,Raw,1999,,PA,78.9,-162.5,172.5,185,185,-110,120,127.5,127.5,215,237.5,250,250,562.5
3,M,Cameron Severin,SBD,MR-V,82.5,Raw,1999,,WI,81.5,167.5,177.5,185,185,110,115,117.5,117.5,230,240,247.5,247.5,550
4,M,Darren Svihovec,SBD,MR-V,82.5,Raw,1998,,WI,80.05,195,207.5,212.5,212.5,120,127.5,-130,127.5,195,207.5,-212.5,207.5,547.5
5,M,Tyler Sahm,SBD,MR-V,82.5,Raw,1999,,WI,81.3,195,-205,207.5,207.5,105,110,-112.5,110,215,-225,-235,215,532.5
6,M,James Paulin,SBD,MR-V,82.5,Raw,2000,Ionia High School,MI,80.9,175,185,192.5,192.5,100,105,107.5,107.5,212.5,222.5,230,230,530
7,M,Carter Schlee,SBD,MR-V,82.5,Raw,1998,,WI,81,157.5,167.5,172.5,172.5,125,130,135,135,200,215,222.5,222.5,530
8,M,John Aube,SBD,MR-V,82.5,Raw,1999,St. John's High School,MA,80.1,180,187.5,-192.5,187.5,97.5,105,-107.5,105,205,-215,220,220,512.5
10,M,Ross Kolodzik,SBD,MR-V,82.5,Raw,1998,,WI,82,170,177.5,-185,177.5,92.5,95,-97.5,95,215,227.5,232.5,232.5,505
12,M,Ben Carey,SBD,MR-V,82.5,Raw,1999,,WA,81.2,145,152.5,165,165,115,127.5,-132.5,127.5,192.5,200,207.5,207.5,500
14,M,Nicholas Grewe,SBD,MR-V,82.5,Raw,2000,,WI,80.55,165,175,185,185,102.5,120,-125,120,180,187.5,-205,187.5,492.5
15,M,Ryan Tautges,SBD,MR-V,82.5,Raw,1999,,WI,80.2,182.5,190,-200,190,102.5,-107.5,-107.5,102.5,185,195,-200,195,487.5
16,M,Jack Faulkner,SBD,MR-V,82.5,Raw,2000,Ionia High School,MI,79.1,150,155,160,160,77.5,85,90,90,210,217.5,227.5,227.5,477.5
18,M,Tyler Alston,SBD,MR-V,82.5,Raw,2001,Glen Mills Schools,PA,81.6,-140,-140,140,140,92.5,105,-115,105,-202.5,202.5,-215,202.5,447.5
19,M,Rick Wilson,SBD,MR-V,82.5,Raw,2000,Ionia High School,MI,78.7,137.5,147.5,155,155,77.5,85,-90,85,167.5,180,-187.5,180,420
2,M,Bodie LaCoe,SBD,MR-HS,52,Raw,2003,Abington Heights High School,PA,48.35,102.5,115,-120,115,57.5,70,-72.5,70,125,145,157.5,157.5,342.5
4,M,Kolby Pierce,SBD,MR-HS,56,Raw,2001,Ionia High School,MI,52.7,112.5,-120,120,120,67.5,-72.5,72.5,72.5,117.5,125,127.5,127.5,320
5,M,Justin Rife,SBD,MR-HS,56,Raw,2000,,WI,55.6,97.5,102.5,-107.5,102.5,55,60,-62.5,60,112.5,122.5,137.5,137.5,300
1,M,Dylan Hill,SBD,MR-HS,60,Raw,2000,Ionia High School,MI,58.8,125,-132.5,-132.5,125,67.5,75,-77.5,75,157.5,165,167.5,167.5,367.5
3,M,Sergio Jimenez,SBD,MR-HS,60,Raw,2001,,WI,58.65,120,-132.5,-140,120,70,-77.5,-77.5,70,117.5,130,137.5,137.5,327.5
3,M,Moy Medina,SBD,MR-HS,60,Raw,2002,,WI,59.95,-100,100,102.5,102.5,75,80,-82.5,80,125,140,142.5,142.5,325
4,M,James Devereux,SBD,MR-HS,60,Raw,2001,,PA,59.7,102.5,110,115,115,55,60,-65,60,120,132.5,145,145,320
1,M,Quinn Parker,SBD,MR-HS,75,Raw,2002,Neenah High School,WI,73.9,-132.5,137.5,142.5,142.5,75,82.5,85,85,165,175,187.5,187.5,415
2,M,Noah Hulslander,SBD,MR-HS,75,Raw,2001,,PA,75,125,140,150,150,72.5,77.5,82.5,82.5,150,165,182.5,182.5,415
3,M,Brandon Easaterly,SBD,MR-HS,75,Raw,2001,,WI,74.95,112.5,120,127.5,127.5,62.5,70,72.5,72.5,142.5,150,155,155,355
1,M,Kayleb Bastien,SBD,MR-HS,90,Raw,2002,Ionia High School,MI,86.65,187.5,-195,-195,187.5,97.5,105,110,110,210,220,-230,220,517.5
2,M,Tanner Carver,SBD,MR-HS,90,Raw,2000,,WI,83.6,152.5,160,165,165,92.5,95,-97.5,95,210,220,227.5,227.5,487.5
3,M,Trenton Kruger,SBD,MR-HS,90,Raw,2000,Kasson-Mantorville High School,MN,88.9,170,185,-192.5,185,72.5,80,-85,80,185,205,-217.5,205,470
4,M,Chase Cooper,SBD,MR-HS,100,Raw,2000,,WI,92.05,125,-142.5,-142.5,125,82.5,87.5,-92.5,87.5,137.5,-150,-150,137.5,350
1,M,Reece Heyerdahl,SBD,MR-HS,110,Raw,2001,Neenah High School,WI,102.45,197.5,207.5,217.5,217.5,-115,125,127.5,127.5,-205,230,260,260,605
1,M,Nathaniel Sepanak,SBD,MR-HS,125,Raw,2001,,MI,124.6,187.5,202.5,-220,202.5,125,-130,130,130,230,247.5,-260,247.5,580
1,M,Carter Welch,SBD,MR-HS,125,Raw,2000,,WI,114.8,190,197.5,-205,197.5,125,130,-135,130,222.5,230,-252.5,230,557.5
2,M,Luke Seljeseth,SBD,MR-HS,125+,Raw,2001,Kasson-Mantorville High School,MN,128.8,112.5,-152.5,-152.5,112.5,65,77.5,95,95,172.5,207.5,-217.5,207.5,415
3,M,Jordan Matchey,SBD,MR-HS,125+,Raw,2001,,WI,144.65,60,87.5,-110,87.5,72.5,80,85,85,115,132.5,152.5,152.5,325
1,M,Alex Harmston,SBD,MR-HS,67.5,Raw,2000,,WI,64.35,120,-132.5,135,135,85,-92.5,-92.5,85,155,167.5,175,175,395
2,M,Bailey Meyers,SBD,MR-HS,67.5,Raw,2000,Kasson-Mantorville High School,MN,62.3,102.5,120,-137.5,120,62.5,67.5,72.5,72.5,115,145,-160,145,337.5
5,M,Benjamin Roussopoulos,SBD,MR-HS,67.5,Raw,2002,,MN,65.55,-87.5,-92.5,92.5,92.5,62.5,65,-70,65,115,127.5,-142.5,127.5,285
6,M,Sean Kane,SBD,MR-HS,67.5,Raw,2002,Abington Heights High School,PA,65.1,-80,80,92.5,92.5,40,52.5,-57.5,52.5,100,115,120,120,265
7,M,Anton Vilensky,SBD,MR-HS,67.5,Raw,2001,,NY,60.4,67.5,70,77.5,77.5,47.5,52.5,-57.5,52.5,105,110,120,120,250
1,M,Stephen Lucas,SBD,MR-HS,82.5,Raw,2000,,PA,81.9,180,190,-195,190,95,100,-105,100,190,200,-210,200,490
1,M,Trai Chatman,SBD,M-TJ,52,Single-ply,1998,Covington High school,LA,51.95,180,192.5,197.5,197.5,135,-147.5,-147.5,135,175,-190,190,190,522.5
2,M,Charles Shuford,SBD,M-TJ,52,Single-ply,2002,Abbeville High School,LA,51.4,130,140,147.5,147.5,90,-95,-95,90,157.5,172.5,182.5,182.5,420
3,M,Robert Hebert,SBD,M-TJ,52,Single-ply,1998,Abbeville High School,LA,52,117.5,127.5,130,130,107.5,115,-120,115,140,155,-167.5,155,400
4,M,Freddie Price,SBD,M-TJ,52,Single-ply,2001,Alexandria Senior High School,LA,51.5,125,135,142.5,142.5,-82.5,90,-97.5,90,132.5,147.5,150,150,382.5
5,M,Martavious Strowder,SBD,M-TJ,52,Single-ply,2003,Lake Cormorant High School,MS,49.65,112.5,-125,127.5,127.5,60,67.5,70,70,115,125,132.5,132.5,330
2,M,Cordarius Harris,SBD,M-TJ,56,Single-ply,2000,Lake Cormorant High School,MS,53.75,-190,190,197.5,197.5,105,-115,-115,105,185,-200,-200,185,487.5
3,M,Logan Pennington,SBD,M-TJ,56,Single-ply,2000,Covington High school,LA,55.25,145,152.5,155,155,82.5,90,95,95,160,177.5,185,185,435
4,M,Timori Shipley,SBD,M-TJ,56,Single-ply,2000,Abbeville High School,LA,55.55,145,155,-162.5,155,85,92.5,-95,92.5,167.5,185,-190,185,432.5
5,M,Brent Miller,SBD,M-TJ,56,Single-ply,2001,Germantown High school,WI,54.4,145,157.5,165,165,85,90,-97.5,90,137.5,145,150,150,405
6,M,Bryce Londerville,SBD,M-TJ,56,Single-ply,1998,Neenah High School,WI,54.2,-135,135,-147.5,135,72.5,80,85,85,157.5,170,-180,170,390
7,M,Nicholas Cordeiro,SBD,M-TJ,56,Single-ply,2001,,MA,54.75,135,145,-150,145,77.5,-82.5,82.5,82.5,150,162.5,-177.5,162.5,390
8,M,Nicholas Johnson #1,SBD,M-TJ,56,Single-ply,2001,Neenah High School,WI,54.1,-132.5,-140,140,140,70,75,-77.5,75,150,160,-167.5,160,375
9,M,Dylan Palmer,SBD,M-TJ,56,Single-ply,2000,Alexandria Senior High School,LA,54.4,125,135,-142.5,135,65,70,-75,70,135,145,155,155,360
10,M,Caleb Lavalais,SBD,M-TJ,56,Single-ply,2001,Alexandria Senior High School,LA,54.25,-125,125,-135,125,60,65,72.5,72.5,132.5,142.5,150,150,347.5
12,M,Joseph Hyde,SBD,M-TJ,56,Single-ply,2000,,LA,55.95,107.5,115,-122.5,115,70,77.5,85,85,130,137.5,145,145,345
4,M,Zachary Landry,SBD,M-TJ,60,Single-ply,1999,Abbeville High School,LA,59.85,177.5,190,-195,190,107.5,117.5,122.5,122.5,177.5,197.5,207.5,207.5,520
5,M,Jamie Gunderson,SBD,M-TJ,60,Single-ply,1998,,WI,59.55,185,195,200,200,97.5,102.5,105,105,192.5,202.5,-205,202.5,507.5
1,M,Terrance Phillips III,SBD,M-TJ,60,Single-ply,1998,Alexandria Senior High School,LA,58.6,192.5,207.5,-220,207.5,85,90,-97.5,90,197.5,207.5,-220,207.5,505
6,M,Joseph Vidrine,SBD,M-TJ,60,Single-ply,1999,Covington High school,LA,59.75,165,-177.5,177.5,177.5,107.5,117.5,127.5,127.5,165,177.5,-205,177.5,482.5
7,M,Miles Priefer,SBD,M-TJ,60,Single-ply,1999,,WI,59.1,165,175,187.5,187.5,100,105,110,110,157.5,165,-175,165,462.5
8,M,Tanner Underberg,SBD,M-TJ,60,Single-ply,1999,,WI,59.95,150,-160,160,160,90,100,-102.5,100,180,190,-195,190,450
11,M,Jordan Anderson,SBD,M-TJ,60,Single-ply,1999,,SD,58.7,135,-152.5,-152.5,135,70,-75,-75,70,142.5,-152.5,-152.5,142.5,347.5
DQ,M,Michael Oswalt,SBD,M-TJ,60,Single-ply,1999,Lake Cormorant High School,MS,59.65,-160,-165,-167.5,,80,82.5,-87.5,82.5,160,170,-182.5,170,
DQ,M,Philip Nicaud,SBD,M-TJ,60,Single-ply,2000,St. Paul's School,LA,59.8,-160,-165,-165,,-102.5,-102.5,,,-162.5,,,,
1,M,Austin Perkins,SBD,M-TJ,75,Single-ply,1999,,MS,69.95,232.5,250,-262.5,250,120,-147.5,147.5,147.5,242.5,260,265,265,662.5
5,M,Aaron Berlin,SBD,M-TJ,75,Single-ply,1999,Alexandria Senior High School,LA,74.6,232.5,242.5,-247.5,242.5,117.5,135,-137.5,135,227.5,-247.5,262.5,262.5,640
2,M,Jose Pedroza,SBD,M-TJ,75,Single-ply,1998,Abbeville High School,LA,73.8,-247.5,247.5,-260,247.5,152.5,162.5,172.5,172.5,217.5,-235,-240,217.5,637.5
7,M,Shane Nutt,SBD,M-TJ,75,Single-ply,2000,Ionia High School,MI,74.55,237.5,-247.5,247.5,247.5,122.5,-132.5,-132.5,122.5,265,-277.5,-277.5,265,635
3,M,Dawson Stroik,SBD,M-TJ,75,Single-ply,2001,Germantown High school,WI,72.45,232.5,242.5,-247.5,242.5,130,-140,140,140,205,215,225,225,607.5
4,M,Sam Bassan,SBD,M-TJ,75,Single-ply,2001,,WI,73.5,242.5,-255,-255,242.5,112.5,-120,120,120,237.5,-245,-247.5,237.5,600
9,M,Jalen Jordan,SBD,M-TJ,75,Single-ply,2000,Lake Cormorant High School,MS,74.75,-195,215,230,230,105,115,-117.5,115,220,245,-260,245,590
6,M,Karter Brachear,SBD,M-TJ,75,Single-ply,1999,,IL,73.75,190,200,205,205,150,-162.5,-162.5,150,200,220,225,225,580
1,M,Seth Butler,SBD,M-TJ,75,Single-ply,1999,,WI,74.2,215,227.5,-235,227.5,105,112.5,115,115,220,227.5,235,235,577.5
7,M,Ethan Rudiger,SBD,M-TJ,75,Single-ply,1999,,LA,72.4,195,207.5,-212.5,207.5,130,135,-137.5,135,202.5,212.5,227.5,227.5,570
14,M,Ralph Crandle,SBD,M-TJ,75,Single-ply,1999,Covington High school,LA,74.15,200,217.5,-227.5,217.5,100,110,120,120,227.5,-242.5,-245,227.5,565
15,M,Dillon Gitz,SBD,M-TJ,75,Single-ply,1999,Covington High school,LA,74.3,-205,-205,205,205,105,112.5,117.5,117.5,227.5,-237.5,-237.5,227.5,550
9,M,Lachlan Schaaf,SBD,M-TJ,75,Single-ply,1999,,WI,73.2,185,197.5,202.5,202.5,-115,-115,120,120,-207.5,210,220,220,542.5
10,M,JP Parke,SBD,M-TJ,75,Single-ply,1998,,IL,73,-210,210,-227.5,210,97.5,102.5,-110,102.5,205,220,227.5,227.5,540
15,M,Nathan Berg,SBD,M-TJ,75,Single-ply,1999,,WI,71.9,175,185,195,195,82.5,-90,90,90,215,227.5,-235,227.5,512.5
DQ,M,Luis Perales,SBD,M-TJ,75,Single-ply,1999,Carrizo Springs High School,TX,74.5,-235,-235,-235,,152.5,-157.5,160,160,225,232.5,-235,232.5,
1,M,Kodi Dangerfield,SBD,M-TJ,90,Single-ply,1999,,LA,87.85,265,-272.5,272.5,272.5,180,190,200,200,265,277.5,-287.5,277.5,750
3,M,Jack Caminita,SBD,M-TJ,90,Single-ply,2000,St. Paul's School,LA,87.85,-265,270,287.5,287.5,175,195,207.5,207.5,192.5,205,210,210,705
4,M,Matthew Weisberg,SBD,M-TJ,90,Single-ply,1999,,MI,86.15,240,250,265,265,145,-165,-165,145,262.5,272.5,-295,272.5,682.5
5,M,Kourtney Hall,SBD,M-TJ,90,Single-ply,1998,Alexandria Senior High School,LA,88.7,242.5,265,272.5,272.5,-165,165,170,170,220,240,-260,240,682.5
6,M,Cooper Riehl,SBD,M-TJ,90,Single-ply,1999,,WI,89.8,252.5,262.5,275,275,135,142.5,147.5,147.5,245,255,-275,255,677.5
7,M,Jacob Czaplewski,SBD,M-TJ,90,Single-ply,1999,,WI,85.3,227.5,237.5,245,245,152.5,157.5,162.5,162.5,-235,235,240,240,647.5
8,M,Bryce Kasper,SBD,M-TJ,90,Single-ply,2000,,WI,88.45,220,235,-240,235,130,140,145,145,245,257.5,262.5,262.5,642.5
9,M,Mario Mendoza,SBD,M-TJ,90,Single-ply,2000,Carrizo Springs High School,TX,89,245,-270,-270,245,165,-182.5,-182.5,165,210,217.5,227.5,227.5,637.5
11,M,Trey Wilson,SBD,M-TJ,90,Single-ply,1999,Germantown High school,WI,86.15,215,227.5,240,240,137.5,145,-150,145,212.5,225,230,230,615
12,M,Allen Pennington,SBD,M-TJ,90,Single-ply,2000,Covington High school,LA,88.95,227.5,237.5,240,240,135,142.5,147.5,147.5,195,205,225,225,612.5
13,M,Jacob Williams,SBD,M-TJ,90,Single-ply,2000,,PA,87,-202.5,202.5,217.5,217.5,125,132.5,137.5,137.5,205,217.5,-230,217.5,572.5
DQ,M,Isaac Jerde,SBD,M-TJ,90,Single-ply,1998,,WI,89.5,-250,-255,-257.5,,140,147.5,150,150,-232.5,237.5,250,250,
2,M,Logan Rogers,SBD,M-TJ,100,Single-ply,1998,Covington High school,LA,92.1,262.5,277.5,285,285,172.5,-180,-180,172.5,272.5,287.5,-312.5,287.5,745
2,M,Andre Dusek,SBD,M-TJ,100,Single-ply,1998,,WI,98.8,285,290,302.5,302.5,140,147.5,-150,147.5,242.5,252.5,-262.5,252.5,702.5
4,M,Dylan Garrett,SBD,M-TJ,100,Single-ply,1999,Covington High school,LA,97.05,245,255,265,265,160,-167.5,167.5,167.5,217.5,230,242.5,242.5,675
5,M,Joseph Brittain,SBD,M-TJ,100,Single-ply,1998,,PA,99,240,260,272.5,272.5,122.5,135,137.5,137.5,227.5,250,-267.5,250,660
6,M,Trent Wells,SBD,M-TJ,100,Single-ply,1999,,LA,97.65,240,252.5,265,265,132.5,142.5,147.5,147.5,230,-240,240,240,652.5
7,M,Matt Hebert,SBD,M-TJ,100,Single-ply,1998,,LA,96.96,242.5,252.5,-265,252.5,132.5,140,147.5,147.5,240,250,-255,250,650
8,M,Jhamrius Miller,SBD,M-TJ,100,Single-ply,1998,Lake Cormorant High School,MS,97.25,227.5,-240,240,240,152.5,160,-165,160,217.5,227.5,232.5,232.5,632.5
10,M,Khalil Cousins,SBD,M-TJ,100,Single-ply,1999,,WI,91.45,222.5,235,245,245,137.5,145,150,150,-235,-235,235,235,630
9,M,Dalton Staller,SBD,M-TJ,100,Single-ply,1998,Necedah High School,WI,96.3,232.5,-245,250,250,137.5,142.5,-147.5,142.5,207.5,220,-227.5,220,612.5
10,M,Hunter Burlingame,SBD,M-TJ,100,Single-ply,2000,,WI,98.2,220,230,245,245,122.5,-132.5,132.5,132.5,230,-245,-255,230,607.5
11,M,James Bird,SBD,M-TJ,100,Single-ply,1998,,WI,97.8,-235,235,-255,235,112.5,117.5,-120,117.5,235,-245,-245,235,587.5
2,M,Marshall Messmer,SBD,M-TJ,110,Single-ply,1999,,WI,105.75,250,270,287.5,287.5,-160,160,-165,160,275,-292.5,307.5,307.5,755
1,M,Jonathan Rushing,SBD,M-TJ,110,Single-ply,1998,St. Paul's School,LA,102.5,-300,300,-320,300,-165,172.5,-182.5,172.5,265,275,277.5,277.5,750
3,M,Austin Dunlap,SBD,M-TJ,110,Single-ply,1999,,WI,100.7,250,270,282.5,282.5,167.5,175,-180,175,240,-255,-255,240,697.5
4,M,Montel Cormier,SBD,M-TJ,110,Single-ply,1999,Abbeville High School,LA,106.9,227.5,242.5,250,250,170,182.5,190,190,182.5,200,220,220,660
5,M,Carlos Rubio,SBD,M-TJ,110,Single-ply,1998,Alexandria Senior High School,LA,109.5,-222.5,230,-240,230,150,155,160,160,235,245,-272.5,245,635
6,M,Daniel Colvin,SBD,M-TJ,110,Single-ply,1998,Germantown High school,WI,106.6,232.5,245,255,255,112.5,120,-125,120,242.5,255,-265,255,630
8,M,Jaycee Mozdzen,SBD,M-TJ,110,Single-ply,2002,Germantown High school,WI,105.75,-225,225,235,235,122.5,130,137.5,137.5,202.5,215,222.5,222.5,595
1,M,Eddie Uden,SBD,M-TJ,125,Single-ply,1998,,WI,119.8,317.5,327.5,340,340,180,-192.5,-192.5,180,272.5,282.5,-305,282.5,802.5
3,M,Ethan Walters,SBD,M-TJ,125,Single-ply,1999,Germantown High school,WI,116.05,265,280,290,290,150,-157.5,157.5,157.5,222.5,232.5,242.5,242.5,690
4,M,Kole Parr,SBD,M-TJ,125,Single-ply,1998,Covington High school,LA,124.4,-265,265,-277.5,265,175,185,190,190,215,225,235,235,690
5,M,David Still,SBD,M-TJ,125,Single-ply,1999,,PA,121.9,242.5,262.5,272.5,272.5,132.5,145,152.5,152.5,220,245,247.5,247.5,672.5
7,M,Erick Alvarado,SBD,M-TJ,125,Single-ply,2000,Alexandria Senior High School,LA,123.3,-262.5,262.5,275,275,142.5,150,-160,150,215,227.5,235,235,660
10,M,Noah Stem,SBD,M-TJ,125,Single-ply,1999,Lake Cormorant High School,MS,122.6,255,-272.5,-272.5,255,127.5,137.5,142.5,142.5,222.5,235,-252.5,235,632.5
7,M,Daniel Carpenter,SBD,M-TJ,125,Single-ply,1999,,WI,119.65,240,255,-267.5,255,157.5,165,-177.5,165,205,-225,-225,205,625
9,M,Nicholas Coca,SBD,M-TJ,125,Single-ply,2000,,WI,118.2,220,230,232.5,232.5,122.5,127.5,-130,127.5,215,225,230,230,590
10,M,Shan Bloomer,SBD,M-TJ,125,Single-ply,1999,Necedah High School,WI,111.65,255,265,-272.5,265,125,132.5,-142.5,132.5,185,190,-215,190,587.5
11,M,Brandon Orosco,SBD,M-TJ,125,Single-ply,2000,Carrizo Springs High School,TX,117.9,212.5,227.5,-235,227.5,115,125,-137.5,125,185,197.5,207.5,207.5,560
12,M,E. Scott,SBD,M-TJ,125,Single-ply,1998,,PA,113.15,165,-182.5,207.5,207.5,145,157.5,-172.5,157.5,-190,190,-227.5,190,555
DQ,M,Griffin Cantu,SBD,M-TJ,125,Single-ply,1998,Ionia High School,MI,120.2,227.5,242.5,252.5,252.5,167.5,-175,-175,167.5,-215,-225,-232.5,,
1,M,Jacobian Guillory,SBD,M-TJ,125+,Single-ply,2000,Alexandria Senior High School,LA,150.6,295,317.5,325,325,150,162.5,167.5,167.5,245,255,257.5,257.5,750
2,M,Riley Kellom,SBD,M-TJ,125+,Single-ply,1998,Germantown High school,WI,148.45,272.5,287.5,297.5,297.5,190,195,202.5,202.5,207.5,220,225,225,725
3,M,Jadarrius Hodges,SBD,M-TJ,125+,Single-ply,1999,Lake Cormorant High School,MS,151.95,-240,255,-270,255,160,172.5,182.5,182.5,230,250,265,265,702.5
6,M,Nathan Zak,SBD,M-TJ,125+,Single-ply,2001,Germantown High school,WI,131.35,272.5,285,-297.5,285,147.5,152.5,157.5,157.5,210,222.5,230,230,672.5
8,M,Spencer Herrick,SBD,M-TJ,125+,Single-ply,2000,,WI,133.85,215,227.5,237.5,237.5,125,135,145,145,257.5,272.5,-275,272.5,655
9,M,Oscalito Arroyo,SBD,M-TJ,125+,Single-ply,1999,Cudahy High School,WI,143,265,282.5,300,300,125,127.5,130,130,-197.5,197.5,205,205,635
11,M,Maxwell Proctor,SBD,M-TJ,125+,Single-ply,1998,,WI,138.2,-217.5,-217.5,217.5,217.5,132.5,-137.5,-137.5,132.5,240,250,-255,250,600
12,M,Kade Bratzel,SBD,M-TJ,125+,Single-ply,2000,,SD,155.95,185,-192.5,-207.5,185,142.5,150,-160,150,215,-227.5,-227.5,215,550
1,M,Kendarius Brown,SBD,M-TJ,67.5,Single-ply,2000,Alexandria Senior High School,LA,64.05,215,232.5,237.5,237.5,117.5,-125,-125,117.5,212.5,225,227.5,227.5,582.5
5,M,Brady Stroik,SBD,M-TJ,67.5,Single-ply,1998,Germantown High school,WI,66.1,222.5,230,235,235,125,130,132.5,132.5,202.5,212.5,215,215,582.5
2,M,Mitchell Gibson,SBD,M-TJ,67.5,Single-ply,1999,,WI,65.65,-232.5,232.5,-240,232.5,100,-102.5,-102.5,100,210,222.5,-230,222.5,555
8,M,Dante Citizen,SBD,M-TJ,67.5,Single-ply,1999,Abbeville High School,LA,66.6,180,197.5,-205,197.5,115,122.5,-130,122.5,210,-230,230,230,550
11,M,Ian West,SBD,M-TJ,67.5,Single-ply,1999,,PA,66.7,192.5,-220,-220,192.5,-117.5,125,-137.5,125,200,217.5,-222.5,217.5,535
12,M,Spencer Butke,SBD,M-TJ,67.5,Single-ply,2000,Neenah High School,WI,66.4,182.5,192.5,207.5,207.5,97.5,102.5,-107.5,102.5,202.5,215,220,220,530
3,M,Travon Landry,SBD,M-TJ,67.5,Single-ply,1998,Abbeville High School,LA,63.05,172.5,187.5,195,195,115,122.5,127.5,127.5,187.5,200,205,205,527.5
13,M,David Ricalde,SBD,M-TJ,67.5,Single-ply,1999,St. Paul's School,LA,67.2,-197.5,197.5,-207.5,197.5,-102.5,107.5,115,115,195,205,210,210,522.5
14,M,Patrick Arbanas,SBD,M-TJ,67.5,Single-ply,1999,Necedah High School,WI,67.35,180,192.5,-205,192.5,112.5,120,125,125,185,195,-207.5,195,512.5
16,M,Austin Scott,SBD,M-TJ,67.5,Single-ply,1999,Covington High school,LA,66.45,175,182.5,195,195,92.5,102.5,110,110,187.5,197.5,-225,197.5,502.5
DQ,M,Brian Miller,SBD,M-TJ,67.5,Single-ply,1998,,WI,66.9,-205,-205,,,-97.5,-105,-105,,,,,,
1,M,Zaven Ouzounian,SBD,M-TJ,82.5,Single-ply,1999,,WI,81.4,257.5,-267.5,272.5,272.5,137.5,142.5,147.5,147.5,240,245,250,250,670
2,M,Noah Johnson,SBD,M-TJ,82.5,Single-ply,2000,,WI,80.6,242.5,255,262.5,262.5,130,135,140,140,242.5,252.5,257.5,257.5,660
3,M,Thomas Annello III,SBD,M-TJ,82.5,Single-ply,1999,Covington High school,LA,81.65,235,-247.5,247.5,247.5,167.5,177.5,185,185,210,220,225,225,657.5
4,M,Ryan Sanders,SBD,M-TJ,82.5,Single-ply,1999,,WI,78.68,220,227.5,232.5,232.5,142.5,152.5,-157.5,152.5,255,262.5,-267.5,262.5,647.5
6,M,Andrew Biggers,SBD,M-TJ,82.5,Single-ply,1998,Covington High school,LA,76.5,217.5,-232.5,232.5,232.5,160,167.5,175,175,210,220,230,230,637.5
8,M,Keevon Hines,SBD,M-TJ,82.5,Single-ply,2001,Alexandria Senior High School,LA,80.5,-225,225,-237.5,225,127.5,132.5,-145,132.5,230,245,-282.5,245,602.5
10,M,Cray Reagan,SBD,M-TJ,82.5,Single-ply,1998,,IL,80.85,207.5,-210,-220,207.5,122.5,125,-130,125,235,255,-272.5,255,587.5
12,M,Thomas Dugan,SBD,M-TJ,82.5,Single-ply,1999,St. Paul's School,LA,81.05,215,-230,-230,215,-137.5,145,152.5,152.5,192.5,205,210,210,577.5
13,M,D. Hawk,SBD,M-TJ,82.5,Single-ply,1999,,PA,80.85,170,182.5,192.5,192.5,127.5,137.5,-142.5,137.5,205,227.5,242.5,242.5,572.5
